waveform_viz/vcd/inv_dcdl_cond.vcd
$date
	Fri Mar 27 17:03:04 2026

$end
$version
	Chronologic Simulation VCS Release X-2025.06-SP2_Full64
$end
$timescale
	1ps
$end
$scope module tb_inv_dcdl_cond_viz $end
$scope module dut $end
$var reg 1 ! A $end
$var reg 2 " Q [1:0] $end
$var reg 1 $ Y $end
$var reg 1 % tap0 $end
$var reg 1 & tap1 $end
$var reg 1 ' tap2 $end
$var reg 1 ( tap3 $end
$var reg 1 ) mux0 $end
$var reg 1 * mux1 $end
$var reg 1 + mux2 $end
$scope module inv1 $end
$var reg 1 , in $end
$var reg 1 - out $end
$upscope $end
$scope module inv2 $end
$var reg 1 . in $end
$var reg 1 / out $end
$upscope $end
$scope module inv3 $end
$var reg 1 0 in $end
$var reg 1 1 out $end
$upscope $end
$scope module inv4 $end
$var reg 1 2 in $end
$var reg 1 3 out $end
$upscope $end
$scope module m0 $end
$var reg 1 4 x0 $end
$var reg 1 5 x1 $end
$var reg 1 6 s $end
$var reg 1 7 Y $end
$upscope $end
$scope module m1 $end
$var reg 1 8 x0 $end
$var reg 1 9 x1 $end
$var reg 1 : s $end
$var reg 1 ; Y $end
$upscope $end
$scope module m2 $end
$var reg 1 < x0 $end
$var reg 1 = x1 $end
$var reg 1 > s $end
$var reg 1 ? Y $end
$upscope $end
$scope module x1 $end
$var reg 1 @ a $end
$var reg 1 A b $end
$var reg 1 B y $end
$var reg 1 C n1 $end
$var reg 1 D n2 $end
$var reg 1 E n3 $end
$var reg 1 G xor_out $end
$scope module nand1 $end
$var reg 1 H a $end
$var reg 1 I b $end
$var reg 1 J out $end
$upscope $end
$scope module nand2_1 $end
$var reg 1 K a $end
$var reg 1 L b $end
$var reg 1 M out $end
$upscope $end
$scope module nand2_2 $end
$var reg 1 N a $end
$var reg 1 O b $end
$var reg 1 P out $end
$upscope $end
$scope module nand3 $end
$var reg 1 Q a $end
$var reg 1 R b $end
$var reg 1 F out $end
$upscope $end
$scope module inv1 $end
$var reg 1 S in $end
$var reg 1 # out $end
$upscope $end
$upscope $end
$upscope $end
$upscope $end
$enddefinitions $end
$dumpvars
0!
1S
b00 "
0$
0(
00
1@
0A
11
0B
1C
1)
12
0D
1E
03
1F
1G
1%
1*
14
1H
0I
05
1J
1K
1+
06
1L
0M
17
0N
1O
0#
0&
0,
18
1P
0Q
09
1R
1-
0:
1;
1'
1.
1<
1=
0/
0>
1?
$end
#5000
07
0?
0@
1!
0S
10
1$
1(
1D
1B
01
02
0)
1M
0H
0G
13
0F
04
0%
0*
15
0K
0+
1/
08
1#
1,
1&
19
1Q
0=
0;
0-
0<
0'
0.
#10000
1'
1.
05
0B
0!
1@
17
1?
0D
00
1S
0(
0$
1*
03
1)
11
12
1G
0M
1H
1%
14
1F
1<
0,
0/
1+
1K
0#
18
1-
09
0&
1;
0Q
1=
#15000
1Q
0=
0%
10
1B
15
0'
0.
1D
0@
1!
0?
07
0H
01
1$
0S
1(
0)
0*
13
1M
0G
02
0;
0+
0<
0F
04
1/
1,
1&
1#
0K
19
08
0-
#20000
18
1-
0M
1@
00
1%
0Q
1=
0D
05
0B
1.
1'
03
1S
17
0!
1?
0$
1H
11
1*
1)
0(
09
1F
1;
12
1G
1<
1+
1K
0/
14
0#
0,
0&
#25000
1,
1&
0*
15
0@
1M
08
0-
1D
0%
10
0=
1Q
01
1!
0'
1B
0.
07
13
0S
0H
1$
0?
1#
02
19
1(
0)
0;
0F
04
0<
0G
1/
0+
0K
#30000
1+
1K
1H
1%
05
1*
0,
0&
0D
0M
1@
1-
18
1S
0B
0Q
00
1=
1'
11
0!
03
17
1.
0/
0(
0#
1?
0$
09
12
1G
1;
1)
1<
1F
14
#35000
0F
04
13
1M
0%
0H
0+
0K
1D
0*
15
1&
1,
1!
10
08
0@
0-
1Q
0S
1B
01
0'
0=
0<
0?
1/
0.
07
1#
1(
0)
19
1$
0;
02
0G
#40000
11
b01 "
03
14
1%
0,
05
0&
18
0!
00
16
1-
1.
1'
0/
12
1:
09
0(
#45000
10
1(
1G
0M
1;
1F
1*
01
0D
1H
1K
1+
1!
15
13
1@
0B
1,
04
0%
08
1&
0Q
1S
0.
0-
1=
19
1<
1?
02
0$
17
0#
1/
0'
1)
#50000
1'
0)
0&
1D
0G
0(
00
11
0;
1M
0*
0F
18
0@
0+
0H
0K
03
0!
05
1%
14
1B
0,
0/
0=
0S
1Q
1-
1.
1#
0?
09
0<
07
12
1$
#55000
02
0$
04
1;
1&
1)
0'
01
1G
0D
10
1(
0%
1H
1F
0M
1*
1+
08
1@
15
1!
1K
13
17
1S
1,
0B
1=
1/
1<
0.
0Q
0-
19
0#
1?
#60000
1#
0?
0!
0G
14
1$
12
11
0&
0;
1'
0)
05
1M
0(
1D
00
0F
1%
0H
0@
18
0*
0+
09
0,
03
0K
0S
07
1-
0/
1B
0=
1Q
0<
1.
#65000
1<
0.
08
1&
1!
1?
0#
01
04
1G
02
0$
1@
0D
1)
1;
0'
1(
15
0M
1H
0%
10
1F
0Q
13
1+
1*
1,
19
1=
17
1K
1S
0B
0-
1/
#70000
1-
0/
1%
14
18
1.
0<
11
0!
0&
1#
0?
0H
0;
1$
0G
12
0)
0@
1D
1M
05
1'
0(
1B
0+
0F
00
03
1Q
0S
09
0*
0,
0K
0=
07
#75000
1=
17
15
1!
0%
1/
0-
01
08
04
1<
0.
0M
1G
1?
1&
0#
0$
1H
1;
0D
1@
02
1)
1K
1F
1(
0'
1+
0B
1,
0Q
10
13
1*
1S
19
#80000
0S
09
18
05
b10 "
1>
0:
06
11
1%
1A
0!
1-
0C
0/
1D
0&
1.
14
1M
0G
1$
0L
1I
0J
1#
0(
1N
0O
12
0F
03
1B
1'
00
0,
1Q
#85000
1,
0;
0H
1!
08
1S
0@
0E
19
07
0=
0)
15
0%
01
1L
1&
1C
0-
0<
0R
0?
1/
0$
04
1G
10
0.
0#
0*
1J
1(
0P
0K
0'
02
1O
0+
0B
1F
13
#90000
0F
03
1$
1)
1@
1H
0,
1;
0S
0!
18
1=
1E
17
09
0/
1-
11
05
1%
0C
0L
0&
1?
1<
1R
1B
0J
00
14
0G
1*
1.
1#
1+
1K
0(
1P
0O
1'
12
#95000
0'
02
0?
0=
1,
0$
1F
13
0H
0)
0@
08
0;
1!
1S
1&
15
19
0E
07
01
1/
0-
1L
0%
1C
1O
1G
0B
0<
0R
04
1J
10
0P
0#
0*
0.
1(
0+
0K
#100000
1+
1K
0L
18
0F
1?
1'
12
1$
1=
0,
1@
03
1)
1H
1-
1E
0S
1;
0!
09
0&
05
0/
17
11
0(
1R
0O
1%
0C
1<
0G
1B
1.
00
14
0J
1*
1P
1#
#105000
0P
0#
1/
0@
0'
1L
0+
0K
0?
08
1F
1,
02
0=
0$
15
0;
0H
13
0)
1S
0-
0E
1&
1!
19
0*
1C
1(
07
01
0%
0R
1O
1J
0B
0<
1G
04
0.
10
#110000
1.
00
0&
0,
1+
0/
1P
1#
0L
1@
1'
0F
1K
18
1?
1E
03
1$
12
1=
1H
05
1;
1-
1)
0S
14
11
1*
0!
09
17
0C
0(
0G
0O
1%
1R
1<
0J
1B
#115000
1J
0B
0-
1F
0P
1&
0.
10
1/
1,
0+
0'
0#
0@
1L
0;
02
0?
0K
08
0$
0E
13
15
0=
0H
0<
19
04
0)
1S
1!
01
0*
0R
1(
07
1C
0%
1G
1O
#120000
05
1'
1.
1-
0&
00
1:
b11 "
0,
16
0/
12
18
03
1%
09
14
0!
11
0(
#125000
01
1(
02
1;
15
0G
0J
1B
0O
0F
1P
1?
0.
1+
0'
10
0-
1&
1/
1E
0L
1#
1K
1@
1,
1$
1!
13
1<
1=
1H
08
1)
0S
04
0%
1*
0C
19
1R
17
#130000
0R
07
0@
1'
1J
12
11
0(
1G
0;
05
0+
1F
0B
1O
1.
0P
0?
0K
0/
1-
00
0&
0#
0E
1L
09
0H
0!
0,
0$
0=
03
0<
1C
1S
18
0)
0*
14
1%
#135000
04
0%
1#
0O
01
1@
1R
17
02
0'
0J
1B
1;
1(
0G
0F
15
1+
1&
1K
1P
0.
1?
10
1/
0-
1*
1$
19
1E
0L
1,
1H
1!
1)
1<
1=
13
08
0C
0S
#140000
1C
1S
00
1G
0R
0#
14
1%
0@
1O
11
0(
1'
07
12
0;
1J
0B
0?
0&
05
1F
0+
1.
0K
0P
18
1L
0*
0/
1-
0E
0$
09
03
0!
0,
0H
0=
0)
0<
#145000
1)
1<
0.
02
04
10
0C
0S
1#
0G
1R
17
0O
0%
1@
0'
01
1(
1+
1?
0J
1;
1B
0F
1&
15
1=
0-
08
1K
1P
1/
0L
1*
1H
19
1E
1$
1,
13
1!
#150000
03
0!
1F
0@
1C
1.
0)
0<
00
12
14
1%
1G
1S
0#
1O
0R
07
0B
0+
11
1'
0(
0;
0?
1J
0,
0P
0=
0&
05
0K
1-
18
0$
0*
0/
1L
0E
0H
09
#155000
1H
19
1;
1#
1)
0F
13
1!
0.
1@
0C
0S
02
1<
10
0G
04
0%
1(
1B
1R
0O
17
0'
1+
01
1E
15
1,
1?
0J
1&
1P
1=
0L
08
1K
0-
1/
1$
1*
#160000
0$
0*
1G
1S
1C
1.
0!
0)
0#
09
0H
18
1L
0P
0&
0,
05
11
0+
0R
0B
1%
14
12
0@
1F
0;
0K
0=
0?
0E
1O
0(
0<
03
1-
1J
07
00
0/
1'
