waveform_viz/vcd/inv_dcdl_glitch_free.vcd
$date
	Fri Mar 27 17:03:12 2026

$end
$version
	Chronologic Simulation VCS Release X-2025.06-SP2_Full64
$end
$timescale
	1ps
$end
$scope module tb_inv_dcdl_glitch_free_viz $end
$scope module dut $end
$var reg 1 ! clk $end
$var reg 1 " rst_n $end
$var reg 1 # A $end
$var reg 2 $ Q [1:0] $end
$var reg 1 & Y $end
$var reg 1 ' tap0 $end
$var reg 1 ( tap1 $end
$var reg 1 ) tap2 $end
$var reg 1 * tap3 $end
$var reg 4 + sel [3:0] $end
$var reg 4 , sel_reg [3:0] $end
$var reg 1 - ntap0 $end
$var reg 1 . ntap1 $end
$var reg 1 / ntap2 $end
$var reg 1 0 ntap3 $end
$var reg 1 1 y0 $end
$var reg 1 2 y1 $end
$var reg 1 3 y2 $end
$var reg 1 4 y3 $end
$var reg 1 5 n01 $end
$var reg 1 6 n23 $end
$scope module inv1 $end
$var reg 1 7 in $end
$var reg 1 8 out $end
$upscope $end
$scope module inv2 $end
$var reg 1 9 in $end
$var reg 1 : out $end
$upscope $end
$scope module inv3 $end
$var reg 1 ; in $end
$var reg 1 < out $end
$upscope $end
$scope module inv_t0 $end
$var reg 1 = in $end
$var reg 1 > out $end
$upscope $end
$scope module inv_t1 $end
$var reg 1 ? in $end
$var reg 1 @ out $end
$upscope $end
$scope module inv_t2 $end
$var reg 1 A in $end
$var reg 1 B out $end
$upscope $end
$scope module inv_t3 $end
$var reg 1 C in $end
$var reg 1 D out $end
$upscope $end
$scope module n0 $end
$var reg 1 E a $end
$var reg 1 F b $end
$var reg 1 G out $end
$upscope $end
$scope module n1 $end
$var reg 1 H a $end
$var reg 1 I b $end
$var reg 1 J out $end
$upscope $end
$scope module n2 $end
$var reg 1 K a $end
$var reg 1 L b $end
$var reg 1 M out $end
$upscope $end
$scope module n3 $end
$var reg 1 N a $end
$var reg 1 O b $end
$var reg 1 P out $end
$upscope $end
$scope module n4 $end
$var reg 1 Q a $end
$var reg 1 R b $end
$var reg 1 S out $end
$upscope $end
$scope module n5 $end
$var reg 1 T a $end
$var reg 1 U b $end
$var reg 1 V out $end
$upscope $end
$scope module n6 $end
$var reg 1 W a $end
$var reg 1 X b $end
$var reg 1 % out $end
$upscope $end
$upscope $end
$upscope $end
$enddefinitions $end
$dumpvars
0!
0X
0"
b00 $
1(
00
0@
0A
01
1B
1C
0)
12
0D
1E
13
1F
0G
1%
1*
1W
14
0H
0I
15
1J
1K
b0001 +
06
0L
1M
07
0N
0O
0#
1&
b0001 ,
0V
18
1P
0Q
19
1R
1S
1-
0:
1T
1U
0;
0'
0.
1<
0=
1/
1>
1?
$end
#5000
1!
#10000
0!
#15000
1"
1!
#20000
0!
#25000
1!
#30000
0!
#35000
1!
#40000
0-
0!
0?
0>
17
0E
1@
10
0(
1D
0B
1A
11
0C
1)
1H
1G
0*
0W
05
0K
0S
0/
1#
1N
08
1Q
09
1:
1=
1;
0<
1'
1.
#45000
0'
0.
1W
0A
07
1!
1-
1>
1?
1B
00
1E
0@
0D
1(
1*
0)
1C
01
0G
0H
1<
18
1S
15
1K
0N
1/
0#
0;
0Q
0=
19
0:
#50000
09
1:
11
0E
17
1.
1'
1A
0W
10
0>
0!
0-
0B
0?
0C
0(
1D
1@
1)
0*
1=
0K
0<
1G
1H
05
08
0S
1Q
1N
1;
0/
1#
#55000
1/
0#
0@
1!
07
0:
19
1E
01
1>
0A
0.
0'
00
1W
0D
1?
1B
1-
1(
1C
0;
0H
0=
0)
1*
0G
1K
1<
0N
15
0Q
18
1S
#60000
08
0S
0-
1.
17
1#
0/
0!
1@
1A
0E
1:
09
0>
11
0B
0W
10
1'
0?
1D
1Q
0*
1;
0(
0C
1)
1H
1=
05
1G
1N
0K
0<
#65000
1K
1<
0'
0:
07
1S
18
0.
1-
1E
1!
0#
1/
0A
0@
00
01
1>
19
1W
1B
0N
1C
0Q
1?
0D
1(
1*
0;
0G
0)
15
0H
0=
#70000
1H
1=
09
1#
17
0<
0K
1:
1'
0!
1.
0S
08
0E
0-
0>
1@
1A
0/
11
10
05
1D
1N
0W
0B
0?
0C
1Q
1)
0(
1G
0*
1;
#75000
1*
0;
1/
1S
07
0=
0H
0#
b01 $
19
0.
0:
1<
1K
1!
0'
0A
1-
1E
18
0@
1>
b0010 +
0G
1B
15
01
00
1W
0D
0N
1(
1?
0)
1C
0Q
#80000
0!
#85000
1Q
1!
0S
0F
1I
1G
b0010 ,
11
05
0W
#90000
1S
1W
0C
0<
1;
0*
1=
0/
17
1:
1H
1#
1.
02
09
0!
1@
08
1'
0K
0R
0E
0J
0-
1A
1)
0>
10
15
0B
0?
0(
1D
1N
#95000
0D
0N
1J
0#
0;
0S
1<
0W
1C
0H
0=
1*
0:
1/
07
1E
1!
0.
19
12
1R
18
0@
1K
0'
1(
1>
0A
1-
0)
1?
1B
00
05
#100000
10
15
1@
0*
1;
1D
1#
1N
0J
1=
0<
1S
1H
1W
0C
08
0E
1:
17
0/
0R
1.
0!
02
09
0B
0>
1'
0K
0(
0?
1)
1A
0-
#105000
0A
1-
1!
0S
0;
00
1*
05
0@
1<
0#
0D
0=
0N
1J
0.
18
0H
1C
0W
1R
0:
1E
1/
07
0)
1>
19
12
1B
1?
1(
0'
1K
#110000
1'
0K
0E
1D
1;
1A
1S
0-
0!
1#
0*
10
0<
15
1@
1:
1.
1=
0J
1N
0R
1H
08
1W
0C
0(
0>
17
0/
1)
0?
0B
09
02
#115000
19
12
18
00
0;
0'
0D
1K
1E
1*
0S
0A
0#
1-
1!
0H
0:
1<
0@
05
1R
0=
0.
0N
1J
1B
1>
1C
0W
1(
1?
0)
07
1/
#120000
17
0/
1.
1A
1;
09
10
02
08
1S
1D
1'
0*
0K
0E
1=
1H
1#
0!
0-
0R
0<
1:
15
1@
1)
0>
0J
1N
0B
0?
0(
0C
1W
#125000
1C
0W
0:
0'
0;
07
b0100 +
0A
1/
0.
0D
00
b10 $
19
0S
12
1!
18
1<
0=
1*
1E
1K
1R
0#
0H
1-
1(
1>
0@
05
0)
1?
1B
1J
0N
#130000
0!
#135000
1X
16
03
0M
1!
1L
1V
0I
b0100 ,
0T
#140000
1M
1T
08
09
17
0C
1;
1:
1'
0/
1A
10
1.
1D
13
0X
1N
1=
1#
0<
06
0K
0E
0!
0-
1H
0B
0(
0>
0V
0?
1)
1@
0*
#145000
0@
1*
16
0A
07
0M
19
0T
18
1/
1C
0'
0;
0:
1<
1X
0D
00
0.
03
0#
0N
0=
0)
0H
1K
1-
1E
1!
1?
1B
1V
1(
1>
#150000
0(
0>
1#
0C
17
1@
1A
0*
06
0/
1M
08
09
1T
13
0X
1:
1'
1;
0<
1.
1D
10
0V
0K
1N
1H
1=
1)
0B
0-
0?
0E
0!
#155000
1E
1!
0.
0M
07
1(
1C
1>
0#
1/
0@
16
0A
1*
1<
1X
0T
18
19
03
0;
0:
0'
1?
0N
0D
1K
00
1V
1-
0H
1B
0=
0)
#160000
1=
1)
1;
1@
17
0E
1M
0!
1.
0/
0(
1#
0C
0>
13
0X
0*
06
1A
0<
09
1T
08
0B
1D
1:
1N
1'
0?
1H
0K
0-
10
0V
#165000
00
1V
19
1(
07
0=
0@
0)
0;
1/
1E
0.
0M
1!
1<
1X
1>
0#
1C
03
0A
1*
16
1-
0:
0T
0D
18
1B
1K
0N
0H
0'
1?
#170000
1'
0?
1A
0E
17
10
0(
0V
09
0/
1=
1;
1@
1)
13
0X
0!
1.
1M
0<
0C
0>
1#
1H
1T
0*
1:
06
0-
1N
1D
0K
08
0B
#175000
18
1B
1C
0=
07
0'
1E
1?
0A
1/
00
b1000 +
b11 $
0@
0;
19
1(
1V
1<
1X
0)
03
0M
1!
0.
1K
1*
1>
0T
0#
0H
0D
0:
0N
16
1-
#180000
0!
#185000
06
1!
b1000 ,
1M
13
0V
0X
1O
1T
0L
#190000
0C
0B
1A
0-
1;
17
08
0P
1=
1@
0?
10
0/
0!
16
0(
1)
0<
09
1'
0E
1N
04
0>
0*
1.
0K
1X
1V
1:
0U
1D
1#
1H
#195000
0#
0H
0)
0=
0;
0A
1C
1B
1-
1P
07
18
1(
00
0@
1?
06
1/
1!
0D
1>
0'
1<
19
14
1E
0N
1U
1K
1*
0.
0:
0X
0V
#200000
1X
1V
16
0-
1;
1)
1#
1H
1=
0B
1A
0C
0?
08
0P
17
1@
0(
10
1:
09
1D
0/
0!
0<
0>
1'
1.
1N
04
0E
0*
0U
0K
#205000
1U
1K
0@
0=
0;
06
0X
0V
1-
0H
0)
0#
07
1C
1B
0A
1P
1?
18
1*
1!
0:
1(
00
1/
19
0D
1E
0'
1<
1>
14
0.
0N
#210000
1.
1N
0P
0-
1;
1@
0U
0K
1=
1V
16
1X
1A
1#
1H
1)
0B
17
0C
04
10
0*
0?
08
0(
0!
1:
0>
1D
0/
09
0<
0E
1'
#215000
1E
0'
1B
0=
0;
1P
0.
0N
1-
1K
0@
1U
0)
0X
0V
06
0H
0A
0#
1<
18
14
07
1C
1?
00
1*
19
0:
1(
1!
1/
1>
0D
#220000
0>
1D
1H
0-
1;
0B
0E
1'
1=
1N
0P
1.
16
0U
0K
1@
1V
1)
1X
0/
0C
0<
1A
1#
17
08
04
0!
0*
0?
10
0(
09
1:
#225000
19
0:
0D
1>
1*
1!
18
0V
07
1<
1C
0X
0)
1U
06
1P
0N
1E
1B
1-
0=
1?
14
0A
1/
1K
0.
0'
0;
00
0#
0@
0H
1(
