waveform_viz/vcd/inv_dcdl.vcd
$date
	Fri Mar 27 17:03:00 2026

$end
$version
	Chronologic Simulation VCS Release X-2025.06-SP2_Full64
$end
$timescale
	1ps
$end
$scope module tb_inv_dcdl_viz $end
$scope module dut $end
$var reg 1 ! A $end
$var reg 2 " Q [1:0] $end
$var reg 1 $ Y $end
$var reg 1 % tap0 $end
$var reg 1 & tap1 $end
$var reg 1 ' tap2 $end
$var reg 1 ( tap3 $end
$var reg 1 ) d0 $end
$var reg 1 * d1 $end
$var reg 1 + d2 $end
$var reg 1 , d3 $end
$var reg 1 - mux0 $end
$var reg 1 . mux1 $end
$scope module inv0 $end
$var reg 1 / in $end
$var reg 1 0 out $end
$upscope $end
$scope module inv1 $end
$var reg 1 1 in $end
$var reg 1 2 out $end
$upscope $end
$scope module inv2 $end
$var reg 1 3 in $end
$var reg 1 4 out $end
$upscope $end
$scope module inv3 $end
$var reg 1 5 in $end
$var reg 1 6 out $end
$upscope $end
$scope module inv4 $end
$var reg 1 7 in $end
$var reg 1 8 out $end
$upscope $end
$scope module inv5 $end
$var reg 1 9 in $end
$var reg 1 : out $end
$upscope $end
$scope module inv6 $end
$var reg 1 ; in $end
$var reg 1 < out $end
$upscope $end
$scope module inv7 $end
$var reg 1 = in $end
$var reg 1 > out $end
$upscope $end
$scope module m0 $end
$var reg 1 ? x0 $end
$var reg 1 @ x1 $end
$var reg 1 A s $end
$var reg 1 B Y $end
$upscope $end
$scope module m1 $end
$var reg 1 C x0 $end
$var reg 1 D x1 $end
$var reg 1 E s $end
$var reg 1 F Y $end
$upscope $end
$scope module m2 $end
$var reg 1 G x0 $end
$var reg 1 H x1 $end
$var reg 1 I s $end
$var reg 1 # Y $end
$upscope $end
$upscope $end
$upscope $end
$enddefinitions $end
$dumpvars
0!
0I
b00 "
0$
0(
10
0@
0A
11
0B
0C
1)
02
0D
0E
03
0F
0G
0%
1*
14
0H
15
1+
06
07
0#
0&
1,
18
19
0-
0:
0;
0'
0.
1<
1=
0/
0>
0?
$end
#5000
1>
1?
0+
1@
1!
00
1$
1(
1D
1B
01
12
1C
0)
05
1%
1F
13
1G
1H
0*
04
1/
09
1#
16
17
08
1&
0,
0=
1;
1-
1:
0<
1'
1.
#10000
0'
0.
0H
11
0@
1+
0>
0?
0B
10
0!
0D
0$
0(
0G
15
0C
02
1)
03
0%
0F
1<
07
0/
1*
14
06
19
0#
0:
1,
18
0&
0-
1=
0;
#15000
0=
1;
13
1!
01
1H
1'
1.
00
0+
1@
1B
1>
1?
0)
1G
1$
1D
1(
12
05
1C
1-
04
0<
1%
1F
0*
17
1/
1&
1#
16
09
08
1:
0,
#20000
0:
1,
02
0@
0!
03
1=
0;
1+
0H
11
10
0'
0.
0(
1)
0>
0B
0?
0D
0G
0$
18
0F
0-
15
0C
0%
14
1<
19
0/
1*
07
06
0&
0#
#25000
1&
1#
1D
01
1@
12
1:
0,
1H
13
1!
0+
0=
1;
1?
1(
1'
00
1.
1B
0)
1>
16
1C
08
1G
1$
05
1F
1-
17
0<
1%
04
0*
09
1/
#30000
19
0/
0B
0!
11
0D
0&
0#
03
02
0@
0H
0:
1,
0.
0?
1=
1+
0;
10
0(
0'
1*
0$
06
1)
0>
0G
0C
18
14
0-
15
0F
0%
07
1<
#35000
17
0<
00
1@
1!
1B
09
1/
12
1D
01
13
1&
1#
1;
1.
1:
1H
0,
0+
1?
0=
1%
1>
0*
1(
1'
0)
1$
16
1F
08
1G
1C
05
04
1-
#40000
14
0-
1+
11
0@
1E
b01 "
10
07
1<
0D
0B
1A
0!
02
19
0/
1,
0;
0&
03
0#
0H
0.
0:
15
0'
0%
0?
1=
0(
0>
1*
0C
06
1)
0$
0G
0F
18
#45000
1F
08
1H
1!
1-
04
1@
0+
01
17
00
1B
0<
1D
1#
0,
09
12
1/
13
1;
1&
1G
0=
05
1.
1:
1?
1'
1%
1$
0*
1(
1>
0)
1C
16
#50000
0C
06
03
10
0-
0F
0!
18
0H
07
14
11
0@
1+
0/
0#
1<
0B
0D
02
1,
19
1)
0:
0G
0;
0&
0.
1=
15
0>
0%
0?
0'
0(
0$
1*
#55000
1$
0*
12
04
1-
1C
00
16
13
17
1F
1H
1!
08
1D
1/
1@
01
0+
1B
1#
0<
1(
1&
0)
0,
09
1;
1:
1G
1'
05
1.
0=
1?
1>
1%
#60000
0>
0%
0B
0F
0-
0$
14
1*
02
07
0C
03
10
06
1+
0D
0!
0H
18
11
0/
0@
0?
19
0(
0#
1<
1,
0&
1)
1=
0G
0;
0:
0.
0'
15
#65000
1'
05
01
1C
1-
1>
1F
1%
1B
17
1$
12
04
0*
08
0+
00
13
16
1H
1D
1!
1.
0<
1?
1/
1@
1#
09
1(
1:
0)
0,
1&
1;
0=
1G
#70000
1=
0G
0H
0$
0-
0'
0C
15
11
07
0>
0B
0F
0%
06
18
14
02
1*
03
1+
10
0;
0@
0.
0D
0!
0/
1<
0?
0&
0(
0#
19
1,
0:
1)
#75000
1:
0)
13
1>
1-
0=
1$
1G
1H
17
1'
01
1C
05
0*
16
1F
1B
1%
12
08
04
0,
1!
1;
0+
00
1D
1@
1.
09
1?
1/
0<
1#
1&
1(
#80000
0&
0(
02
0'
0-
0:
0E
1I
0>
11
1)
03
07
1=
b10 "
0A
0H
0$
0G
0%
1*
0C
15
0B
06
0F
0#
10
1,
18
14
1+
0!
0;
1<
0.
0D
0@
0/
19
0?
#85000
09
1?
1B
12
1&
1(
1:
1'
1-
0)
1>
01
0=
13
17
05
1G
1H
1$
1C
1%
0*
1/
04
1#
16
1F
08
00
0,
1@
1;
0+
1!
1D
0<
1.
#90000
1<
0.
0C
11
0&
19
02
0?
0B
0>
0:
0(
1)
0'
0-
0$
07
1=
03
0H
15
0G
0D
0F
0/
0%
1*
06
14
0#
0!
1,
18
10
1+
0@
0;
#95000
1@
1;
1H
1(
1&
0<
01
1.
1C
1:
12
09
1>
1?
1B
13
1-
0)
1'
0=
1$
17
0+
0*
1D
05
1G
1%
1F
1/
00
1#
16
04
08
1!
0,
#100000
0!
1,
1=
19
0&
0@
0(
0;
0H
02
11
1<
0:
0.
0C
0'
0B
0>
0?
1)
03
0-
18
0G
1+
0$
07
15
1*
0D
14
0/
0%
0F
06
10
0#
#105000
00
1#
0)
0<
1&
1!
09
0,
0=
01
1(
1@
12
1;
1H
1?
1C
1:
1.
1>
1'
1B
16
17
08
13
1-
1$
1G
0+
1F
1D
05
0*
1%
04
1/
#110000
14
0/
0>
0@
0&
10
1<
0#
1)
0(
19
0!
11
1,
1=
0.
0H
02
0;
0:
0?
0C
0%
0-
06
0'
0B
03
07
18
1*
1+
0$
0G
15
0F
0D
#115000
1F
1D
1:
1!
1&
04
1@
1/
1>
09
0<
00
1(
1#
0)
1;
0=
01
0,
12
1.
1H
05
1B
1%
1?
1C
1'
1-
16
1G
08
13
17
1$
0*
0+
#120000
1*
1+
02
10
0&
0F
1E
1A
0>
0/
0!
0D
0:
1<
0@
b11 "
14
19
1,
1)
0(
0#
11
0;
1=
0$
0C
15
0.
0H
0?
0B
0%
07
06
0'
0-
03
0G
18
#125000
1G
08
01
1@
1>
12
0*
0+
1F
00
1&
0<
1D
1/
1:
1#
09
1!
04
1(
0,
0)
13
1H
1$
1;
0=
1.
1C
05
1-
1%
1?
1B
1'
17
16
#130000
07
06
0(
1<
1*
11
0G
18
02
0@
0>
0&
0F
1+
10
14
0:
0D
0/
0!
0#
19
0'
1=
03
1,
1)
0;
0H
0$
0B
15
0.
0C
0?
0-
0%
#135000
1-
1%
1!
1&
1G
1(
17
16
01
0<
0*
1>
12
08
1@
1/
00
1F
0+
1D
04
1:
1?
0)
1'
1#
09
0,
0=
13
1C
1$
1;
1H
1.
1B
05
#140000
0B
15
0D
0>
07
0!
0-
0%
0(
0&
0G
1*
11
06
1<
1+
0@
02
18
0F
0/
10
0.
19
0?
14
0:
0#
1)
0'
0H
03
1,
1=
0;
0C
0$
#145000
1C
1$
1F
0*
1-
1D
1B
05
1!
1>
17
1G
1(
1%
1&
08
0<
01
16
12
0+
1@
1;
1:
1.
1/
00
04
09
1?
0=
1'
1#
0)
0,
1H
13
#150000
0H
03
02
0G
0B
0F
0C
0$
0D
1*
0-
07
0!
15
0>
06
0&
0(
0%
11
18
1<
1,
10
0;
1+
0@
0/
0:
0.
1)
0?
14
19
0#
1=
0'
#155000
0=
1'
01
17
1C
12
1H
13
1F
1G
1B
1-
1D
1$
0*
1%
1>
1!
05
1(
16
1&
1#
1@
0,
08
0<
0+
00
1;
09
1.
1/
1:
04
0)
1?
#160000
1)
0?
03
0C
07
0'
1=
0.
19
10
1+
1,
0@
0&
06
0>
0%
0$
0D
0G
0F
02
11
0/
0;
18
0#
0!
1*
0B
0H
0:
1<
15
0-
14
0(
