waveform_viz/vcd/nand_dcdl.vcd
$date
	Fri Mar 27 17:03:08 2026

$end
$version
	Chronologic Simulation VCS Release X-2025.06-SP2_Full64
$end
$timescale
	1ps
$end
$scope module tb_nand_dcdl_top_viz $end
$scope module dut $end
$var reg 1 ! clk $end
$var reg 1 " rst_n $end
$var reg 1 # shift_left $end
$var reg 1 $ shift_right $end
$var reg 1 % A $end
$var reg 1 ' Y $end
$var reg 4 ( Q [3:0] $end
$scope module sr $end
$var reg 1 ) clk $end
$var reg 1 * rst_n $end
$var reg 1 + shift_left $end
$var reg 1 , shift_right $end
$var reg 4 - Q [3:0] $end
$upscope $end
$scope module dcdl $end
$var reg 1 . A $end
$var reg 4 / Q [3:0] $end
$var reg 1 0 Y $end
$var reg 1 1 s3 $end
$var reg 1 2 s2 $end
$var reg 1 3 s1 $end
$var reg 1 4 s0 $end
$scope module cell3 $end
$var reg 1 5 in1 $end
$var reg 1 6 in0 $end
$var reg 1 7 ctl $end
$var reg 1 8 out $end
$var reg 1 9 inv1_output $end
$var reg 1 : nand_cell_1 $end
$var reg 1 ; nand_cell_2 $end
$scope module inv1 $end
$var reg 1 < in $end
$var reg 1 = out $end
$upscope $end
$scope module nand2_1 $end
$var reg 1 > a $end
$var reg 1 ? b $end
$var reg 1 @ out $end
$upscope $end
$scope module nand2_2 $end
$var reg 1 A a $end
$var reg 1 B b $end
$var reg 1 C out $end
$upscope $end
$scope module nand2_3 $end
$var reg 1 D a $end
$var reg 1 E b $end
$var reg 1 F out $end
$upscope $end
$upscope $end
$scope module cell2 $end
$var reg 1 G in1 $end
$var reg 1 H in0 $end
$var reg 1 I ctl $end
$var reg 1 J out $end
$var reg 1 K inv1_output $end
$var reg 1 L nand_cell_1 $end
$var reg 1 M nand_cell_2 $end
$scope module inv1 $end
$var reg 1 N in $end
$var reg 1 O out $end
$upscope $end
$scope module nand2_1 $end
$var reg 1 P a $end
$var reg 1 Q b $end
$var reg 1 R out $end
$upscope $end
$scope module nand2_2 $end
$var reg 1 S a $end
$var reg 1 T b $end
$var reg 1 U out $end
$upscope $end
$scope module nand2_3 $end
$var reg 1 V a $end
$var reg 1 W b $end
$var reg 1 X out $end
$upscope $end
$upscope $end
$scope module cell1 $end
$var reg 1 Y in1 $end
$var reg 1 Z in0 $end
$var reg 1 [ ctl $end
$var reg 1 \ out $end
$var reg 1 ] inv1_output $end
$var reg 1 ^ nand_cell_1 $end
$var reg 1 _ nand_cell_2 $end
$scope module inv1 $end
$var reg 1 ` in $end
$var reg 1 a out $end
$upscope $end
$scope module nand2_1 $end
$var reg 1 b a $end
$var reg 1 c b $end
$var reg 1 d out $end
$upscope $end
$scope module nand2_2 $end
$var reg 1 e a $end
$var reg 1 f b $end
$var reg 1 g out $end
$upscope $end
$scope module nand2_3 $end
$var reg 1 h a $end
$var reg 1 i b $end
$var reg 1 j out $end
$upscope $end
$upscope $end
$scope module cell0 $end
$var reg 1 k in1 $end
$var reg 1 l in0 $end
$var reg 1 m ctl $end
$var reg 1 n out $end
$var reg 1 o inv1_output $end
$var reg 1 p nand_cell_1 $end
$var reg 1 q nand_cell_2 $end
$scope module inv1 $end
$var reg 1 r in $end
$var reg 1 s out $end
$upscope $end
$scope module nand2_1 $end
$var reg 1 t a $end
$var reg 1 u b $end
$var reg 1 v out $end
$upscope $end
$scope module nand2_2 $end
$var reg 1 w a $end
$var reg 1 x b $end
$var reg 1 y out $end
$upscope $end
$scope module nand2_3 $end
$var reg 1 z a $end
$var reg 1 { b $end
$var reg 1 & out $end
$upscope $end
$upscope $end
$upscope $end
$upscope $end
$upscope $end
$enddefinitions $end
$dumpvars
0!
1{
0"
0$
b0001 (
00
1@
0`
1z
1a
0A
0b
1c
01
0B
1d
0e
1C
0f
1g
0)
02
1D
1h
1y
1i
1E
0j
0k
03
0F
0l
1m
0G
0n
0o
0%
0*
04
0H
1p
1q
0I
1r
0s
05
0J
1x
0t
0u
1K
1v
0w
0+
06
1L
1M
07
0N
1O
0#
0&
0,
08
0P
1Q
19
1R
0S
b0001 -
1:
0T
1U
1;
1V
1W
0'
0.
0<
0X
0Y
1=
0Z
0[
b0001 /
0>
0\
1]
1?
1^
1_
$end
#5000
1!
1)
#10000
0!
0)
#15000
1"
1*
1!
1)
#20000
0!
0)
#25000
1!
1)
1n
1A
1l
1e
0y
10
0{
1%
14
1'
1H
0q
1w
16
1&
1S
1.
1Z
#30000
0!
0)
#35000
1!
1)
0Z
0.
0w
0n
0A
1q
0%
0e
0l
1{
1y
00
0H
0'
04
0S
0&
06
#40000
0!
0)
#45000
1!
1)
16
1&
1H
1Z
1.
10
1e
1n
1w
1%
1A
0q
0y
0{
1l
1S
14
1'
#50000
0!
0)
#55000
1!
1)
0'
04
1y
06
0&
1q
0n
0Z
0H
0e
0.
00
0A
0%
0w
0S
0l
1{
#60000
0!
0)
#65000
1!
1)
0{
1l
1A
1'
14
10
1Z
16
0y
1n
1&
0q
1.
1e
1H
1S
1w
1%
#70000
0!
0)
1+
1#
#75000
1!
0x
0_
0m
1`
b0010 (
0p
0z
0a
0c
1{
1f
0g
0i
13
1j
1k
1t
1o
1y
1q
1u
0v
1)
1s
b0010 -
0]
0r
1\
1[
b0010 /
#80000
0!
0+
0#
0)
#85000
0w
1)
1i
1_
1g
1z
0.
1p
0l
1!
0k
06
0'
0A
0%
0j
00
0n
04
0t
0&
0Z
0\
1v
0S
03
0H
0e
#90000
0)
0!
#95000
1)
1!
1e
1t
0z
0g
1w
0i
0_
1H
14
1l
1.
0p
1'
16
1k
1n
1A
10
1%
1j
13
1Z
1&
1S
1\
0v
#100000
0)
0!
#105000
1)
1!
1v
0\
00
1g
0e
1z
0t
0A
0.
1_
0w
1i
0l
0H
04
0n
1p
0k
0'
06
0S
0j
0%
0&
03
0Z
#110000
0)
0!
#115000
1)
1!
1Z
13
1k
0g
0v
10
1\
0p
1w
1t
1e
0z
0_
1A
1.
1n
0i
14
1l
1H
1&
16
1'
1%
1S
1j
#120000
1#
1+
0)
0!
#125000
b0100 /
1!
b0100 (
0d
0[
0^
1g
0`
1b
0h
12
0f
1a
1c
1I
1_
1i
1)
0K
0M
1N
0O
0Q
1T
0U
0W
1X
1]
1Y
b0100 -
1J
#130000
0#
0+
0!
0)
#135000
1!
1)
0J
02
0t
04
1d
1h
1^
0Z
0j
0k
0S
0b
03
0e
0\
00
1v
0w
0n
1z
0.
1p
0A
0Y
0%
0H
0l
1M
0&
0'
0X
06
1W
1U
#140000
0!
0)
#145000
1!
1)
0U
0W
1.
1J
1k
1j
0h
12
0d
1t
14
1Z
0^
0z
1e
1S
13
1b
1n
1\
1w
10
0v
16
1%
0p
1Y
1A
1X
1H
1'
1l
1&
0M
#150000
0!
0)
#155000
1!
1)
1M
0&
0w
1U
0t
1d
0j
1W
0k
0.
0J
02
1h
0\
1z
04
1^
0Z
0n
0e
0b
0S
03
0l
0%
00
06
1v
0'
1p
0H
0Y
0X
0A
#160000
0!
0)
#165000
1!
1)
1A
1X
1b
0M
1.
1k
0d
1&
1t
1w
0U
0W
1j
1e
1\
1J
0h
12
1n
0z
1Z
14
0^
1Y
1%
1S
1l
13
1H
10
0p
16
1'
0v
#170000
0!
1+
0)
1#
#175000
1)
b1000 -
b1000 /
1B
b1000 (
11
17
0C
1M
0E
1F
1G
1U
0L
1W
1!
1O
0?
0I
1P
18
0N
0R
09
1K
1Q
0;
0V
1<
0T
0=
#180000
0)
0#
0+
0!
#185000
1v
1!
0w
0A
0'
1L
0Z
1C
0t
0X
0k
0b
0.
01
1d
0&
1)
0G
0j
1z
0e
0F
0n
0\
02
0J
1h
06
04
0%
1E
08
0Y
0P
1^
1V
1R
0S
1p
1;
0l
00
0H
03
#190000
0!
0)
#195000
1!
1)
13
12
1.
1A
0v
1w
1b
0C
1'
1Z
0L
1k
1X
1t
1H
1\
1G
0d
11
1&
1n
1j
1F
0z
1e
10
18
0h
1J
0E
16
1%
14
1l
0^
1P
1Y
0;
0R
0V
0p
1S
#200000
0!
0)
#205000
1!
1)
0S
1p
0F
1L
03
02
0Z
0w
0.
1v
0A
0'
1C
0b
0j
0\
0X
0k
0H
0t
0n
0G
0&
1d
01
1V
1E
0e
1z
0J
00
1h
08
1R
04
0%
06
1;
1^
0l
0Y
0P
#210000
0!
0)
#215000
1!
1)
1P
1Y
1&
1A
1S
0p
0v
12
1F
13
0L
1.
1w
1Z
1G
1\
0C
1'
1j
1b
1n
1X
1t
1k
1H
1l
1J
11
0d
0z
0V
1e
0E
0^
18
0h
10
0;
14
0R
16
1%
#220000
1$
0!
0)
1,
#225000
1)
1=
1T
0U
0P
1L
b0100 -
0B
07
b0100 /
0F
b0100 (
0M
0G
1C
01
1!
1R
0<
0O
1N
0W
1I
1?
1E
0K
1V
19
1;
08
0Q
#230000
0$
0)
0,
0!
#235000
06
0Y
0%
1)
1!
0A
0t
1W
03
0&
1U
02
1v
1M
0w
0.
0Z
0n
0\
0b
0'
0j
1z
0S
1p
0H
0k
0l
1d
0X
0J
0e
04
1^
00
1h
#240000
0)
0!
#245000
1)
1!
0h
10
1b
1&
1Y
1%
13
1A
16
0W
1t
1\
0v
12
0U
1n
0M
1Z
1w
1.
0^
1l
0z
1j
1'
1k
1S
1H
0p
14
0d
1e
1J
1X
#250000
0!
0)
#255000
1!
1)
0X
0J
0Z
0A
00
1h
03
0&
0b
0%
0Y
1M
0t
1W
06
0n
0\
1U
1v
02
0e
0k
1^
0.
0w
0'
0l
0j
1z
1d
0S
04
1p
0H
#260000
0)
0!
#265000
1)
1!
1H
0p
0U
1&
1J
1X
13
1A
1Z
0h
10
1\
1Y
1%
1b
1n
0M
16
1t
0W
14
1'
1e
12
0v
1w
1k
1.
0^
1S
1l
0d
0z
1j
#270000
0!
0)
1,
1$
#275000
1U
1h
1!
1)
0T
1Q
0X
0J
1`
0]
1M
b0010 (
0g
b0010 /
0a
1f
0b
0Y
1d
0N
0c
1W
0_
1O
02
1[
b0010 -
0I
0i
1K
1^
#280000
0$
0,
0)
0!
#285000
1)
1!
0S
0j
1z
0H
06
03
0&
1p
0.
00
0Z
0A
0n
0\
1g
0%
1i
0e
0w
04
0k
1v
0'
0l
1_
0t
#290000
0!
0)
#295000
1!
1)
1t
0_
1\
13
1S
16
0z
1j
1H
1n
0p
1&
1A
1.
1Z
10
1l
14
0i
0g
1%
1w
1e
1'
1k
0v
#300000
0)
0!
#305000
1)
1!
1v
0k
0.
06
0t
0S
0\
1_
03
0A
0j
1z
0&
0H
1p
0n
0'
1g
0l
0Z
00
1i
04
0e
0%
0w
#310000
0!
0)
#315000
1!
1)
1w
1%
1H
1S
0v
1t
1.
1k
16
1&
0_
1\
0z
13
1j
1A
1e
1Z
1'
0p
1n
1l
0g
14
10
0i
#320000
1$
0)
1,
0!
#325000
1)
1!
0q
0f
0t
03
b0001 (
b0001 /
1v
1a
0{
1x
0s
0`
1c
1z
0k
1r
1]
0\
0o
1_
0[
0j
1p
1g
1i
0u
0y
1m
b0001 -
#330000
0!
0$
0)
0,
#335000
1)
0&
0S
0H
00
1{
0w
0.
1q
06
1!
0%
04
1y
0'
0e
0n
0l
0Z
0A
#340000
0)
0!
#345000
1)
1!
1A
1.
1w
1S
1&
0{
1H
10
1Z
16
0q
1l
0y
1%
14
1n
1'
1e
#350000
0)
0!
#355000
1)
1!
0e
0'
0w
0.
0Z
0A
0%
1y
1q
06
0H
1{
0&
0S
04
0l
00
0n
