design_root/sim/behav/dcdl_simple.vcd
$date
	Tue Apr 14 17:35:03 2026
$end

$version
	Synopsys VCS version X-2025.06-SP2_Full64
$end

$timescale
	1ps
$end

$comment Csum: 1 ba515c3098e9e138 $end


$scope module tb_inv_dcdl_glitch_free $end
$var reg 1 ! clk $end
$var reg 1 " rst_n $end
$var reg 1 # A $end
$var reg 2 $ Q [1:0] $end
$var reg 1 % Y $end
$var time 64 & t_in $end
$var time 64 ' t_out $end

$scope task apply_test $end
$var reg 2 ( q_val [1:0] $end
$upscope $end


$scope module dut $end
$var reg 1 ) clk $end
$var reg 1 * rst_n $end
$var reg 1 + A $end
$var reg 2 , Q [1:0] $end
$var reg 1 - Y $end
$var reg 1 . tap0 $end
$var reg 1 / tap1 $end
$var reg 1 0 tap2 $end
$var reg 1 1 tap3 $end
$var reg 4 2 sel [3:0] $end
$var reg 4 3 sel_reg [3:0] $end
$var reg 1 4 ntap0 $end
$var reg 1 5 ntap1 $end
$var reg 1 6 ntap2 $end
$var reg 1 7 ntap3 $end
$var reg 1 8 y0 $end
$var reg 1 9 y1 $end
$var reg 1 : y2 $end
$var reg 1 ; y3 $end
$var reg 1 < n01 $end
$var reg 1 = n23 $end

$scope module inv1 $end
$var reg 1 > in $end
$var reg 1 ? out $end
$upscope $end


$scope module inv2 $end
$var reg 1 @ in $end
$var reg 1 A out $end
$upscope $end


$scope module inv3 $end
$var reg 1 B in $end
$var reg 1 C out $end
$upscope $end


$scope module inv_t0 $end
$var reg 1 D in $end
$var reg 1 E out $end
$upscope $end


$scope module inv_t1 $end
$var reg 1 F in $end
$var reg 1 G out $end
$upscope $end


$scope module inv_t2 $end
$var reg 1 H in $end
$var reg 1 I out $end
$upscope $end


$scope module inv_t3 $end
$var reg 1 J in $end
$var reg 1 K out $end
$upscope $end


$scope module n0 $end
$var reg 1 L a $end
$var reg 1 M b $end
$var reg 1 N out $end
$upscope $end


$scope module n1 $end
$var reg 1 O a $end
$var reg 1 P b $end
$var reg 1 Q out $end
$upscope $end


$scope module n2 $end
$var reg 1 R a $end
$var reg 1 S b $end
$var reg 1 T out $end
$upscope $end


$scope module n3 $end
$var reg 1 U a $end
$var reg 1 V b $end
$var reg 1 W out $end
$upscope $end


$scope module n4 $end
$var reg 1 X a $end
$var reg 1 Y b $end
$var reg 1 Z out $end
$upscope $end


$scope module n5 $end
$var reg 1 [ a $end
$var reg 1 \ b $end
$var reg 1 ] out $end
$upscope $end


$scope module n6 $end
$var reg 1 ^ a $end
$var reg 1 _ b $end
$var reg 1 ` out $end
$upscope $end

$upscope $end

$upscope $end

$enddefinitions $end

#0
$dumpvars
0#
1%
0!
0+
1-
0*
0>
1@
0A
0B
1C
0D
1E
1F
0G
0H
1I
1J
0K
1<
0=
0X
1Y
1Z
1[
1\
0]
1^
0_
1`
1?
0"
0.
1/
00
11
xV
x7
xS
x6
xP
x5
xM
x4
xW
xT
xQ
xN
xU
xR
xO
xL
x;
x:
x9
x8
b00 $
bxx (
b00 ,
b0001 2
b0001 3
b0000000000000000000000000000000000000000000000000000000000000000 &
b0000000000000000000000000000000000000000000000000000000000000000 '
0)
$end
0V
0S
0P
1M
1W
1T
1Q
0N
0U
1R
0O
1L
1;
1:
19
08
07
16
05
14
#5000
1!
1)
#10000
0!
0)
#15000
1!
1)
1"
1*
#20000
0!
0)
#25000
1!
1)
b00 (
#30000
0!
0)
#35000
1!
1)
1#
1+
1.
1D
0E
04
1>
0?
0/
0F
1G
15
0@
1A
10
1H
0I
06
1B
0C
01
0J
1K
17
b0000000000000000000000000000000000000000000000000000000000100011 &
1U
0R
1O
0L
1N
18
1X
0Z
0<
0^
#40000
0!
0)
#45000
1!
1)
0#
0+
0.
0D
1E
14
0>
1?
1/
1F
0G
05
1@
0A
00
0H
1I
16
0B
1C
11
1J
0K
07
b0000000000000000000000000000000000000000000000000000000000101101 &
0U
1R
0O
1L
0N
08
0X
1Z
1<
1^
#50000
0!
0)
#55000
1!
1)
b01 (
b01 $
b01 ,
b0010 2
#60000
0!
0)
#65000
1!
1)
1#
1+
1.
1D
0E
04
1>
0?
0/
0F
1G
15
0@
1A
10
1H
0I
06
1B
0C
01
0J
1K
17
b0000000000000000000000000000000000000000000000000000000001000001 &
1U
0R
1O
0L
1N
18
1X
0Z
0<
0^
b0010 3
1P
0M
0Q
09
0Y
1Z
1<
1^
#70000
0!
0)
#75000
1!
1)
0#
0+
0.
0D
1E
14
0>
1?
1/
1F
0G
05
1@
0A
00
0H
1I
16
0B
1C
11
1J
0K
07
b0000000000000000000000000000000000000000000000000000000001001011 &
0U
1R
0O
1L
1Q
19
1Y
0Z
0<
0^
#80000
0!
0)
#85000
1!
1)
b10 (
b10 $
b10 ,
b0100 2
#90000
0!
0)
#95000
1!
1)
1#
1+
1.
1D
0E
04
1>
0?
0/
0F
1G
15
0@
1A
10
1H
0I
06
1B
0C
01
0J
1K
17
b0000000000000000000000000000000000000000000000000000000001011111 &
1U
0R
1O
0L
0Q
09
0Y
1Z
1<
1^
b0100 3
1S
0P
1Q
19
1Y
0Z
0<
0^
#100000
0!
0)
#105000
1!
1)
0#
0+
0.
0D
1E
14
0>
1?
1/
1F
0G
05
1@
0A
00
0H
1I
16
0B
1C
11
1J
0K
07
b0000000000000000000000000000000000000000000000000000000001101001 &
0U
1R
0O
1L
0T
0:
0[
1]
1=
1_
#110000
0!
0)
#115000
1!
1)
b11 (
b11 $
b11 ,
b1000 2
#120000
0!
0)
#125000
1!
1)
1#
1+
1.
1D
0E
04
1>
0?
0/
0F
1G
15
0@
1A
10
1H
0I
06
1B
0C
01
0J
1K
17
b0000000000000000000000000000000000000000000000000000000001111101 &
1U
0R
1O
0L
1T
1:
1[
0]
0=
0_
b1000 3
1V
0S
0W
0;
0\
1]
1=
1_
#130000
0!
0)
#135000
1!
1)
0#
0+
0.
0D
1E
14
0>
1?
1/
1F
0G
05
1@
0A
00
0H
1I
16
0B
1C
11
1J
0K
07
b0000000000000000000000000000000000000000000000000000000010000111 &
0U
1R
0O
1L
1W
1;
1\
0]
0=
0_
