design_root/sim/behav/inv_dcdl_glitch_free.vcd
$date
	Tue Apr 14 20:08:11 2026
$end

$version
	Synopsys VCS version X-2025.06-SP2_Full64
$end

$timescale
	1ps
$end

$comment Csum: 1 64f2a1def7a46913 $end


$scope module tb_inv_dcdl_glitch_free $end
$var reg 1 ! clk $end
$var reg 1 " rst_n $end
$var reg 1 # A $end
$var reg 2 $ Q [1:0] $end
$var reg 1 % Y $end

$scope task run_case $end
$var reg 2 & q_val [1:0] $end
$upscope $end


$scope module dut $end
$var reg 1 ' clk $end
$var reg 1 ( rst_n $end
$var reg 1 ) A $end
$var reg 2 * Q [1:0] $end
$var reg 1 + Y $end
$var reg 1 , tap0 $end
$var reg 1 - tap1 $end
$var reg 1 . tap2 $end
$var reg 1 / tap3 $end
$var reg 1 0 s1 $end
$var reg 1 1 s2 $end
$var reg 1 2 s3 $end
$var reg 1 3 s4 $end
$var reg 1 4 s5 $end
$var reg 1 5 s6 $end
$var reg 1 6 s7 $end
$var reg 1 7 s8 $end
$var reg 4 8 sel [3:0] $end
$var reg 4 9 sel_reg [3:0] $end
$var reg 1 : ntap0 $end
$var reg 1 ; ntap1 $end
$var reg 1 < ntap2 $end
$var reg 1 = ntap3 $end
$var reg 1 > y0 $end
$var reg 1 ? y1 $end
$var reg 1 @ y2 $end
$var reg 1 A y3 $end
$var reg 1 B n01 $end
$var reg 1 C n23 $end

$scope module a1 $end
$var reg 1 D in $end
$var reg 1 E out $end
$upscope $end


$scope module a2 $end
$var reg 1 F in $end
$var reg 1 G out $end
$upscope $end


$scope module b1 $end
$var reg 1 H in $end
$var reg 1 I out $end
$upscope $end


$scope module b2 $end
$var reg 1 J in $end
$var reg 1 K out $end
$upscope $end


$scope module c1 $end
$var reg 1 L in $end
$var reg 1 M out $end
$upscope $end


$scope module c2 $end
$var reg 1 N in $end
$var reg 1 O out $end
$upscope $end


$scope module d1 $end
$var reg 1 P in $end
$var reg 1 Q out $end
$upscope $end


$scope module d2 $end
$var reg 1 R in $end
$var reg 1 S out $end
$upscope $end


$scope module inv_t0 $end
$var reg 1 T in $end
$var reg 1 U out $end
$upscope $end


$scope module inv_t1 $end
$var reg 1 V in $end
$var reg 1 W out $end
$upscope $end


$scope module inv_t2 $end
$var reg 1 X in $end
$var reg 1 Y out $end
$upscope $end


$scope module inv_t3 $end
$var reg 1 Z in $end
$var reg 1 [ out $end
$upscope $end


$scope module n0 $end
$var reg 1 \ a $end
$var reg 1 ] b $end
$var reg 1 ^ out $end
$upscope $end


$scope module n1 $end
$var reg 1 _ a $end
$var reg 1 ` b $end
$var reg 1 a out $end
$upscope $end


$scope module n2 $end
$var reg 1 b a $end
$var reg 1 c b $end
$var reg 1 d out $end
$upscope $end


$scope module n3 $end
$var reg 1 e a $end
$var reg 1 f b $end
$var reg 1 g out $end
$upscope $end


$scope module n4 $end
$var reg 1 h a $end
$var reg 1 i b $end
$var reg 1 j out $end
$upscope $end


$scope module n5 $end
$var reg 1 k a $end
$var reg 1 l b $end
$var reg 1 m out $end
$upscope $end

$upscope $end

$upscope $end

$enddefinitions $end

#0
$dumpvars
0#
0%
1F
0G
0H
1I
1J
0K
0L
1M
1N
0O
0!
0P
1Q
1R
0S
0)
0+
0(
0D
0T
1U
0V
1W
0X
1Y
0Z
1[
1B
0C
0h
1i
1j
1k
1l
0m
1E
0"
10
11
12
13
x4
x5
x6
x7
0,
0-
0.
0/
xf
x=
xc
x<
x`
x;
x]
x:
xg
xd
xa
x^
xe
xb
x_
x\
xA
x@
x?
x>
b00 $
b00 *
bxx &
b0001 8
b0001 9
0'
$end
0f
0c
0`
1]
1g
1d
1a
0^
1e
1b
1_
1\
1A
1@
1?
0>
1=
1<
1;
1:
#5000
1!
1'
#10000
0!
0'
#15000
1!
1'
1"
1(
#20000
0!
0'
#25000
1!
1'
b00 &
#30000
0!
0'
#35000
1!
1'
1#
1)
1D
0E
00
0F
1G
1,
1T
0U
0:
1H
0I
01
0J
1K
1-
1V
0W
0;
1L
0M
02
0N
1O
1.
1X
0Y
0<
1P
0Q
03
0R
1S
1/
1Z
0[
0=
0e
0b
0_
0\
1^
1>
1h
0j
0B
1+
1%
#40000
0!
0'
#45000
1!
1'
0#
0)
0D
1E
10
1F
0G
0,
0T
1U
1:
0H
1I
11
1J
0K
0-
0V
1W
1;
0L
1M
12
1N
0O
0.
0X
1Y
1<
0P
1Q
13
1R
0S
0/
0Z
1[
1=
1e
1b
1_
1\
0^
0>
0h
1j
1B
0+
0%
#50000
0!
0'
#55000
1!
1'
b01 &
b01 $
b01 *
b0010 8
#60000
0!
0'
#65000
1!
1'
1#
1)
1D
0E
00
0F
1G
1,
1T
0U
0:
1H
0I
01
0J
1K
1-
1V
0W
0;
1L
0M
02
0N
1O
1.
1X
0Y
0<
1P
0Q
03
0R
1S
1/
1Z
0[
0=
0e
0b
0_
0\
1^
1>
1h
0j
0B
1+
1%
b0010 9
1`
0]
#70000
0!
0'
#75000
1!
1'
0#
0)
0D
1E
10
1F
0G
0,
0T
1U
1:
0H
1I
11
1J
0K
0-
0V
1W
1;
0L
1M
12
1N
0O
0.
0X
1Y
1<
0P
1Q
13
1R
0S
0/
0Z
1[
1=
1e
1b
1_
1\
0a
0?
0i
1j
1B
0+
0%
#80000
0!
0'
#85000
1!
1'
b10 &
b10 $
b10 *
b0100 8
#90000
0!
0'
#95000
1!
1'
1#
1)
1D
0E
00
0F
1G
1,
1T
0U
0:
1H
0I
01
0J
1K
1-
1V
0W
0;
1L
0M
02
0N
1O
1.
1X
0Y
0<
1P
0Q
03
0R
1S
1/
1Z
0[
0=
0e
0b
0_
0\
1a
1?
1i
0j
0B
1+
1%
b0100 9
1c
0`
#100000
0!
0'
#105000
1!
1'
0#
0)
0D
1E
10
1F
0G
0,
0T
1U
1:
0H
1I
11
1J
0K
0-
0V
1W
1;
0L
1M
12
1N
0O
0.
0X
1Y
1<
0P
1Q
13
1R
0S
0/
0Z
1[
1=
1e
1b
1_
1\
0d
0@
0k
1m
1C
0+
0%
#110000
0!
0'
#115000
1!
1'
b11 &
b11 $
b11 *
b1000 8
#120000
0!
0'
#125000
1!
1'
1#
1)
1D
0E
00
0F
1G
1,
1T
0U
0:
1H
0I
01
0J
1K
1-
1V
0W
0;
1L
0M
02
0N
1O
1.
1X
0Y
0<
1P
0Q
03
0R
1S
1/
1Z
0[
0=
0e
0b
0_
0\
1d
1@
1k
0m
0C
1+
1%
b1000 9
1f
0c
#130000
0!
0'
#135000
1!
1'
0#
0)
0D
1E
10
1F
0G
0,
0T
1U
1:
0H
1I
11
1J
0K
0-
0V
1W
1;
0L
1M
12
1N
0O
0.
0X
1Y
1<
0P
1Q
13
1R
0S
0/
0Z
1[
1=
1e
1b
1_
1\
0g
0A
0l
1m
1C
0+
0%
