design_root/sim/behav/zdb.vcd
$date
	Tue Apr 14 22:46:51 2026
$end

$version
	Synopsys VCS version X-2025.06-SP2_Full64
$end

$timescale
	1ps
$end

$comment Csum: 1 ba944484dd6f92bb $end


$scope module tb_zdb $end
$var real 64 ! phase_error $end
$var reg 1 " clk_in $end
$var reg 1 # rst $end
$var wire 1 $ clk_out $end
$var wire 1 % locked $end
$var real 64 & t_ref_last $end
$var integer 32 ' stable_count $end
$var integer 32 ( print_div $end
$var real 64 ) delay_ns $end
$var real 64 * tol $end

$scope function abs_real $end
$var real 64 + abs_real $end
$var real 64 , x $end
$upscope $end


$scope task print_config $end
$upscope $end


$scope begin unnamed$$_0 $end
$var real 64 - t_fb $end
$upscope $end


$scope module dut $end
$var wire 6 . ctrl_dbg [5:0] $end
$var wire 1 / clk_in $end
$var wire 1 0 rst $end
$var wire 1 $ clk_out $end
$var wire 1 % locked $end
$var wire 1 1 up $end
$var wire 1 2 down $end
$var wire 6 3 ctrl [5:0] $end
$var wire 1 4 clk_delayed $end
$var reg 2 5 update_div [1:0] $end
$var wire 1 6 update_en $end
$var reg 6 7 lock_cnt [5:0] $end
$var reg 1 8 locked_r $end

$scope module u_dcdl $end
$var wire 1 / clk_in $end
$var wire 6 3 ctrl [5:0] $end
$var wire 1 4 clk_out $end
$var wire 65 9 delay_chain [64:0] $end
$var reg 6 : ctrl_r [5:0] $end
$upscope $end


$scope module u_pfd $end
$var wire 1 / clk_ref $end
$var wire 1 $ clk_fb $end
$var wire 1 ; rst_n $end
$var wire 1 1 up $end
$var wire 1 2 down $end
$var reg 1 < up_ff $end
$var reg 1 = down_ff $end
$var wire 1 > rst_int $end
$var wire 1 ? rst_int_d $end
$upscope $end


$scope module u_ctrl $end
$var wire 1 / clk_in $end
$var wire 1 0 rst $end
$var wire 1 1 up $end
$var wire 1 2 down $end
$var wire 1 6 update_en $end
$var reg 6 @ ctrl [5:0] $end
$upscope $end

$upscope $end

$upscope $end

$enddefinitions $end

#0
$dumpvars
0"
02
0=
10
0%
08
1#
0>
x?
0;
01
0<
16
b100000 3
b100000 .
b000000 :
bxxxxxxxxxxxxxxxxxxxxxxxxxxxxxxxxxxxxxxxxxxxxxxxxxxxxxxxxxxxxxxxx0 9
b000000 7
b00000000000000000000000000000000 (
b00000000000000000000000000000000 '
b100000 @
b00 5
r0.000000000000000  +
r0.000000000000000  ,
r0.7000000000000001  )
r0.000000000000000  !
r0.000000000000000  &
r1.050000000000000  *
r0.000000000000000  -
04
0$
0/
$end
#20
0?
#700
bxxxxxxxxxxxxxxxxxxxxxxxxxxxxxxxxxxxxxxxxxxxxxxxxxxxxxxxxxxxxxxx00 9
#1400
bxxxxxxxxxxxxxxxxxxxxxxxxxxxxxxxxxxxxxxxxxxxxxxxxxxxxxxxxxxxxxx000 9
#2100
bxxxxxxxxxxxxxxxxxxxxxxxxxxxxxxxxxxxxxxxxxxxxxxxxxxxxxxxxxxxxx0000 9
#2800
bxxxxxxxxxxxxxxxxxxxxxxxxxxxxxxxxxxxxxxxxxxxxxxxxxxxxxxxxxxxx00000 9
#3300
1"
1/
r3.300000000000000  &
b00000000000000000000000000000001 (
b00000000000000000000000000000001 '
bxxxxxxxxxxxxxxxxxxxxxxxxxxxxxxxxxxxxxxxxxxxxxxxxxxxxxxxxxxxx00001 9
14
1$
r3.300000000000000  -
b100000 :
x4
x$
#3500
bxxxxxxxxxxxxxxxxxxxxxxxxxxxxxxxxxxxxxxxxxxxxxxxxxxxxxxxxxxx000001 9
#4000
bxxxxxxxxxxxxxxxxxxxxxxxxxxxxxxxxxxxxxxxxxxxxxxxxxxxxxxxxxxx000011 9
#4200
bxxxxxxxxxxxxxxxxxxxxxxxxxxxxxxxxxxxxxxxxxxxxxxxxxxxxxxxxxx0000011 9
#4700
bxxxxxxxxxxxxxxxxxxxxxxxxxxxxxxxxxxxxxxxxxxxxxxxxxxxxxxxxxx0000111 9
#4900
bxxxxxxxxxxxxxxxxxxxxxxxxxxxxxxxxxxxxxxxxxxxxxxxxxxxxxxxxx00000111 9
#5300
0"
0/
bxxxxxxxxxxxxxxxxxxxxxxxxxxxxxxxxxxxxxxxxxxxxxxxxxxxxxxxxx00000110 9
#5400
bxxxxxxxxxxxxxxxxxxxxxxxxxxxxxxxxxxxxxxxxxxxxxxxxxxxxxxxxx00001110 9
#5600
bxxxxxxxxxxxxxxxxxxxxxxxxxxxxxxxxxxxxxxxxxxxxxxxxxxxxxxxx000001110 9
#6000
bxxxxxxxxxxxxxxxxxxxxxxxxxxxxxxxxxxxxxxxxxxxxxxxxxxxxxxxx000001100 9
#6100
bxxxxxxxxxxxxxxxxxxxxxxxxxxxxxxxxxxxxxxxxxxxxxxxxxxxxxxxx000011100 9
#6300
bxxxxxxxxxxxxxxxxxxxxxxxxxxxxxxxxxxxxxxxxxxxxxxxxxxxxxxx0000011100 9
#6700
bxxxxxxxxxxxxxxxxxxxxxxxxxxxxxxxxxxxxxxxxxxxxxxxxxxxxxxx0000011000 9
#6800
bxxxxxxxxxxxxxxxxxxxxxxxxxxxxxxxxxxxxxxxxxxxxxxxxxxxxxxx0000111000 9
#7000
bxxxxxxxxxxxxxxxxxxxxxxxxxxxxxxxxxxxxxxxxxxxxxxxxxxxxxx00000111000 9
#7300
1"
1/
r7.300000000000000  &
b00000000000000000000000000000010 (
b00000000000000000000000000000010 '
bxxxxxxxxxxxxxxxxxxxxxxxxxxxxxxxxxxxxxxxxxxxxxxxxxxxxxx00000111001 9
#7400
bxxxxxxxxxxxxxxxxxxxxxxxxxxxxxxxxxxxxxxxxxxxxxxxxxxxxxx00000110001 9
#7500
bxxxxxxxxxxxxxxxxxxxxxxxxxxxxxxxxxxxxxxxxxxxxxxxxxxxxxx00001110001 9
#7700
bxxxxxxxxxxxxxxxxxxxxxxxxxxxxxxxxxxxxxxxxxxxxxxxxxxxxx000001110001 9
#8000
bxxxxxxxxxxxxxxxxxxxxxxxxxxxxxxxxxxxxxxxxxxxxxxxxxxxxx000001110011 9
#8100
bxxxxxxxxxxxxxxxxxxxxxxxxxxxxxxxxxxxxxxxxxxxxxxxxxxxxx000001100011 9
#8200
bxxxxxxxxxxxxxxxxxxxxxxxxxxxxxxxxxxxxxxxxxxxxxxxxxxxxx000011100011 9
#8400
bxxxxxxxxxxxxxxxxxxxxxxxxxxxxxxxxxxxxxxxxxxxxxxxxxxxx0000011100011 9
#8700
bxxxxxxxxxxxxxxxxxxxxxxxxxxxxxxxxxxxxxxxxxxxxxxxxxxxx0000011100111 9
#8800
bxxxxxxxxxxxxxxxxxxxxxxxxxxxxxxxxxxxxxxxxxxxxxxxxxxxx0000011000111 9
#8900
bxxxxxxxxxxxxxxxxxxxxxxxxxxxxxxxxxxxxxxxxxxxxxxxxxxxx0000111000111 9
#9100
bxxxxxxxxxxxxxxxxxxxxxxxxxxxxxxxxxxxxxxxxxxxxxxxxxxx00000111000111 9
#9300
0"
0/
bxxxxxxxxxxxxxxxxxxxxxxxxxxxxxxxxxxxxxxxxxxxxxxxxxxx00000111000110 9
#9400
bxxxxxxxxxxxxxxxxxxxxxxxxxxxxxxxxxxxxxxxxxxxxxxxxxxx00000111001110 9
#9500
bxxxxxxxxxxxxxxxxxxxxxxxxxxxxxxxxxxxxxxxxxxxxxxxxxxx00000110001110 9
#9600
bxxxxxxxxxxxxxxxxxxxxxxxxxxxxxxxxxxxxxxxxxxxxxxxxxxx00001110001110 9
#9800
bxxxxxxxxxxxxxxxxxxxxxxxxxxxxxxxxxxxxxxxxxxxxxxxxxx000001110001110 9
#10000
bxxxxxxxxxxxxxxxxxxxxxxxxxxxxxxxxxxxxxxxxxxxxxxxxxx000001110001100 9
#10100
bxxxxxxxxxxxxxxxxxxxxxxxxxxxxxxxxxxxxxxxxxxxxxxxxxx000001110011100 9
#10200
bxxxxxxxxxxxxxxxxxxxxxxxxxxxxxxxxxxxxxxxxxxxxxxxxxx000001100011100 9
#10300
bxxxxxxxxxxxxxxxxxxxxxxxxxxxxxxxxxxxxxxxxxxxxxxxxxx000011100011100 9
#10500
bxxxxxxxxxxxxxxxxxxxxxxxxxxxxxxxxxxxxxxxxxxxxxxxxx0000011100011100 9
#10700
bxxxxxxxxxxxxxxxxxxxxxxxxxxxxxxxxxxxxxxxxxxxxxxxxx0000011100011000 9
#10800
bxxxxxxxxxxxxxxxxxxxxxxxxxxxxxxxxxxxxxxxxxxxxxxxxx0000011100111000 9
#10900
bxxxxxxxxxxxxxxxxxxxxxxxxxxxxxxxxxxxxxxxxxxxxxxxxx0000011000111000 9
#11000
bxxxxxxxxxxxxxxxxxxxxxxxxxxxxxxxxxxxxxxxxxxxxxxxxx0000111000111000 9
#11200
bxxxxxxxxxxxxxxxxxxxxxxxxxxxxxxxxxxxxxxxxxxxxxxxx00000111000111000 9
#11300
1"
1/
r11.30000000000000  &
b00000000000000000000000000000011 (
b00000000000000000000000000000011 '
bxxxxxxxxxxxxxxxxxxxxxxxxxxxxxxxxxxxxxxxxxxxxxxxx00000111000111001 9
#11400
bxxxxxxxxxxxxxxxxxxxxxxxxxxxxxxxxxxxxxxxxxxxxxxxx00000111000110001 9
#11500
bxxxxxxxxxxxxxxxxxxxxxxxxxxxxxxxxxxxxxxxxxxxxxxxx00000111001110001 9
#11600
bxxxxxxxxxxxxxxxxxxxxxxxxxxxxxxxxxxxxxxxxxxxxxxxx00000110001110001 9
#11700
bxxxxxxxxxxxxxxxxxxxxxxxxxxxxxxxxxxxxxxxxxxxxxxxx00001110001110001 9
#11900
bxxxxxxxxxxxxxxxxxxxxxxxxxxxxxxxxxxxxxxxxxxxxxxx000001110001110001 9
#12000
bxxxxxxxxxxxxxxxxxxxxxxxxxxxxxxxxxxxxxxxxxxxxxxx000001110001110011 9
#12100
bxxxxxxxxxxxxxxxxxxxxxxxxxxxxxxxxxxxxxxxxxxxxxxx000001110001100011 9
#12200
bxxxxxxxxxxxxxxxxxxxxxxxxxxxxxxxxxxxxxxxxxxxxxxx000001110011100011 9
#12300
bxxxxxxxxxxxxxxxxxxxxxxxxxxxxxxxxxxxxxxxxxxxxxxx000001100011100011 9
#12400
bxxxxxxxxxxxxxxxxxxxxxxxxxxxxxxxxxxxxxxxxxxxxxxx000011100011100011 9
#12600
bxxxxxxxxxxxxxxxxxxxxxxxxxxxxxxxxxxxxxxxxxxxxxx0000011100011100011 9
#12700
bxxxxxxxxxxxxxxxxxxxxxxxxxxxxxxxxxxxxxxxxxxxxxx0000011100011100111 9
#12800
bxxxxxxxxxxxxxxxxxxxxxxxxxxxxxxxxxxxxxxxxxxxxxx0000011100011000111 9
#12900
bxxxxxxxxxxxxxxxxxxxxxxxxxxxxxxxxxxxxxxxxxxxxxx0000011100111000111 9
#13000
bxxxxxxxxxxxxxxxxxxxxxxxxxxxxxxxxxxxxxxxxxxxxxx0000011000111000111 9
#13100
bxxxxxxxxxxxxxxxxxxxxxxxxxxxxxxxxxxxxxxxxxxxxxx0000111000111000111 9
#13300
0"
0/
bxxxxxxxxxxxxxxxxxxxxxxxxxxxxxxxxxxxxxxxxxxxxx00000111000111000110 9
#13400
bxxxxxxxxxxxxxxxxxxxxxxxxxxxxxxxxxxxxxxxxxxxxx00000111000111001110 9
#13500
bxxxxxxxxxxxxxxxxxxxxxxxxxxxxxxxxxxxxxxxxxxxxx00000111000110001110 9
#13600
bxxxxxxxxxxxxxxxxxxxxxxxxxxxxxxxxxxxxxxxxxxxxx00000111001110001110 9
#13700
bxxxxxxxxxxxxxxxxxxxxxxxxxxxxxxxxxxxxxxxxxxxxx00000110001110001110 9
#13800
bxxxxxxxxxxxxxxxxxxxxxxxxxxxxxxxxxxxxxxxxxxxxx00001110001110001110 9
#14000
bxxxxxxxxxxxxxxxxxxxxxxxxxxxxxxxxxxxxxxxxxxxx000001110001110001100 9
#14100
bxxxxxxxxxxxxxxxxxxxxxxxxxxxxxxxxxxxxxxxxxxxx000001110001110011100 9
#14200
bxxxxxxxxxxxxxxxxxxxxxxxxxxxxxxxxxxxxxxxxxxxx000001110001100011100 9
#14300
bxxxxxxxxxxxxxxxxxxxxxxxxxxxxxxxxxxxxxxxxxxxx000001110011100011100 9
#14400
bxxxxxxxxxxxxxxxxxxxxxxxxxxxxxxxxxxxxxxxxxxxx000001100011100011100 9
#14500
bxxxxxxxxxxxxxxxxxxxxxxxxxxxxxxxxxxxxxxxxxxxx000011100011100011100 9
#14700
bxxxxxxxxxxxxxxxxxxxxxxxxxxxxxxxxxxxxxxxxxxx0000011100011100011000 9
#14800
bxxxxxxxxxxxxxxxxxxxxxxxxxxxxxxxxxxxxxxxxxxx0000011100011100111000 9
#14900
bxxxxxxxxxxxxxxxxxxxxxxxxxxxxxxxxxxxxxxxxxxx0000011100011000111000 9
#15000
bxxxxxxxxxxxxxxxxxxxxxxxxxxxxxxxxxxxxxxxxxxx0000011100111000111000 9
#15100
bxxxxxxxxxxxxxxxxxxxxxxxxxxxxxxxxxxxxxxxxxxx0000011000111000111000 9
#15200
bxxxxxxxxxxxxxxxxxxxxxxxxxxxxxxxxxxxxxxxxxxx0000111000111000111000 9
#15300
1"
1/
r15.30000000000000  &
b00000000000000000000000000000100 (
b00000000000000000000000000000100 '
bxxxxxxxxxxxxxxxxxxxxxxxxxxxxxxxxxxxxxxxxxxx0000111000111000111001 9
#15400
bxxxxxxxxxxxxxxxxxxxxxxxxxxxxxxxxxxxxxxxxxx00000111000111000110001 9
#15500
bxxxxxxxxxxxxxxxxxxxxxxxxxxxxxxxxxxxxxxxxxx00000111000111001110001 9
#15600
bxxxxxxxxxxxxxxxxxxxxxxxxxxxxxxxxxxxxxxxxxx00000111000110001110001 9
#15700
bxxxxxxxxxxxxxxxxxxxxxxxxxxxxxxxxxxxxxxxxxx00000111001110001110001 9
#15800
bxxxxxxxxxxxxxxxxxxxxxxxxxxxxxxxxxxxxxxxxxx00000110001110001110001 9
#15900
bxxxxxxxxxxxxxxxxxxxxxxxxxxxxxxxxxxxxxxxxxx00001110001110001110001 9
#16000
bxxxxxxxxxxxxxxxxxxxxxxxxxxxxxxxxxxxxxxxxxx00001110001110001110011 9
#16100
bxxxxxxxxxxxxxxxxxxxxxxxxxxxxxxxxxxxxxxxxx000001110001110001100011 9
#16200
bxxxxxxxxxxxxxxxxxxxxxxxxxxxxxxxxxxxxxxxxx000001110001110011100011 9
#16300
bxxxxxxxxxxxxxxxxxxxxxxxxxxxxxxxxxxxxxxxxx000001110001100011100011 9
#16400
bxxxxxxxxxxxxxxxxxxxxxxxxxxxxxxxxxxxxxxxxx000001110011100011100011 9
#16500
bxxxxxxxxxxxxxxxxxxxxxxxxxxxxxxxxxxxxxxxxx000001100011100011100011 9
#16600
bxxxxxxxxxxxxxxxxxxxxxxxxxxxxxxxxxxxxxxxxx000011100011100011100011 9
#16700
bxxxxxxxxxxxxxxxxxxxxxxxxxxxxxxxxxxxxxxxxx000011100011100011100111 9
#16800
bxxxxxxxxxxxxxxxxxxxxxxxxxxxxxxxxxxxxxxxx0000011100011100011000111 9
#16900
bxxxxxxxxxxxxxxxxxxxxxxxxxxxxxxxxxxxxxxxx0000011100011100111000111 9
#17000
bxxxxxxxxxxxxxxxxxxxxxxxxxxxxxxxxxxxxxxxx0000011100011000111000111 9
#17100
bxxxxxxxxxxxxxxxxxxxxxxxxxxxxxxxxxxxxxxxx0000011100111000111000111 9
#17200
bxxxxxxxxxxxxxxxxxxxxxxxxxxxxxxxxxxxxxxxx0000011000111000111000111 9
#17300
0"
0/
bxxxxxxxxxxxxxxxxxxxxxxxxxxxxxxxxxxxxxxxx0000111000111000111000110 9
#17400
bxxxxxxxxxxxxxxxxxxxxxxxxxxxxxxxxxxxxxxxx0000111000111000111001110 9
#17500
bxxxxxxxxxxxxxxxxxxxxxxxxxxxxxxxxxxxxxxx00000111000111000110001110 9
#17600
bxxxxxxxxxxxxxxxxxxxxxxxxxxxxxxxxxxxxxxx00000111000111001110001110 9
#17700
bxxxxxxxxxxxxxxxxxxxxxxxxxxxxxxxxxxxxxxx00000111000110001110001110 9
#17800
bxxxxxxxxxxxxxxxxxxxxxxxxxxxxxxxxxxxxxxx00000111001110001110001110 9
#17900
bxxxxxxxxxxxxxxxxxxxxxxxxxxxxxxxxxxxxxxx00000110001110001110001110 9
#18000
bxxxxxxxxxxxxxxxxxxxxxxxxxxxxxxxxxxxxxxx00001110001110001110001100 9
#18100
bxxxxxxxxxxxxxxxxxxxxxxxxxxxxxxxxxxxxxxx00001110001110001110011100 9
#18200
bxxxxxxxxxxxxxxxxxxxxxxxxxxxxxxxxxxxxxx000001110001110001100011100 9
#18300
bxxxxxxxxxxxxxxxxxxxxxxxxxxxxxxxxxxxxxx000001110001110011100011100 9
#18400
bxxxxxxxxxxxxxxxxxxxxxxxxxxxxxxxxxxxxxx000001110001100011100011100 9
#18500
bxxxxxxxxxxxxxxxxxxxxxxxxxxxxxxxxxxxxxx000001110011100011100011100 9
#18600
bxxxxxxxxxxxxxxxxxxxxxxxxxxxxxxxxxxxxxx000001100011100011100011100 9
#18700
bxxxxxxxxxxxxxxxxxxxxxxxxxxxxxxxxxxxxxx000011100011100011100011000 9
#18800
bxxxxxxxxxxxxxxxxxxxxxxxxxxxxxxxxxxxxxx000011100011100011100111000 9
#18900
bxxxxxxxxxxxxxxxxxxxxxxxxxxxxxxxxxxxxx0000011100011100011000111000 9
#19000
bxxxxxxxxxxxxxxxxxxxxxxxxxxxxxxxxxxxxx0000011100011100111000111000 9
#19100
bxxxxxxxxxxxxxxxxxxxxxxxxxxxxxxxxxxxxx0000011100011000111000111000 9
#19200
bxxxxxxxxxxxxxxxxxxxxxxxxxxxxxxxxxxxxx0000011100111000111000111000 9
#19300
1"
1/
r19.30000000000000  &
b00000000000000000000000000000101 (
b00000000000000000000000000000101 '
bxxxxxxxxxxxxxxxxxxxxxxxxxxxxxxxxxxxxx0000011000111000111000111001 9
#19400
bxxxxxxxxxxxxxxxxxxxxxxxxxxxxxxxxxxxxx0000111000111000111000110001 9
#19500
bxxxxxxxxxxxxxxxxxxxxxxxxxxxxxxxxxxxxx0000111000111000111001110001 9
#19600
bxxxxxxxxxxxxxxxxxxxxxxxxxxxxxxxxxxxx00000111000111000110001110001 9
#19700
bxxxxxxxxxxxxxxxxxxxxxxxxxxxxxxxxxxxx00000111000111001110001110001 9
#19800
bxxxxxxxxxxxxxxxxxxxxxxxxxxxxxxxxxxxx00000111000110001110001110001 9
#19900
bxxxxxxxxxxxxxxxxxxxxxxxxxxxxxxxxxxxx00000111001110001110001110001 9
#20000
bxxxxxxxxxxxxxxxxxxxxxxxxxxxxxxxxxxxx00000110001110001110001110011 9
#20100
bxxxxxxxxxxxxxxxxxxxxxxxxxxxxxxxxxxxx00001110001110001110001100011 9
#20200
bxxxxxxxxxxxxxxxxxxxxxxxxxxxxxxxxxxxx00001110001110001110011100011 9
#20300
bxxxxxxxxxxxxxxxxxxxxxxxxxxxxxxxxxxx000001110001110001100011100011 9
#20400
bxxxxxxxxxxxxxxxxxxxxxxxxxxxxxxxxxxx000001110001110011100011100011 9
#20500
bxxxxxxxxxxxxxxxxxxxxxxxxxxxxxxxxxxx000001110001100011100011100011 9
#20600
bxxxxxxxxxxxxxxxxxxxxxxxxxxxxxxxxxxx000001110011100011100011100011 9
#20700
bxxxxxxxxxxxxxxxxxxxxxxxxxxxxxxxxxxx000001100011100011100011100111 9
#20800
bxxxxxxxxxxxxxxxxxxxxxxxxxxxxxxxxxxx000011100011100011100011000111 9
#20900
bxxxxxxxxxxxxxxxxxxxxxxxxxxxxxxxxxxx000011100011100011100111000111 9
#21000
bxxxxxxxxxxxxxxxxxxxxxxxxxxxxxxxxxx0000011100011100011000111000111 9
#21100
bxxxxxxxxxxxxxxxxxxxxxxxxxxxxxxxxxx0000011100011100111000111000111 9
#21200
bxxxxxxxxxxxxxxxxxxxxxxxxxxxxxxxxxx0000011100011000111000111000111 9
#21300
0"
0/
bxxxxxxxxxxxxxxxxxxxxxxxxxxxxxxxxxx0000011100111000111000111000110 9
#21400
bxxxxxxxxxxxxxxxxxxxxxxxxxxxxxxxxxx0000011000111000111000111001110 9
#21500
bxxxxxxxxxxxxxxxxxxxxxxxxxxxxxxxxxx0000111000111000111000110001110 9
#21600
bxxxxxxxxxxxxxxxxxxxxxxxxxxxxxxxxxx0000111000111000111001110001110 9
#21700
bxxxxxxxxxxxxxxxxxxxxxxxxxxxxxxxxx00000111000111000110001110001110 9
#21800
bxxxxxxxxxxxxxxxxxxxxxxxxxxxxxxxxx00000111000111001110001110001110 9
#21900
bxxxxxxxxxxxxxxxxxxxxxxxxxxxxxxxxx00000111000110001110001110001110 9
#22000
bxxxxxxxxxxxxxxxxxxxxxxxxxxxxxxxxx00000111001110001110001110001100 9
#22100
bxxxxxxxxxxxxxxxxxxxxxxxxxxxxxxxxx00000110001110001110001110011100 9
#22200
bxxxxxxxxxxxxxxxxxxxxxxxxxxxxxxxxx00001110001110001110001100011100 9
#22300
bxxxxxxxxxxxxxxxxxxxxxxxxxxxxxxxxx00001110001110001110011100011100 9
#22400
bxxxxxxxxxxxxxxxxxxxxxxxxxxxxxxxx000001110001110001100011100011100 9
04
0$
#22500
bxxxxxxxxxxxxxxxxxxxxxxxxxxxxxxxx000001110001110011100011100011100 9
#22600
bxxxxxxxxxxxxxxxxxxxxxxxxxxxxxxxx000001110001100011100011100011100 9
#22700
bxxxxxxxxxxxxxxxxxxxxxxxxxxxxxxxx000001110011100011100011100011000 9
#22800
bxxxxxxxxxxxxxxxxxxxxxxxxxxxxxxxx000001100011100011100011100111000 9
#22900
bxxxxxxxxxxxxxxxxxxxxxxxxxxxxxxxx000011100011100011100011000111000 9
#23000
bxxxxxxxxxxxxxxxxxxxxxxxxxxxxxxxx000011100011100011100111000111000 9
#23100
bxxxxxxxxxxxxxxxxxxxxxxxxxxxxxxx0000011100011100011000111000111000 9
#23200
bxxxxxxxxxxxxxxxxxxxxxxxxxxxxxxx0000011100011100111000111000111000 9
#23300
1"
1/
r23.30000000000000  &
b00000000000000000000000000000110 (
b00000000000000000000000000000110 '
bxxxxxxxxxxxxxxxxxxxxxxxxxxxxxxx0000011100011000111000111000111001 9
#23400
bxxxxxxxxxxxxxxxxxxxxxxxxxxxxxxx0000011100111000111000111000110001 9
#23500
bxxxxxxxxxxxxxxxxxxxxxxxxxxxxxxx0000011000111000111000111001110001 9
#23600
bxxxxxxxxxxxxxxxxxxxxxxxxxxxxxxx0000111000111000111000110001110001 9
#23700
bxxxxxxxxxxxxxxxxxxxxxxxxxxxxxxx0000111000111000111001110001110001 9
#23800
bxxxxxxxxxxxxxxxxxxxxxxxxxxxxxx00000111000111000110001110001110001 9
#23900
bxxxxxxxxxxxxxxxxxxxxxxxxxxxxxx00000111000111001110001110001110001 9
#24000
bxxxxxxxxxxxxxxxxxxxxxxxxxxxxxx00000111000110001110001110001110011 9
#24100
bxxxxxxxxxxxxxxxxxxxxxxxxxxxxxx00000111001110001110001110001100011 9
#24200
bxxxxxxxxxxxxxxxxxxxxxxxxxxxxxx00000110001110001110001110011100011 9
#24300
bxxxxxxxxxxxxxxxxxxxxxxxxxxxxxx00001110001110001110001100011100011 9
#24400
bxxxxxxxxxxxxxxxxxxxxxxxxxxxxxx00001110001110001110011100011100011 9
#24500
bxxxxxxxxxxxxxxxxxxxxxxxxxxxxx000001110001110001100011100011100011 9
#24600
bxxxxxxxxxxxxxxxxxxxxxxxxxxxxx000001110001110011100011100011100011 9
#24700
bxxxxxxxxxxxxxxxxxxxxxxxxxxxxx000001110001100011100011100011100111 9
#24800
bxxxxxxxxxxxxxxxxxxxxxxxxxxxxx000001110011100011100011100011000111 9
#24900
bxxxxxxxxxxxxxxxxxxxxxxxxxxxxx000001100011100011100011100111000111 9
#25000
bxxxxxxxxxxxxxxxxxxxxxxxxxxxxx000011100011100011100011000111000111 9
#25100
bxxxxxxxxxxxxxxxxxxxxxxxxxxxxx000011100011100011100111000111000111 9
#25200
bxxxxxxxxxxxxxxxxxxxxxxxxxxxx0000011100011100011000111000111000111 9
#25300
0"
0/
bxxxxxxxxxxxxxxxxxxxxxxxxxxxx0000011100011100111000111000111000110 9
#25400
bxxxxxxxxxxxxxxxxxxxxxxxxxxxx0000011100011000111000111000111001110 9
#25500
bxxxxxxxxxxxxxxxxxxxxxxxxxxxx0000011100111000111000111000110001110 9
#25600
bxxxxxxxxxxxxxxxxxxxxxxxxxxxx0000011000111000111000111001110001110 9
#25700
bxxxxxxxxxxxxxxxxxxxxxxxxxxxx0000111000111000111000110001110001110 9
14
1$
r25.70000000000000  -
r-1.600000000000001  !
#25800
bxxxxxxxxxxxxxxxxxxxxxxxxxxxx0000111000111000111001110001110001110 9
#25900
bxxxxxxxxxxxxxxxxxxxxxxxxxxx00000111000111000110001110001110001110 9
#26000
bxxxxxxxxxxxxxxxxxxxxxxxxxxx00000111000111001110001110001110001100 9
#26100
bxxxxxxxxxxxxxxxxxxxxxxxxxxx00000111000110001110001110001110011100 9
#26200
bxxxxxxxxxxxxxxxxxxxxxxxxxxx00000111001110001110001110001100011100 9
#26300
bxxxxxxxxxxxxxxxxxxxxxxxxxxx00000110001110001110001110011100011100 9
#26400
bxxxxxxxxxxxxxxxxxxxxxxxxxxx00001110001110001110001100011100011100 9
#26500
bxxxxxxxxxxxxxxxxxxxxxxxxxxx00001110001110001110011100011100011100 9
#26600
bxxxxxxxxxxxxxxxxxxxxxxxxxx000001110001110001100011100011100011100 9
#26700
bxxxxxxxxxxxxxxxxxxxxxxxxxx000001110001110011100011100011100011000 9
#26800
bxxxxxxxxxxxxxxxxxxxxxxxxxx000001110001100011100011100011100111000 9
#26900
bxxxxxxxxxxxxxxxxxxxxxxxxxx000001110011100011100011100011000111000 9
#27000
bxxxxxxxxxxxxxxxxxxxxxxxxxx000001100011100011100011100111000111000 9
#27100
bxxxxxxxxxxxxxxxxxxxxxxxxxx000011100011100011100011000111000111000 9
#27200
bxxxxxxxxxxxxxxxxxxxxxxxxxx000011100011100011100111000111000111000 9
#27300
1"
1/
r27.30000000000000  &
b00000000000000000000000000000111 (
r-1.600000000000001  ,
r1.600000000000001  +
b00000000000000000000000000000000 '
bxxxxxxxxxxxxxxxxxxxxxxxxx0000011100011100011000111000111000111001 9
#27400
bxxxxxxxxxxxxxxxxxxxxxxxxx0000011100011100111000111000111000110001 9
#27500
bxxxxxxxxxxxxxxxxxxxxxxxxx0000011100011000111000111000111001110001 9
#27600
bxxxxxxxxxxxxxxxxxxxxxxxxx0000011100111000111000111000110001110001 9
#27700
bxxxxxxxxxxxxxxxxxxxxxxxxx0000011000111000111000111001110001110001 9
04
0$
#27800
bxxxxxxxxxxxxxxxxxxxxxxxxx0000111000111000111000110001110001110001 9
#27900
bxxxxxxxxxxxxxxxxxxxxxxxxx0000111000111000111001110001110001110001 9
#28000
bxxxxxxxxxxxxxxxxxxxxxxxx00000111000111000110001110001110001110011 9
#28100
bxxxxxxxxxxxxxxxxxxxxxxxx00000111000111001110001110001110001100011 9
#28200
bxxxxxxxxxxxxxxxxxxxxxxxx00000111000110001110001110001110011100011 9
#28300
bxxxxxxxxxxxxxxxxxxxxxxxx00000111001110001110001110001100011100011 9
#28400
bxxxxxxxxxxxxxxxxxxxxxxxx00000110001110001110001110011100011100011 9
#28500
bxxxxxxxxxxxxxxxxxxxxxxxx00001110001110001110001100011100011100011 9
#28600
bxxxxxxxxxxxxxxxxxxxxxxxx00001110001110001110011100011100011100011 9
#28700
bxxxxxxxxxxxxxxxxxxxxxxx000001110001110001100011100011100011100111 9
#28800
bxxxxxxxxxxxxxxxxxxxxxxx000001110001110011100011100011100011000111 9
#28900
bxxxxxxxxxxxxxxxxxxxxxxx000001110001100011100011100011100111000111 9
#29000
bxxxxxxxxxxxxxxxxxxxxxxx000001110011100011100011100011000111000111 9
#29100
bxxxxxxxxxxxxxxxxxxxxxxx000001100011100011100011100111000111000111 9
#29200
bxxxxxxxxxxxxxxxxxxxxxxx000011100011100011100011000111000111000111 9
#29300
0"
0/
bxxxxxxxxxxxxxxxxxxxxxxx000011100011100011100111000111000111000110 9
#29400
bxxxxxxxxxxxxxxxxxxxxxx0000011100011100011000111000111000111001110 9
#29500
bxxxxxxxxxxxxxxxxxxxxxx0000011100011100111000111000111000110001110 9
#29600
bxxxxxxxxxxxxxxxxxxxxxx0000011100011000111000111000111001110001110 9
#29700
bxxxxxxxxxxxxxxxxxxxxxx0000011100111000111000111000110001110001110 9
14
1$
r29.70000000000000  -
#29800
bxxxxxxxxxxxxxxxxxxxxxx0000011000111000111000111001110001110001110 9
#29900
bxxxxxxxxxxxxxxxxxxxxxx0000111000111000111000110001110001110001110 9
#30000
bxxxxxxxxxxxxxxxxxxxxxx0000111000111000111001110001110001110001100 9
#30100
bxxxxxxxxxxxxxxxxxxxxx00000111000111000110001110001110001110011100 9
#30200
bxxxxxxxxxxxxxxxxxxxxx00000111000111001110001110001110001100011100 9
#30300
bxxxxxxxxxxxxxxxxxxxxx00000111000110001110001110001110011100011100 9
#30400
bxxxxxxxxxxxxxxxxxxxxx00000111001110001110001110001100011100011100 9
#30500
bxxxxxxxxxxxxxxxxxxxxx00000110001110001110001110011100011100011100 9
#30600
bxxxxxxxxxxxxxxxxxxxxx00001110001110001110001100011100011100011100 9
#30700
bxxxxxxxxxxxxxxxxxxxxx00001110001110001110011100011100011100011000 9
#30800
bxxxxxxxxxxxxxxxxxxxx000001110001110001100011100011100011100111000 9
#30900
bxxxxxxxxxxxxxxxxxxxx000001110001110011100011100011100011000111000 9
#31000
bxxxxxxxxxxxxxxxxxxxx000001110001100011100011100011100111000111000 9
#31100
bxxxxxxxxxxxxxxxxxxxx000001110011100011100011100011000111000111000 9
