design_root/sim/behav/zdb.vcd
$date
	Tue Apr 14 23:12:17 2026
$end

$version
	Synopsys VCS version X-2025.06-SP2_Full64
$end

$timescale
	1ps
$end

$comment Csum: 1 be0c0931d37f72cc $end


$scope module tb_zdb $end
$var reg 1 ! clk_in $end
$var reg 1 " rst $end
$var wire 1 # clk_out $end
$var wire 1 $ locked $end
$var real 64 % t_ref_last $end
$var real 64 & phase_error $end
$var integer 32 ' stable_count $end
$var integer 32 ( print_div $end
$var real 64 ) delay_ns $end

$scope function abs_real $end
$var real 64 * abs_real $end
$var real 64 + x $end
$upscope $end


$scope begin unnamed$$_0 $end
$var real 64 , t_fb $end
$upscope $end


$scope module dut $end
$var wire 6 - ctrl_dbg [5:0] $end
$var wire 1 . clk_in $end
$var wire 1 / rst $end
$var wire 1 # clk_out $end
$var wire 1 $ locked $end
$var wire 1 0 up $end
$var wire 1 1 down $end
$var wire 6 2 ctrl [5:0] $end
$var wire 1 3 clk_delayed $end
$var reg 2 4 update_div [1:0] $end
$var wire 1 5 update_en $end
$var reg 6 6 lock_cnt [5:0] $end
$var reg 1 7 locked_r $end

$scope module u_dcdl $end
$var wire 1 . clk_in $end
$var wire 6 2 ctrl [5:0] $end
$var wire 1 3 clk_out $end
$var wire 65 8 delay_chain [64:0] $end
$var reg 6 9 ctrl_r [5:0] $end
$upscope $end


$scope module u_pfd $end
$var wire 1 . clk_ref $end
$var wire 1 # clk_fb $end
$var wire 1 : rst_n $end
$var wire 1 0 up $end
$var wire 1 1 down $end
$var reg 1 ; up_ff $end
$var reg 1 < down_ff $end
$var wire 1 = rst_int $end
$var wire 1 > rst_int_d $end
$upscope $end


$scope module u_ctrl $end
$var wire 1 . clk_in $end
$var wire 1 / rst $end
$var wire 1 0 up $end
$var wire 1 1 down $end
$var wire 1 5 update_en $end
$var reg 6 ? ctrl [5:0] $end
$upscope $end

$upscope $end

$upscope $end

$enddefinitions $end

#0
$dumpvars
0!
01
0<
1/
0$
07
1"
0=
x>
0:
00
0;
15
b100000 2
b100000 -
b000000 9
bxxxxxxxxxxxxxxxxxxxxxxxxxxxxxxxxxxxxxxxxxxxxxxxxxxxxxxxxxxxxxxxx0 8
b000000 6
b00000000000000000000000000000000 (
b00000000000000000000000000000000 '
b100000 ?
b00 4
r0.000000000000000  *
r0.000000000000000  +
r0.7000000000000001  )
r0.000000000000000  &
r0.000000000000000  %
r0.000000000000000  ,
03
0#
0.
$end
#20
0>
#700
bxxxxxxxxxxxxxxxxxxxxxxxxxxxxxxxxxxxxxxxxxxxxxxxxxxxxxxxxxxxxxxx00 8
#1400
bxxxxxxxxxxxxxxxxxxxxxxxxxxxxxxxxxxxxxxxxxxxxxxxxxxxxxxxxxxxxxx000 8
#2100
bxxxxxxxxxxxxxxxxxxxxxxxxxxxxxxxxxxxxxxxxxxxxxxxxxxxxxxxxxxxxx0000 8
#2800
bxxxxxxxxxxxxxxxxxxxxxxxxxxxxxxxxxxxxxxxxxxxxxxxxxxxxxxxxxxxx00000 8
#3300
1!
1.
r3.300000000000000  %
b00000000000000000000000000000001 (
b00000000000000000000000000000001 '
bxxxxxxxxxxxxxxxxxxxxxxxxxxxxxxxxxxxxxxxxxxxxxxxxxxxxxxxxxxxx00001 8
13
1#
r3.300000000000000  ,
b100000 9
x3
x#
#3500
bxxxxxxxxxxxxxxxxxxxxxxxxxxxxxxxxxxxxxxxxxxxxxxxxxxxxxxxxxxx000001 8
#4000
bxxxxxxxxxxxxxxxxxxxxxxxxxxxxxxxxxxxxxxxxxxxxxxxxxxxxxxxxxxx000011 8
#4200
bxxxxxxxxxxxxxxxxxxxxxxxxxxxxxxxxxxxxxxxxxxxxxxxxxxxxxxxxxx0000011 8
#4700
bxxxxxxxxxxxxxxxxxxxxxxxxxxxxxxxxxxxxxxxxxxxxxxxxxxxxxxxxxx0000111 8
#4900
bxxxxxxxxxxxxxxxxxxxxxxxxxxxxxxxxxxxxxxxxxxxxxxxxxxxxxxxxx00000111 8
#5300
0!
0.
bxxxxxxxxxxxxxxxxxxxxxxxxxxxxxxxxxxxxxxxxxxxxxxxxxxxxxxxxx00000110 8
#5400
bxxxxxxxxxxxxxxxxxxxxxxxxxxxxxxxxxxxxxxxxxxxxxxxxxxxxxxxxx00001110 8
#5600
bxxxxxxxxxxxxxxxxxxxxxxxxxxxxxxxxxxxxxxxxxxxxxxxxxxxxxxxx000001110 8
#6000
bxxxxxxxxxxxxxxxxxxxxxxxxxxxxxxxxxxxxxxxxxxxxxxxxxxxxxxxx000001100 8
#6100
bxxxxxxxxxxxxxxxxxxxxxxxxxxxxxxxxxxxxxxxxxxxxxxxxxxxxxxxx000011100 8
#6300
bxxxxxxxxxxxxxxxxxxxxxxxxxxxxxxxxxxxxxxxxxxxxxxxxxxxxxxx0000011100 8
#6700
bxxxxxxxxxxxxxxxxxxxxxxxxxxxxxxxxxxxxxxxxxxxxxxxxxxxxxxx0000011000 8
#6800
bxxxxxxxxxxxxxxxxxxxxxxxxxxxxxxxxxxxxxxxxxxxxxxxxxxxxxxx0000111000 8
#7000
bxxxxxxxxxxxxxxxxxxxxxxxxxxxxxxxxxxxxxxxxxxxxxxxxxxxxxx00000111000 8
#7300
1!
1.
r7.300000000000000  %
b00000000000000000000000000000010 (
b00000000000000000000000000000010 '
bxxxxxxxxxxxxxxxxxxxxxxxxxxxxxxxxxxxxxxxxxxxxxxxxxxxxxx00000111001 8
#7400
bxxxxxxxxxxxxxxxxxxxxxxxxxxxxxxxxxxxxxxxxxxxxxxxxxxxxxx00000110001 8
#7500
bxxxxxxxxxxxxxxxxxxxxxxxxxxxxxxxxxxxxxxxxxxxxxxxxxxxxxx00001110001 8
#7700
bxxxxxxxxxxxxxxxxxxxxxxxxxxxxxxxxxxxxxxxxxxxxxxxxxxxxx000001110001 8
#8000
bxxxxxxxxxxxxxxxxxxxxxxxxxxxxxxxxxxxxxxxxxxxxxxxxxxxxx000001110011 8
#8100
bxxxxxxxxxxxxxxxxxxxxxxxxxxxxxxxxxxxxxxxxxxxxxxxxxxxxx000001100011 8
#8200
bxxxxxxxxxxxxxxxxxxxxxxxxxxxxxxxxxxxxxxxxxxxxxxxxxxxxx000011100011 8
#8400
bxxxxxxxxxxxxxxxxxxxxxxxxxxxxxxxxxxxxxxxxxxxxxxxxxxxx0000011100011 8
#8700
bxxxxxxxxxxxxxxxxxxxxxxxxxxxxxxxxxxxxxxxxxxxxxxxxxxxx0000011100111 8
#8800
bxxxxxxxxxxxxxxxxxxxxxxxxxxxxxxxxxxxxxxxxxxxxxxxxxxxx0000011000111 8
#8900
bxxxxxxxxxxxxxxxxxxxxxxxxxxxxxxxxxxxxxxxxxxxxxxxxxxxx0000111000111 8
#9100
bxxxxxxxxxxxxxxxxxxxxxxxxxxxxxxxxxxxxxxxxxxxxxxxxxxx00000111000111 8
#9300
0!
0.
bxxxxxxxxxxxxxxxxxxxxxxxxxxxxxxxxxxxxxxxxxxxxxxxxxxx00000111000110 8
#9400
bxxxxxxxxxxxxxxxxxxxxxxxxxxxxxxxxxxxxxxxxxxxxxxxxxxx00000111001110 8
#9500
bxxxxxxxxxxxxxxxxxxxxxxxxxxxxxxxxxxxxxxxxxxxxxxxxxxx00000110001110 8
#9600
bxxxxxxxxxxxxxxxxxxxxxxxxxxxxxxxxxxxxxxxxxxxxxxxxxxx00001110001110 8
#9800
bxxxxxxxxxxxxxxxxxxxxxxxxxxxxxxxxxxxxxxxxxxxxxxxxxx000001110001110 8
#10000
bxxxxxxxxxxxxxxxxxxxxxxxxxxxxxxxxxxxxxxxxxxxxxxxxxx000001110001100 8
#10100
bxxxxxxxxxxxxxxxxxxxxxxxxxxxxxxxxxxxxxxxxxxxxxxxxxx000001110011100 8
#10200
bxxxxxxxxxxxxxxxxxxxxxxxxxxxxxxxxxxxxxxxxxxxxxxxxxx000001100011100 8
#10300
bxxxxxxxxxxxxxxxxxxxxxxxxxxxxxxxxxxxxxxxxxxxxxxxxxx000011100011100 8
#10500
bxxxxxxxxxxxxxxxxxxxxxxxxxxxxxxxxxxxxxxxxxxxxxxxxx0000011100011100 8
#10700
bxxxxxxxxxxxxxxxxxxxxxxxxxxxxxxxxxxxxxxxxxxxxxxxxx0000011100011000 8
#10800
bxxxxxxxxxxxxxxxxxxxxxxxxxxxxxxxxxxxxxxxxxxxxxxxxx0000011100111000 8
#10900
bxxxxxxxxxxxxxxxxxxxxxxxxxxxxxxxxxxxxxxxxxxxxxxxxx0000011000111000 8
#11000
bxxxxxxxxxxxxxxxxxxxxxxxxxxxxxxxxxxxxxxxxxxxxxxxxx0000111000111000 8
#11200
bxxxxxxxxxxxxxxxxxxxxxxxxxxxxxxxxxxxxxxxxxxxxxxxx00000111000111000 8
#11300
1!
1.
r11.30000000000000  %
b00000000000000000000000000000011 (
b00000000000000000000000000000011 '
bxxxxxxxxxxxxxxxxxxxxxxxxxxxxxxxxxxxxxxxxxxxxxxxx00000111000111001 8
#11400
bxxxxxxxxxxxxxxxxxxxxxxxxxxxxxxxxxxxxxxxxxxxxxxxx00000111000110001 8
#11500
bxxxxxxxxxxxxxxxxxxxxxxxxxxxxxxxxxxxxxxxxxxxxxxxx00000111001110001 8
#11600
bxxxxxxxxxxxxxxxxxxxxxxxxxxxxxxxxxxxxxxxxxxxxxxxx00000110001110001 8
#11700
bxxxxxxxxxxxxxxxxxxxxxxxxxxxxxxxxxxxxxxxxxxxxxxxx00001110001110001 8
#11900
bxxxxxxxxxxxxxxxxxxxxxxxxxxxxxxxxxxxxxxxxxxxxxxx000001110001110001 8
#12000
bxxxxxxxxxxxxxxxxxxxxxxxxxxxxxxxxxxxxxxxxxxxxxxx000001110001110011 8
#12100
bxxxxxxxxxxxxxxxxxxxxxxxxxxxxxxxxxxxxxxxxxxxxxxx000001110001100011 8
#12200
bxxxxxxxxxxxxxxxxxxxxxxxxxxxxxxxxxxxxxxxxxxxxxxx000001110011100011 8
#12300
bxxxxxxxxxxxxxxxxxxxxxxxxxxxxxxxxxxxxxxxxxxxxxxx000001100011100011 8
#12400
bxxxxxxxxxxxxxxxxxxxxxxxxxxxxxxxxxxxxxxxxxxxxxxx000011100011100011 8
#12600
bxxxxxxxxxxxxxxxxxxxxxxxxxxxxxxxxxxxxxxxxxxxxxx0000011100011100011 8
#12700
bxxxxxxxxxxxxxxxxxxxxxxxxxxxxxxxxxxxxxxxxxxxxxx0000011100011100111 8
#12800
bxxxxxxxxxxxxxxxxxxxxxxxxxxxxxxxxxxxxxxxxxxxxxx0000011100011000111 8
#12900
bxxxxxxxxxxxxxxxxxxxxxxxxxxxxxxxxxxxxxxxxxxxxxx0000011100111000111 8
#13000
bxxxxxxxxxxxxxxxxxxxxxxxxxxxxxxxxxxxxxxxxxxxxxx0000011000111000111 8
#13100
bxxxxxxxxxxxxxxxxxxxxxxxxxxxxxxxxxxxxxxxxxxxxxx0000111000111000111 8
#13300
0!
0.
bxxxxxxxxxxxxxxxxxxxxxxxxxxxxxxxxxxxxxxxxxxxxx00000111000111000110 8
#13400
bxxxxxxxxxxxxxxxxxxxxxxxxxxxxxxxxxxxxxxxxxxxxx00000111000111001110 8
#13500
bxxxxxxxxxxxxxxxxxxxxxxxxxxxxxxxxxxxxxxxxxxxxx00000111000110001110 8
#13600
bxxxxxxxxxxxxxxxxxxxxxxxxxxxxxxxxxxxxxxxxxxxxx00000111001110001110 8
#13700
bxxxxxxxxxxxxxxxxxxxxxxxxxxxxxxxxxxxxxxxxxxxxx00000110001110001110 8
#13800
bxxxxxxxxxxxxxxxxxxxxxxxxxxxxxxxxxxxxxxxxxxxxx00001110001110001110 8
#14000
bxxxxxxxxxxxxxxxxxxxxxxxxxxxxxxxxxxxxxxxxxxxx000001110001110001100 8
#14100
bxxxxxxxxxxxxxxxxxxxxxxxxxxxxxxxxxxxxxxxxxxxx000001110001110011100 8
#14200
bxxxxxxxxxxxxxxxxxxxxxxxxxxxxxxxxxxxxxxxxxxxx000001110001100011100 8
#14300
bxxxxxxxxxxxxxxxxxxxxxxxxxxxxxxxxxxxxxxxxxxxx000001110011100011100 8
#14400
bxxxxxxxxxxxxxxxxxxxxxxxxxxxxxxxxxxxxxxxxxxxx000001100011100011100 8
#14500
bxxxxxxxxxxxxxxxxxxxxxxxxxxxxxxxxxxxxxxxxxxxx000011100011100011100 8
#14700
bxxxxxxxxxxxxxxxxxxxxxxxxxxxxxxxxxxxxxxxxxxx0000011100011100011000 8
#14800
bxxxxxxxxxxxxxxxxxxxxxxxxxxxxxxxxxxxxxxxxxxx0000011100011100111000 8
#14900
bxxxxxxxxxxxxxxxxxxxxxxxxxxxxxxxxxxxxxxxxxxx0000011100011000111000 8
#15000
bxxxxxxxxxxxxxxxxxxxxxxxxxxxxxxxxxxxxxxxxxxx0000011100111000111000 8
#15100
bxxxxxxxxxxxxxxxxxxxxxxxxxxxxxxxxxxxxxxxxxxx0000011000111000111000 8
#15200
bxxxxxxxxxxxxxxxxxxxxxxxxxxxxxxxxxxxxxxxxxxx0000111000111000111000 8
#15300
1!
1.
r15.30000000000000  %
b00000000000000000000000000000100 (
b00000000000000000000000000000100 '
bxxxxxxxxxxxxxxxxxxxxxxxxxxxxxxxxxxxxxxxxxxx0000111000111000111001 8
#15400
bxxxxxxxxxxxxxxxxxxxxxxxxxxxxxxxxxxxxxxxxxx00000111000111000110001 8
#15500
bxxxxxxxxxxxxxxxxxxxxxxxxxxxxxxxxxxxxxxxxxx00000111000111001110001 8
#15600
bxxxxxxxxxxxxxxxxxxxxxxxxxxxxxxxxxxxxxxxxxx00000111000110001110001 8
#15700
bxxxxxxxxxxxxxxxxxxxxxxxxxxxxxxxxxxxxxxxxxx00000111001110001110001 8
#15800
bxxxxxxxxxxxxxxxxxxxxxxxxxxxxxxxxxxxxxxxxxx00000110001110001110001 8
#15900
bxxxxxxxxxxxxxxxxxxxxxxxxxxxxxxxxxxxxxxxxxx00001110001110001110001 8
#16000
bxxxxxxxxxxxxxxxxxxxxxxxxxxxxxxxxxxxxxxxxxx00001110001110001110011 8
#16100
bxxxxxxxxxxxxxxxxxxxxxxxxxxxxxxxxxxxxxxxxx000001110001110001100011 8
#16200
bxxxxxxxxxxxxxxxxxxxxxxxxxxxxxxxxxxxxxxxxx000001110001110011100011 8
#16300
bxxxxxxxxxxxxxxxxxxxxxxxxxxxxxxxxxxxxxxxxx000001110001100011100011 8
#16400
bxxxxxxxxxxxxxxxxxxxxxxxxxxxxxxxxxxxxxxxxx000001110011100011100011 8
#16500
bxxxxxxxxxxxxxxxxxxxxxxxxxxxxxxxxxxxxxxxxx000001100011100011100011 8
#16600
bxxxxxxxxxxxxxxxxxxxxxxxxxxxxxxxxxxxxxxxxx000011100011100011100011 8
#16700
bxxxxxxxxxxxxxxxxxxxxxxxxxxxxxxxxxxxxxxxxx000011100011100011100111 8
#16800
bxxxxxxxxxxxxxxxxxxxxxxxxxxxxxxxxxxxxxxxx0000011100011100011000111 8
#16900
bxxxxxxxxxxxxxxxxxxxxxxxxxxxxxxxxxxxxxxxx0000011100011100111000111 8
#17000
bxxxxxxxxxxxxxxxxxxxxxxxxxxxxxxxxxxxxxxxx0000011100011000111000111 8
#17100
bxxxxxxxxxxxxxxxxxxxxxxxxxxxxxxxxxxxxxxxx0000011100111000111000111 8
#17200
bxxxxxxxxxxxxxxxxxxxxxxxxxxxxxxxxxxxxxxxx0000011000111000111000111 8
#17300
0!
0.
bxxxxxxxxxxxxxxxxxxxxxxxxxxxxxxxxxxxxxxxx0000111000111000111000110 8
#17400
bxxxxxxxxxxxxxxxxxxxxxxxxxxxxxxxxxxxxxxxx0000111000111000111001110 8
#17500
bxxxxxxxxxxxxxxxxxxxxxxxxxxxxxxxxxxxxxxx00000111000111000110001110 8
#17600
bxxxxxxxxxxxxxxxxxxxxxxxxxxxxxxxxxxxxxxx00000111000111001110001110 8
#17700
bxxxxxxxxxxxxxxxxxxxxxxxxxxxxxxxxxxxxxxx00000111000110001110001110 8
#17800
bxxxxxxxxxxxxxxxxxxxxxxxxxxxxxxxxxxxxxxx00000111001110001110001110 8
#17900
bxxxxxxxxxxxxxxxxxxxxxxxxxxxxxxxxxxxxxxx00000110001110001110001110 8
#18000
bxxxxxxxxxxxxxxxxxxxxxxxxxxxxxxxxxxxxxxx00001110001110001110001100 8
#18100
bxxxxxxxxxxxxxxxxxxxxxxxxxxxxxxxxxxxxxxx00001110001110001110011100 8
#18200
bxxxxxxxxxxxxxxxxxxxxxxxxxxxxxxxxxxxxxx000001110001110001100011100 8
#18300
bxxxxxxxxxxxxxxxxxxxxxxxxxxxxxxxxxxxxxx000001110001110011100011100 8
#18400
bxxxxxxxxxxxxxxxxxxxxxxxxxxxxxxxxxxxxxx000001110001100011100011100 8
#18500
bxxxxxxxxxxxxxxxxxxxxxxxxxxxxxxxxxxxxxx000001110011100011100011100 8
#18600
bxxxxxxxxxxxxxxxxxxxxxxxxxxxxxxxxxxxxxx000001100011100011100011100 8
#18700
bxxxxxxxxxxxxxxxxxxxxxxxxxxxxxxxxxxxxxx000011100011100011100011000 8
#18800
bxxxxxxxxxxxxxxxxxxxxxxxxxxxxxxxxxxxxxx000011100011100011100111000 8
#18900
bxxxxxxxxxxxxxxxxxxxxxxxxxxxxxxxxxxxxx0000011100011100011000111000 8
#19000
bxxxxxxxxxxxxxxxxxxxxxxxxxxxxxxxxxxxxx0000011100011100111000111000 8
#19100
bxxxxxxxxxxxxxxxxxxxxxxxxxxxxxxxxxxxxx0000011100011000111000111000 8
#19200
bxxxxxxxxxxxxxxxxxxxxxxxxxxxxxxxxxxxxx0000011100111000111000111000 8
#19300
1!
1.
r19.30000000000000  %
b00000000000000000000000000000101 (
b00000000000000000000000000000101 '
bxxxxxxxxxxxxxxxxxxxxxxxxxxxxxxxxxxxxx0000011000111000111000111001 8
#19400
bxxxxxxxxxxxxxxxxxxxxxxxxxxxxxxxxxxxxx0000111000111000111000110001 8
#19500
bxxxxxxxxxxxxxxxxxxxxxxxxxxxxxxxxxxxxx0000111000111000111001110001 8
#19600
bxxxxxxxxxxxxxxxxxxxxxxxxxxxxxxxxxxxx00000111000111000110001110001 8
#19700
bxxxxxxxxxxxxxxxxxxxxxxxxxxxxxxxxxxxx00000111000111001110001110001 8
#19800
bxxxxxxxxxxxxxxxxxxxxxxxxxxxxxxxxxxxx00000111000110001110001110001 8
#19900
bxxxxxxxxxxxxxxxxxxxxxxxxxxxxxxxxxxxx00000111001110001110001110001 8
#20000
bxxxxxxxxxxxxxxxxxxxxxxxxxxxxxxxxxxxx00000110001110001110001110011 8
#20100
bxxxxxxxxxxxxxxxxxxxxxxxxxxxxxxxxxxxx00001110001110001110001100011 8
#20200
bxxxxxxxxxxxxxxxxxxxxxxxxxxxxxxxxxxxx00001110001110001110011100011 8
#20300
bxxxxxxxxxxxxxxxxxxxxxxxxxxxxxxxxxxx000001110001110001100011100011 8
#20400
bxxxxxxxxxxxxxxxxxxxxxxxxxxxxxxxxxxx000001110001110011100011100011 8
#20500
bxxxxxxxxxxxxxxxxxxxxxxxxxxxxxxxxxxx000001110001100011100011100011 8
#20600
bxxxxxxxxxxxxxxxxxxxxxxxxxxxxxxxxxxx000001110011100011100011100011 8
#20700
bxxxxxxxxxxxxxxxxxxxxxxxxxxxxxxxxxxx000001100011100011100011100111 8
#20800
bxxxxxxxxxxxxxxxxxxxxxxxxxxxxxxxxxxx000011100011100011100011000111 8
#20900
bxxxxxxxxxxxxxxxxxxxxxxxxxxxxxxxxxxx000011100011100011100111000111 8
#21000
bxxxxxxxxxxxxxxxxxxxxxxxxxxxxxxxxxx0000011100011100011000111000111 8
#21100
bxxxxxxxxxxxxxxxxxxxxxxxxxxxxxxxxxx0000011100011100111000111000111 8
#21200
bxxxxxxxxxxxxxxxxxxxxxxxxxxxxxxxxxx0000011100011000111000111000111 8
#21300
0!
0.
bxxxxxxxxxxxxxxxxxxxxxxxxxxxxxxxxxx0000011100111000111000111000110 8
#21400
bxxxxxxxxxxxxxxxxxxxxxxxxxxxxxxxxxx0000011000111000111000111001110 8
#21500
bxxxxxxxxxxxxxxxxxxxxxxxxxxxxxxxxxx0000111000111000111000110001110 8
#21600
bxxxxxxxxxxxxxxxxxxxxxxxxxxxxxxxxxx0000111000111000111001110001110 8
#21700
bxxxxxxxxxxxxxxxxxxxxxxxxxxxxxxxxx00000111000111000110001110001110 8
#21800
bxxxxxxxxxxxxxxxxxxxxxxxxxxxxxxxxx00000111000111001110001110001110 8
#21900
bxxxxxxxxxxxxxxxxxxxxxxxxxxxxxxxxx00000111000110001110001110001110 8
#22000
bxxxxxxxxxxxxxxxxxxxxxxxxxxxxxxxxx00000111001110001110001110001100 8
#22100
bxxxxxxxxxxxxxxxxxxxxxxxxxxxxxxxxx00000110001110001110001110011100 8
#22200
bxxxxxxxxxxxxxxxxxxxxxxxxxxxxxxxxx00001110001110001110001100011100 8
#22300
bxxxxxxxxxxxxxxxxxxxxxxxxxxxxxxxxx00001110001110001110011100011100 8
#22400
bxxxxxxxxxxxxxxxxxxxxxxxxxxxxxxxx000001110001110001100011100011100 8
03
0#
#22500
bxxxxxxxxxxxxxxxxxxxxxxxxxxxxxxxx000001110001110011100011100011100 8
#22600
bxxxxxxxxxxxxxxxxxxxxxxxxxxxxxxxx000001110001100011100011100011100 8
#22700
bxxxxxxxxxxxxxxxxxxxxxxxxxxxxxxxx000001110011100011100011100011000 8
#22800
bxxxxxxxxxxxxxxxxxxxxxxxxxxxxxxxx000001100011100011100011100111000 8
#22900
bxxxxxxxxxxxxxxxxxxxxxxxxxxxxxxxx000011100011100011100011000111000 8
#23000
bxxxxxxxxxxxxxxxxxxxxxxxxxxxxxxxx000011100011100011100111000111000 8
#23100
bxxxxxxxxxxxxxxxxxxxxxxxxxxxxxxx0000011100011100011000111000111000 8
#23200
bxxxxxxxxxxxxxxxxxxxxxxxxxxxxxxx0000011100011100111000111000111000 8
#23300
1!
1.
r23.30000000000000  %
b00000000000000000000000000000110 (
b00000000000000000000000000000110 '
bxxxxxxxxxxxxxxxxxxxxxxxxxxxxxxx0000011100011000111000111000111001 8
#23400
bxxxxxxxxxxxxxxxxxxxxxxxxxxxxxxx0000011100111000111000111000110001 8
#23500
bxxxxxxxxxxxxxxxxxxxxxxxxxxxxxxx0000011000111000111000111001110001 8
#23600
bxxxxxxxxxxxxxxxxxxxxxxxxxxxxxxx0000111000111000111000110001110001 8
#23700
bxxxxxxxxxxxxxxxxxxxxxxxxxxxxxxx0000111000111000111001110001110001 8
#23800
bxxxxxxxxxxxxxxxxxxxxxxxxxxxxxx00000111000111000110001110001110001 8
#23900
bxxxxxxxxxxxxxxxxxxxxxxxxxxxxxx00000111000111001110001110001110001 8
#24000
bxxxxxxxxxxxxxxxxxxxxxxxxxxxxxx00000111000110001110001110001110011 8
#24100
bxxxxxxxxxxxxxxxxxxxxxxxxxxxxxx00000111001110001110001110001100011 8
#24200
bxxxxxxxxxxxxxxxxxxxxxxxxxxxxxx00000110001110001110001110011100011 8
#24300
bxxxxxxxxxxxxxxxxxxxxxxxxxxxxxx00001110001110001110001100011100011 8
#24400
bxxxxxxxxxxxxxxxxxxxxxxxxxxxxxx00001110001110001110011100011100011 8
#24500
bxxxxxxxxxxxxxxxxxxxxxxxxxxxxx000001110001110001100011100011100011 8
#24600
bxxxxxxxxxxxxxxxxxxxxxxxxxxxxx000001110001110011100011100011100011 8
#24700
bxxxxxxxxxxxxxxxxxxxxxxxxxxxxx000001110001100011100011100011100111 8
#24800
bxxxxxxxxxxxxxxxxxxxxxxxxxxxxx000001110011100011100011100011000111 8
#24900
bxxxxxxxxxxxxxxxxxxxxxxxxxxxxx000001100011100011100011100111000111 8
#25000
bxxxxxxxxxxxxxxxxxxxxxxxxxxxxx000011100011100011100011000111000111 8
#25100
bxxxxxxxxxxxxxxxxxxxxxxxxxxxxx000011100011100011100111000111000111 8
#25200
bxxxxxxxxxxxxxxxxxxxxxxxxxxxx0000011100011100011000111000111000111 8
#25300
0!
0.
bxxxxxxxxxxxxxxxxxxxxxxxxxxxx0000011100011100111000111000111000110 8
#25400
bxxxxxxxxxxxxxxxxxxxxxxxxxxxx0000011100011000111000111000111001110 8
#25500
bxxxxxxxxxxxxxxxxxxxxxxxxxxxx0000011100111000111000111000110001110 8
#25600
bxxxxxxxxxxxxxxxxxxxxxxxxxxxx0000011000111000111000111001110001110 8
#25700
bxxxxxxxxxxxxxxxxxxxxxxxxxxxx0000111000111000111000110001110001110 8
13
1#
r25.70000000000000  ,
r-1.600000000000001  &
#25800
bxxxxxxxxxxxxxxxxxxxxxxxxxxxx0000111000111000111001110001110001110 8
#25900
bxxxxxxxxxxxxxxxxxxxxxxxxxxx00000111000111000110001110001110001110 8
#26000
bxxxxxxxxxxxxxxxxxxxxxxxxxxx00000111000111001110001110001110001100 8
#26100
bxxxxxxxxxxxxxxxxxxxxxxxxxxx00000111000110001110001110001110011100 8
#26200
bxxxxxxxxxxxxxxxxxxxxxxxxxxx00000111001110001110001110001100011100 8
#26300
bxxxxxxxxxxxxxxxxxxxxxxxxxxx00000110001110001110001110011100011100 8
#26400
bxxxxxxxxxxxxxxxxxxxxxxxxxxx00001110001110001110001100011100011100 8
#26500
bxxxxxxxxxxxxxxxxxxxxxxxxxxx00001110001110001110011100011100011100 8
#26600
bxxxxxxxxxxxxxxxxxxxxxxxxxx000001110001110001100011100011100011100 8
#26700
bxxxxxxxxxxxxxxxxxxxxxxxxxx000001110001110011100011100011100011000 8
#26800
bxxxxxxxxxxxxxxxxxxxxxxxxxx000001110001100011100011100011100111000 8
#26900
bxxxxxxxxxxxxxxxxxxxxxxxxxx000001110011100011100011100011000111000 8
#27000
bxxxxxxxxxxxxxxxxxxxxxxxxxx000001100011100011100011100111000111000 8
#27100
bxxxxxxxxxxxxxxxxxxxxxxxxxx000011100011100011100011000111000111000 8
#27200
bxxxxxxxxxxxxxxxxxxxxxxxxxx000011100011100011100111000111000111000 8
#27300
1!
1.
r27.30000000000000  %
b00000000000000000000000000000111 (
r-1.600000000000001  +
r1.600000000000001  *
b00000000000000000000000000000000 '
bxxxxxxxxxxxxxxxxxxxxxxxxx0000011100011100011000111000111000111001 8
#27400
bxxxxxxxxxxxxxxxxxxxxxxxxx0000011100011100111000111000111000110001 8
#27500
bxxxxxxxxxxxxxxxxxxxxxxxxx0000011100011000111000111000111001110001 8
#27600
bxxxxxxxxxxxxxxxxxxxxxxxxx0000011100111000111000111000110001110001 8
#27700
bxxxxxxxxxxxxxxxxxxxxxxxxx0000011000111000111000111001110001110001 8
03
0#
#27800
bxxxxxxxxxxxxxxxxxxxxxxxxx0000111000111000111000110001110001110001 8
#27900
bxxxxxxxxxxxxxxxxxxxxxxxxx0000111000111000111001110001110001110001 8
#28000
bxxxxxxxxxxxxxxxxxxxxxxxx00000111000111000110001110001110001110011 8
#28100
bxxxxxxxxxxxxxxxxxxxxxxxx00000111000111001110001110001110001100011 8
#28200
bxxxxxxxxxxxxxxxxxxxxxxxx00000111000110001110001110001110011100011 8
#28300
bxxxxxxxxxxxxxxxxxxxxxxxx00000111001110001110001110001100011100011 8
#28400
bxxxxxxxxxxxxxxxxxxxxxxxx00000110001110001110001110011100011100011 8
#28500
bxxxxxxxxxxxxxxxxxxxxxxxx00001110001110001110001100011100011100011 8
#28600
bxxxxxxxxxxxxxxxxxxxxxxxx00001110001110001110011100011100011100011 8
#28700
bxxxxxxxxxxxxxxxxxxxxxxx000001110001110001100011100011100011100111 8
#28800
bxxxxxxxxxxxxxxxxxxxxxxx000001110001110011100011100011100011000111 8
#28900
bxxxxxxxxxxxxxxxxxxxxxxx000001110001100011100011100011100111000111 8
#29000
bxxxxxxxxxxxxxxxxxxxxxxx000001110011100011100011100011000111000111 8
#29100
bxxxxxxxxxxxxxxxxxxxxxxx000001100011100011100011100111000111000111 8
#29200
bxxxxxxxxxxxxxxxxxxxxxxx000011100011100011100011000111000111000111 8
#29300
0!
0.
bxxxxxxxxxxxxxxxxxxxxxxx000011100011100011100111000111000111000110 8
#29400
bxxxxxxxxxxxxxxxxxxxxxx0000011100011100011000111000111000111001110 8
#29500
bxxxxxxxxxxxxxxxxxxxxxx0000011100011100111000111000111000110001110 8
#29600
bxxxxxxxxxxxxxxxxxxxxxx0000011100011000111000111000111001110001110 8
#29700
bxxxxxxxxxxxxxxxxxxxxxx0000011100111000111000111000110001110001110 8
13
1#
r29.70000000000000  ,
#29800
bxxxxxxxxxxxxxxxxxxxxxx0000011000111000111000111001110001110001110 8
#29900
bxxxxxxxxxxxxxxxxxxxxxx0000111000111000111000110001110001110001110 8
#30000
bxxxxxxxxxxxxxxxxxxxxxx0000111000111000111001110001110001110001100 8
#30100
bxxxxxxxxxxxxxxxxxxxxx00000111000111000110001110001110001110011100 8
#30200
bxxxxxxxxxxxxxxxxxxxxx00000111000111001110001110001110001100011100 8
#30300
bxxxxxxxxxxxxxxxxxxxxx00000111000110001110001110001110011100011100 8
#30400
bxxxxxxxxxxxxxxxxxxxxx00000111001110001110001110001100011100011100 8
#30500
bxxxxxxxxxxxxxxxxxxxxx00000110001110001110001110011100011100011100 8
#30600
bxxxxxxxxxxxxxxxxxxxxx00001110001110001110001100011100011100011100 8
#30700
bxxxxxxxxxxxxxxxxxxxxx00001110001110001110011100011100011100011000 8
#30800
bxxxxxxxxxxxxxxxxxxxx000001110001110001100011100011100011100111000 8
#30900
bxxxxxxxxxxxxxxxxxxxx000001110001110011100011100011100011000111000 8
#31000
bxxxxxxxxxxxxxxxxxxxx000001110001100011100011100011100111000111000 8
#31100
bxxxxxxxxxxxxxxxxxxxx000001110011100011100011100011000111000111000 8
#31200
bxxxxxxxxxxxxxxxxxxxx000001100011100011100011100111000111000111000 8
