design_root/sim/behav/zdb_top.log
Command: vcs -f zdb_top.include +v2k -R +lint=all -sverilog -full64 -timescale=1ns/10ps \
-debug_access+all -debug_region+cell+encrypt -debug_access -l zdb_top.log +define++SIM=1 \
+testname=DEFAULT -lca -kdb
                         Chronologic VCS (TM)
       Version X-2025.06-SP2_Full64 -- Mon Apr 13 22:29:52 2026

                    Copyright (c) 1991 - 2025 Synopsys, Inc.
   This software and the associated documentation are proprietary to Synopsys,
 Inc. This software may only be used in accordance with the terms and conditions
 of a written license agreement with Synopsys, Inc. All other use, reproduction,
   or distribution of this software is strictly prohibited.  Licensed Products
     communicate with Synopsys servers for the purpose of providing software
    updates, detecting software piracy and verifying that customers are using
    Licensed Products in conformity with the applicable License Key for such
  Licensed Products. Synopsys will use information gathered in connection with
    this process to deliver software updates and pursue software pirates and
                                   infringers.

 Inclusivity & Diversity - Visit SolvNetPlus to read the "Synopsys Statement on
            Inclusivity and Diversity" (Refer to article 000036315 at
                        https://solvnetplus.synopsys.com)


Warning-[LCA_FEATURES_ENABLED] Usage warning
  LCA features enabled by '-lca' argument on the command line.  For more 
  information regarding list of LCA features please refer to Chapter "LCA 
  features" in the VCS Release Notes

Parsing design file '../../src/verilog/tops/zdb_top/zdb_top.sv'
Parsing design file '../../src/verilog/parts/phase_detector/phase_detector_syn_pfd.sv'
Parsing design file '../../src/verilog/parts/controller/controller_saturate.sv'
Parsing design file '../../src/verilog/parts/dcdl/gates/inverter.sv'
Parsing design file '../../src/verilog/parts/dcdl/gates/nand2.sv'
Parsing design file '../../src/verilog/parts/dcdl/nand_dcdl/nand_dcdl_cell.sv'
Parsing design file '../../src/verilog/parts/dcdl/nand_dcdl/dll_shift_register.sv'
Parsing design file '../../src/verilog/parts/dcdl/nand_dcdl/nand_dcdl.sv'
Parsing design file '../../src/verilog/parts/dcdl/nand_dcdl/nand_dcdl_top.sv'
Parsing design file '../../src/verilog/tops/zdb_top/tb_zdb_top.sv'

Lint-[NS] Null statement
../../src/verilog/tops/zdb_top/tb_zdb_top.sv, 115
  Null statement is used in following verilog source.
  Source info:             @(posedge clk_in);


Lint-[NS] Null statement
../../src/verilog/tops/zdb_top/tb_zdb_top.sv, 116
  Null statement is used in following verilog source.
  Source info:             #1;


Lint-[NS] Null statement
../../src/verilog/tops/zdb_top/tb_zdb_top.sv, 163
  Null statement is used in following verilog source.
  Source info:         #10000;


Lint-[NS] Null statement
../../src/verilog/tops/zdb_top/tb_zdb_top.sv, 166
  Null statement is used in following verilog source.
  Source info:         @(posedge clk_in); #1;


Lint-[NS] Null statement
../../src/verilog/tops/zdb_top/tb_zdb_top.sv, 166
  Null statement is used in following verilog source.
  Source info:         @(posedge clk_in); #1;


Lint-[NS] Null statement
../../src/verilog/tops/zdb_top/tb_zdb_top.sv, 187
  Null statement is used in following verilog source.
  Source info:         #5000;

Top Level Modules:
       inverter
       nand2
       tb_zdb_top
TimeScale is 1 ps / 1 ps

Lint-[WMIA-L] Width mismatch in assignment
../../src/verilog/tops/zdb_top/tb_zdb_top.sv, 54
  Width mismatch between LHS and RHS is found in assignment:
  The following 32-bit wide expression is assigned to a 1-bit LHS target:
  Source info: clk_in = 0;
  Expression: clk_in


Lint-[ULCO] Unequal length in comparison operator
../../src/verilog/tops/zdb_top/tb_zdb_top.sv, 83
tb_zdb_top, "(ctrl_dbg == last_ctrl)"
  A left 6-bit expression is compared to a right 32-bit expression.
  Comparing 'ctrl_dbg' of type wire [(CTRL_BITS - 1):0]
  with 'last_ctrl' of type integer.


Lint-[WMIA-L] Width mismatch in assignment
../../src/verilog/tops/zdb_top/tb_zdb_top.sv, 88
  Width mismatch between LHS and RHS is found in assignment:
  The following 6-bit wide expression is assigned to a 32-bit LHS target:
  Source info: last_ctrl = ctrl_dbg;
  Expression: last_ctrl


Lint-[WMIA-L] Width mismatch in assignment
../../src/verilog/tops/zdb_top/tb_zdb_top.sv, 156
  Width mismatch between LHS and RHS is found in assignment:
  The following 32-bit wide expression is assigned to a 64-bit LHS target:
  Source info: prev_phase_error = 0;
  Expression: prev_phase_error


Lint-[WMIA-L] Width mismatch in assignment
../../src/verilog/tops/zdb_top/tb_zdb_top.sv, 162
  Width mismatch between LHS and RHS is found in assignment:
  The following 32-bit wide expression is assigned to a 1-bit LHS target:
  Source info: rst = 1;
  Expression: rst


Lint-[WMIA-L] Width mismatch in assignment
../../src/verilog/tops/zdb_top/tb_zdb_top.sv, 164
  Width mismatch between LHS and RHS is found in assignment:
  The following 32-bit wide expression is assigned to a 1-bit LHS target:
  Source info: rst = 0;
  Expression: rst


Lint-[ULCO] Unequal length in comparison operator
../../src/verilog/tops/zdb_top/tb_zdb_top.sv, 167
tb_zdb_top, "(ctrl_dbg !== INIT_CTRL)"
  A left 6-bit expression is compared to a right 32-bit expression.
  Comparing 'ctrl_dbg' of type wire [(CTRL_BITS - 1):0]
  with 'INIT_CTRL' of type integer.


Lint-[WMIA-L] Width mismatch in assignment
../../src/verilog/tops/zdb_top/tb_zdb_top.sv, 186
  Width mismatch between LHS and RHS is found in assignment:
  The following 32-bit wide expression is assigned to a 1-bit LHS target:
  Source info: rst = 1;
  Expression: rst


Lint-[WMIA-L] Width mismatch in assignment
../../src/verilog/tops/zdb_top/tb_zdb_top.sv, 188
  Width mismatch between LHS and RHS is found in assignment:
  The following 32-bit wide expression is assigned to a 1-bit LHS target:
  Source info: rst = 0;
  Expression: rst


Lint-[ULCO] Unequal length in comparison operator
../../src/verilog/tops/zdb_top/tb_zdb_top.sv, 106
tb_zdb_top, "(ctrl_dbg > MAX_CTRL)"
  A left 6-bit expression is compared to a right 32-bit expression.
  Comparing 'ctrl_dbg' of type wire [(CTRL_BITS - 1):0]
  with 'MAX_CTRL' of type integer.

Starting vcs inline pass...
3 modules and 0 UDP read.
	However, due to incremental compilation, no re-compilation is necessary.
make[1]: Entering directory '/nethome/araj92/final_codeachiprepo/CaC_Spring26/design_root/sim/behav/csrc' \

rm -f _cuarc*.so _csrc*.so pre_vcsobj_*.so share_vcsobj_*.so
if [ -x ../simv ]; then chmod a-x ../simv; fi
g++  -o ../simv      -rdynamic  -Wl,-rpath='$ORIGIN'/simv.daidir -Wl,-rpath=./simv.daidir \
-Wl,-rpath=/tools/software/synopsys/vcs/latest/linux64/lib -L/tools/software/synopsys/vcs/latest/linux64/lib \
-Wl,-rpath-link=./   objs/amcQw_d.o   _2723562_archive_1.so _prev_archive_1.so   \
SIM_l.o       rmapats_mop.o rmapats.o rmar.o rmar_nd.o  rmar_llvm_0_1.o rmar_llvm_0_0.o \
-lnuma -lvirsim -lerrorinf -lsnpsmalloc -lvfs      -lvcsnew -ldistsimclient -lsimprofile \
-luclinative /tools/software/synopsys/vcs/latest/linux64/lib/vcs_tls.o   -Wl,-whole-archive \
-lvcsucli    -Wl,-no-whole-archive        _vcs_pli_stub_.o   /tools/software/synopsys/vcs/latest/linux64/lib/vcs_save_restore_new.o \
/tools/software/synopsys/verdi/latest/share/PLI/VCS/LINUX64/pli.a -ldl  -lc -lm -lpthread \
-ldl 
../simv up to date
make[1]: Leaving directory '/nethome/araj92/final_codeachiprepo/CaC_Spring26/design_root/sim/behav/csrc' \

Command: /nethome/araj92/final_codeachiprepo/CaC_Spring26/design_root/sim/behav/./simv +v2k +lint=all -a zdb_top.log +define++SIM=1 +testname=DEFAULT -lca
Chronologic VCS simulator copyright 1991-2025
Contains Synopsys proprietary information.
Compiler version X-2025.06-SP2_Full64; Runtime version X-2025.06-SP2_Full64;  Apr 13 22:29 2026
time   rst clk_in clk_out | ctrl
     0  1    0      x    | 32
   294  1    0      0    | 32
  5000  1    1      0    | 32
t=5200 | PHASE_ERR=200 ps | ctrl=32 | UP=0 DOWN=0
  5200  1    1      1    | 32
 10000  0    0      1    | 32
 10200  0    0      0    | 32
 15000  0    1      0    | 32

=== RUNNING DLL LOOP ===
t=15200 | PHASE_ERR=200 ps | ctrl=32 | UP=1 DOWN=0
 15200  0    1      1    | 32
 20000  0    0      1    | 32
 20200  0    0      0    | 32
 25000  0    1      0    | 32
t=25200 | PHASE_ERR=200 ps | ctrl=32 | UP=0 DOWN=1
 25200  0    1      1    | 32
 30000  0    0      1    | 32
 30200  0    0      0    | 32
 35000  0    1      0    | 31
t=35200 | PHASE_ERR=200 ps | ctrl=31 | UP=1 DOWN=1
 35200  0    1      1    | 31
 40000  0    0      1    | 31
 40200  0    0      0    | 31
 45000  0    1      0    | 32
t=45800 | PHASE_ERR=800 ps | ctrl=32 | UP=1 DOWN=0
 45800  0    1      1    | 32
 50000  0    0      1    | 32
 50800  0    0      0    | 32
 55000  0    1      0    | 32
t=55200 | PHASE_ERR=200 ps | ctrl=32 | UP=0 DOWN=1
 55200  0    1      1    | 32
 60000  0    0      1    | 32
 60200  0    0      0    | 32
 65000  0    1      0    | 31
t=65200 | PHASE_ERR=200 ps | ctrl=31 | UP=1 DOWN=1
 65200  0    1      1    | 31
 70000  0    0      1    | 31
 70200  0    0      0    | 31
 75000  0    1      0    | 32
t=75800 | PHASE_ERR=800 ps | ctrl=32 | UP=1 DOWN=0
 75800  0    1      1    | 32
 80000  0    0      1    | 32
 80800  0    0      0    | 32
 85000  0    1      0    | 32
t=85200 | PHASE_ERR=200 ps | ctrl=32 | UP=0 DOWN=1
 85200  0    1      1    | 32
 90000  0    0      1    | 32
 90200  0    0      0    | 32
 95000  0    1      0    | 31
t=95200 | PHASE_ERR=200 ps | ctrl=31 | UP=1 DOWN=1
 95200  0    1      1    | 31
100000  0    0      1    | 31
100200  0    0      0    | 31
105000  0    1      0    | 32
t=105800 | PHASE_ERR=800 ps | ctrl=32 | UP=1 DOWN=0
105800  0    1      1    | 32
110000  0    0      1    | 32
110800  0    0      0    | 32
115000  0    1      0    | 32
t=115200 | PHASE_ERR=200 ps | ctrl=32 | UP=0 DOWN=1
115200  0    1      1    | 32
120000  0    0      1    | 32
120200  0    0      0    | 32
125000  0    1      0    | 31
t=125200 | PHASE_ERR=200 ps | ctrl=31 | UP=1 DOWN=1
125200  0    1      1    | 31
130000  0    0      1    | 31
130200  0    0      0    | 31
135000  0    1      0    | 32
t=135800 | PHASE_ERR=800 ps | ctrl=32 | UP=1 DOWN=0
135800  0    1      1    | 32
140000  0    0      1    | 32
140800  0    0      0    | 32
145000  0    1      0    | 32
t=145200 | PHASE_ERR=200 ps | ctrl=32 | UP=0 DOWN=1
145200  0    1      1    | 32
150000  0    0      1    | 32
150200  0    0      0    | 32
155000  0    1      0    | 31
t=155200 | PHASE_ERR=200 ps | ctrl=31 | UP=1 DOWN=1
155200  0    1      1    | 31
160000  0    0      1    | 31
160200  0    0      0    | 31
165000  0    1      0    | 32
t=165800 | PHASE_ERR=800 ps | ctrl=32 | UP=1 DOWN=0
165800  0    1      1    | 32
170000  0    0      1    | 32
170800  0    0      0    | 32
175000  0    1      0    | 32
t=175200 | PHASE_ERR=200 ps | ctrl=32 | UP=0 DOWN=1
175200  0    1      1    | 32
180000  0    0      1    | 32
180200  0    0      0    | 32
185000  0    1      0    | 31
t=185200 | PHASE_ERR=200 ps | ctrl=31 | UP=1 DOWN=1
185200  0    1      1    | 31
190000  0    0      1    | 31
190200  0    0      0    | 31
195000  0    1      0    | 32
t=195800 | PHASE_ERR=800 ps | ctrl=32 | UP=1 DOWN=0
195800  0    1      1    | 32
200000  0    0      1    | 32
200800  0    0      0    | 32
205000  0    1      0    | 32
t=205200 | PHASE_ERR=200 ps | ctrl=32 | UP=0 DOWN=1
205200  0    1      1    | 32
210000  0    0      1    | 32
210200  0    0      0    | 32
215000  0    1      0    | 31
t=215200 | PHASE_ERR=200 ps | ctrl=31 | UP=1 DOWN=1
215200  0    1      1    | 31
220000  0    0      1    | 31
220200  0    0      0    | 31
225000  0    1      0    | 32
t=225800 | PHASE_ERR=800 ps | ctrl=32 | UP=1 DOWN=0
225800  0    1      1    | 32
230000  0    0      1    | 32
230800  0    0      0    | 32
235000  0    1      0    | 32
t=235200 | PHASE_ERR=200 ps | ctrl=32 | UP=0 DOWN=1
235200  0    1      1    | 32
240000  0    0      1    | 32
240200  0    0      0    | 32
245000  0    1      0    | 31
t=245200 | PHASE_ERR=200 ps | ctrl=31 | UP=1 DOWN=1
245200  0    1      1    | 31
250000  0    0      1    | 31
250200  0    0      0    | 31
255000  0    1      0    | 32
t=255800 | PHASE_ERR=800 ps | ctrl=32 | UP=1 DOWN=0
255800  0    1      1    | 32
260000  0    0      1    | 32
260800  0    0      0    | 32
265000  0    1      0    | 32
t=265200 | PHASE_ERR=200 ps | ctrl=32 | UP=0 DOWN=1
265200  0    1      1    | 32
270000  0    0      1    | 32
270200  0    0      0    | 32
275000  0    1      0    | 31
t=275200 | PHASE_ERR=200 ps | ctrl=31 | UP=1 DOWN=1
275200  0    1      1    | 31
280000  0    0      1    | 31
280200  0    0      0    | 31
285000  0    1      0    | 32
t=285800 | PHASE_ERR=800 ps | ctrl=32 | UP=1 DOWN=0
285800  0    1      1    | 32
290000  0    0      1    | 32
290800  0    0      0    | 32
295000  0    1      0    | 32
t=295200 | PHASE_ERR=200 ps | ctrl=32 | UP=0 DOWN=1
295200  0    1      1    | 32
300000  0    0      1    | 32
300200  0    0      0    | 32
305000  0    1      0    | 31
t=305200 | PHASE_ERR=200 ps | ctrl=31 | UP=1 DOWN=1
305200  0    1      1    | 31
310000  0    0      1    | 31
310200  0    0      0    | 31
315000  0    1      0    | 32
t=315800 | PHASE_ERR=800 ps | ctrl=32 | UP=1 DOWN=0
315800  0    1      1    | 32
320000  0    0      1    | 32
320800  0    0      0    | 32
325000  0    1      0    | 32
t=325200 | PHASE_ERR=200 ps | ctrl=32 | UP=0 DOWN=1
325200  0    1      1    | 32
330000  0    0      1    | 32
330200  0    0      0    | 32
335000  0    1      0    | 31
t=335200 | PHASE_ERR=200 ps | ctrl=31 | UP=1 DOWN=1
335200  0    1      1    | 31
340000  0    0      1    | 31
340200  0    0      0    | 31
345000  0    1      0    | 32
t=345800 | PHASE_ERR=800 ps | ctrl=32 | UP=1 DOWN=0
345800  0    1      1    | 32
350000  0    0      1    | 32
350800  0    0      0    | 32
355000  0    1      0    | 32
t=355200 | PHASE_ERR=200 ps | ctrl=32 | UP=0 DOWN=1
355200  0    1      1    | 32
360000  0    0      1    | 32
360200  0    0      0    | 32
365000  0    1      0    | 31
t=365200 | PHASE_ERR=200 ps | ctrl=31 | UP=1 DOWN=1
365200  0    1      1    | 31
370000  0    0      1    | 31
370200  0    0      0    | 31
375000  0    1      0    | 32
t=375800 | PHASE_ERR=800 ps | ctrl=32 | UP=1 DOWN=0
375800  0    1      1    | 32
380000  0    0      1    | 32
380800  0    0      0    | 32
385000  0    1      0    | 32
t=385200 | PHASE_ERR=200 ps | ctrl=32 | UP=0 DOWN=1
385200  0    1      1    | 32
390000  0    0      1    | 32
390200  0    0      0    | 32
395000  0    1      0    | 31
t=395200 | PHASE_ERR=200 ps | ctrl=31 | UP=1 DOWN=1
395200  0    1      1    | 31
400000  0    0      1    | 31
400200  0    0      0    | 31
405000  0    1      0    | 32
t=405800 | PHASE_ERR=800 ps | ctrl=32 | UP=1 DOWN=0
405800  0    1      1    | 32
410000  0    0      1    | 32
410800  0    0      0    | 32
415000  0    1      0    | 32
t=415200 | PHASE_ERR=200 ps | ctrl=32 | UP=0 DOWN=1
415200  0    1      1    | 32
420000  0    0      1    | 32
420200  0    0      0    | 32
425000  0    1      0    | 31
t=425200 | PHASE_ERR=200 ps | ctrl=31 | UP=1 DOWN=1
425200  0    1      1    | 31
430000  0    0      1    | 31
430200  0    0      0    | 31
435000  0    1      0    | 32
t=435800 | PHASE_ERR=800 ps | ctrl=32 | UP=1 DOWN=0
435800  0    1      1    | 32
440000  0    0      1    | 32
440800  0    0      0    | 32
445000  0    1      0    | 32
t=445200 | PHASE_ERR=200 ps | ctrl=32 | UP=0 DOWN=1
445200  0    1      1    | 32
450000  0    0      1    | 32
450200  0    0      0    | 32
455000  0    1      0    | 31
t=455200 | PHASE_ERR=200 ps | ctrl=31 | UP=1 DOWN=1
455200  0    1      1    | 31
460000  0    0      1    | 31
460200  0    0      0    | 31
465000  0    1      0    | 32
t=465800 | PHASE_ERR=800 ps | ctrl=32 | UP=1 DOWN=0
465800  0    1      1    | 32
470000  0    0      1    | 32
470800  0    0      0    | 32
475000  0    1      0    | 32
t=475200 | PHASE_ERR=200 ps | ctrl=32 | UP=0 DOWN=1
475200  0    1      1    | 32
480000  0    0      1    | 32
480200  0    0      0    | 32
485000  0    1      0    | 31
t=485200 | PHASE_ERR=200 ps | ctrl=31 | UP=1 DOWN=1
485200  0    1      1    | 31
490000  0    0      1    | 31
490200  0    0      0    | 31
495000  0    1      0    | 32
t=495800 | PHASE_ERR=800 ps | ctrl=32 | UP=1 DOWN=0
495800  0    1      1    | 32
500000  0    0      1    | 32
500800  0    0      0    | 32
505000  0    1      0    | 32
t=505200 | PHASE_ERR=200 ps | ctrl=32 | UP=0 DOWN=1
505200  0    1      1    | 32
510000  0    0      1    | 32
510200  0    0      0    | 32
515000  0    1      0    | 31
t=515200 | PHASE_ERR=200 ps | ctrl=31 | UP=1 DOWN=1
515200  0    1      1    | 31
520000  0    0      1    | 31
520200  0    0      0    | 31
525000  0    1      0    | 32
t=525800 | PHASE_ERR=800 ps | ctrl=32 | UP=1 DOWN=0
525800  0    1      1    | 32
530000  0    0      1    | 32
530800  0    0      0    | 32
535000  0    1      0    | 32
t=535200 | PHASE_ERR=200 ps | ctrl=32 | UP=0 DOWN=1
535200  0    1      1    | 32
540000  0    0      1    | 32
540200  0    0      0    | 32
545000  0    1      0    | 31
t=545200 | PHASE_ERR=200 ps | ctrl=31 | UP=1 DOWN=1
545200  0    1      1    | 31
550000  0    0      1    | 31
550200  0    0      0    | 31
555000  0    1      0    | 32
t=555800 | PHASE_ERR=800 ps | ctrl=32 | UP=1 DOWN=0
555800  0    1      1    | 32
560000  0    0      1    | 32
560800  0    0      0    | 32
565000  0    1      0    | 32
t=565200 | PHASE_ERR=200 ps | ctrl=32 | UP=0 DOWN=1
565200  0    1      1    | 32
570000  0    0      1    | 32
570200  0    0      0    | 32
575000  0    1      0    | 31
t=575200 | PHASE_ERR=200 ps | ctrl=31 | UP=1 DOWN=1
575200  0    1      1    | 31
580000  0    0      1    | 31
580200  0    0      0    | 31
585000  0    1      0    | 32
t=585800 | PHASE_ERR=800 ps | ctrl=32 | UP=1 DOWN=0
585800  0    1      1    | 32
590000  0    0      1    | 32
590800  0    0      0    | 32
595000  0    1      0    | 32
t=595200 | PHASE_ERR=200 ps | ctrl=32 | UP=0 DOWN=1
595200  0    1      1    | 32
600000  0    0      1    | 32
600200  0    0      0    | 32
605000  0    1      0    | 31
t=605200 | PHASE_ERR=200 ps | ctrl=31 | UP=1 DOWN=1
605200  0    1      1    | 31
610000  0    0      1    | 31
610200  0    0      0    | 31
615000  0    1      0    | 32
t=615800 | PHASE_ERR=800 ps | ctrl=32 | UP=1 DOWN=0
615800  0    1      1    | 32
620000  0    0      1    | 32
620800  0    0      0    | 32
625000  0    1      0    | 32
t=625200 | PHASE_ERR=200 ps | ctrl=32 | UP=0 DOWN=1
625200  0    1      1    | 32
630000  0    0      1    | 32
630200  0    0      0    | 32
635000  0    1      0    | 31
t=635200 | PHASE_ERR=200 ps | ctrl=31 | UP=1 DOWN=1
635200  0    1      1    | 31
640000  0    0      1    | 31
640200  0    0      0    | 31
645000  0    1      0    | 32
t=645800 | PHASE_ERR=800 ps | ctrl=32 | UP=1 DOWN=0
645800  0    1      1    | 32
650000  0    0      1    | 32
650800  0    0      0    | 32
655000  0    1      0    | 32
t=655200 | PHASE_ERR=200 ps | ctrl=32 | UP=0 DOWN=1
655200  0    1      1    | 32
660000  0    0      1    | 32
660200  0    0      0    | 32
665000  0    1      0    | 31
t=665200 | PHASE_ERR=200 ps | ctrl=31 | UP=1 DOWN=1
665200  0    1      1    | 31
670000  0    0      1    | 31
670200  0    0      0    | 31
675000  0    1      0    | 32
t=675800 | PHASE_ERR=800 ps | ctrl=32 | UP=1 DOWN=0
675800  0    1      1    | 32
680000  0    0      1    | 32
680800  0    0      0    | 32
685000  0    1      0    | 32
t=685200 | PHASE_ERR=200 ps | ctrl=32 | UP=0 DOWN=1
685200  0    1      1    | 32
690000  0    0      1    | 32
690200  0    0      0    | 32
695000  0    1      0    | 31
t=695200 | PHASE_ERR=200 ps | ctrl=31 | UP=1 DOWN=1
695200  0    1      1    | 31
700000  0    0      1    | 31
700200  0    0      0    | 31
705000  0    1      0    | 32
t=705800 | PHASE_ERR=800 ps | ctrl=32 | UP=1 DOWN=0
705800  0    1      1    | 32
710000  0    0      1    | 32
710800  0    0      0    | 32
715000  0    1      0    | 32
t=715200 | PHASE_ERR=200 ps | ctrl=32 | UP=0 DOWN=1
715200  0    1      1    | 32
720000  0    0      1    | 32
720200  0    0      0    | 32
725000  0    1      0    | 31
t=725200 | PHASE_ERR=200 ps | ctrl=31 | UP=1 DOWN=1
725200  0    1      1    | 31
730000  0    0      1    | 31
730200  0    0      0    | 31
735000  0    1      0    | 32
t=735800 | PHASE_ERR=800 ps | ctrl=32 | UP=1 DOWN=0
735800  0    1      1    | 32
740000  0    0      1    | 32
740800  0    0      0    | 32
745000  0    1      0    | 32
t=745200 | PHASE_ERR=200 ps | ctrl=32 | UP=0 DOWN=1
745200  0    1      1    | 32
750000  0    0      1    | 32
750200  0    0      0    | 32
755000  0    1      0    | 31
t=755200 | PHASE_ERR=200 ps | ctrl=31 | UP=1 DOWN=1
755200  0    1      1    | 31
760000  0    0      1    | 31
760200  0    0      0    | 31
765000  0    1      0    | 32
t=765800 | PHASE_ERR=800 ps | ctrl=32 | UP=1 DOWN=0
765800  0    1      1    | 32
770000  0    0      1    | 32
770800  0    0      0    | 32
775000  0    1      0    | 32
t=775200 | PHASE_ERR=200 ps | ctrl=32 | UP=0 DOWN=1
775200  0    1      1    | 32
780000  0    0      1    | 32
780200  0    0      0    | 32
785000  0    1      0    | 31
t=785200 | PHASE_ERR=200 ps | ctrl=31 | UP=1 DOWN=1
785200  0    1      1    | 31
790000  0    0      1    | 31
790200  0    0      0    | 31
795000  0    1      0    | 32
t=795800 | PHASE_ERR=800 ps | ctrl=32 | UP=1 DOWN=0
795800  0    1      1    | 32
800000  0    0      1    | 32
800800  0    0      0    | 32
805000  0    1      0    | 32
t=805200 | PHASE_ERR=200 ps | ctrl=32 | UP=0 DOWN=1
805200  0    1      1    | 32
810000  0    0      1    | 32
810200  0    0      0    | 32
815000  0    1      0    | 31
t=815200 | PHASE_ERR=200 ps | ctrl=31 | UP=1 DOWN=1
815200  0    1      1    | 31
820000  0    0      1    | 31
820200  0    0      0    | 31
825000  0    1      0    | 32
t=825800 | PHASE_ERR=800 ps | ctrl=32 | UP=1 DOWN=0
825800  0    1      1    | 32
830000  0    0      1    | 32
830800  0    0      0    | 32
835000  0    1      0    | 32
t=835200 | PHASE_ERR=200 ps | ctrl=32 | UP=0 DOWN=1
835200  0    1      1    | 32
840000  0    0      1    | 32
840200  0    0      0    | 32
845000  0    1      0    | 31
t=845200 | PHASE_ERR=200 ps | ctrl=31 | UP=1 DOWN=1
845200  0    1      1    | 31
850000  0    0      1    | 31
850200  0    0      0    | 31
855000  0    1      0    | 32
t=855800 | PHASE_ERR=800 ps | ctrl=32 | UP=1 DOWN=0
855800  0    1      1    | 32
860000  0    0      1    | 32
860800  0    0      0    | 32
865000  0    1      0    | 32
t=865200 | PHASE_ERR=200 ps | ctrl=32 | UP=0 DOWN=1
865200  0    1      1    | 32
870000  0    0      1    | 32
870200  0    0      0    | 32
875000  0    1      0    | 31
t=875200 | PHASE_ERR=200 ps | ctrl=31 | UP=1 DOWN=1
875200  0    1      1    | 31
880000  0    0      1    | 31
880200  0    0      0    | 31
885000  0    1      0    | 32
t=885800 | PHASE_ERR=800 ps | ctrl=32 | UP=1 DOWN=0
885800  0    1      1    | 32
890000  0    0      1    | 32
890800  0    0      0    | 32
895000  0    1      0    | 32
t=895200 | PHASE_ERR=200 ps | ctrl=32 | UP=0 DOWN=1
895200  0    1      1    | 32
900000  0    0      1    | 32
900200  0    0      0    | 32
905000  0    1      0    | 31
t=905200 | PHASE_ERR=200 ps | ctrl=31 | UP=1 DOWN=1
905200  0    1      1    | 31
910000  0    0      1    | 31
910200  0    0      0    | 31
915000  0    1      0    | 32
t=915800 | PHASE_ERR=800 ps | ctrl=32 | UP=1 DOWN=0
915800  0    1      1    | 32
920000  0    0      1    | 32
920800  0    0      0    | 32
925000  0    1      0    | 32
t=925200 | PHASE_ERR=200 ps | ctrl=32 | UP=0 DOWN=1
925200  0    1      1    | 32
930000  0    0      1    | 32
930200  0    0      0    | 32
935000  0    1      0    | 31
t=935200 | PHASE_ERR=200 ps | ctrl=31 | UP=1 DOWN=1
935200  0    1      1    | 31
940000  0    0      1    | 31
940200  0    0      0    | 31
945000  0    1      0    | 32
t=945800 | PHASE_ERR=800 ps | ctrl=32 | UP=1 DOWN=0
945800  0    1      1    | 32
950000  0    0      1    | 32
950800  0    0      0    | 32
955000  0    1      0    | 32
t=955200 | PHASE_ERR=200 ps | ctrl=32 | UP=0 DOWN=1
955200  0    1      1    | 32
960000  0    0      1    | 32
960200  0    0      0    | 32
965000  0    1      0    | 31
t=965200 | PHASE_ERR=200 ps | ctrl=31 | UP=1 DOWN=1
965200  0    1      1    | 31
970000  0    0      1    | 31
970200  0    0      0    | 31
975000  0    1      0    | 32
t=975800 | PHASE_ERR=800 ps | ctrl=32 | UP=1 DOWN=0
975800  0    1      1    | 32
980000  0    0      1    | 32
980800  0    0      0    | 32
985000  0    1      0    | 32
t=985200 | PHASE_ERR=200 ps | ctrl=32 | UP=0 DOWN=1
985200  0    1      1    | 32
990000  0    0      1    | 32
990200  0    0      0    | 32
995000  0    1      0    | 31
t=995200 | PHASE_ERR=200 ps | ctrl=31 | UP=1 DOWN=1
995200  0    1      1    | 31
1000000  0    0      1    | 31
1000200  0    0      0    | 31
1005000  0    1      0    | 32
t=1005800 | PHASE_ERR=800 ps | ctrl=32 | UP=1 DOWN=0
1005800  0    1      1    | 32
1010000  0    0      1    | 32
1010800  0    0      0    | 32
1015000  0    1      0    | 32

⚠️ NO LOCK DETECTED
Phase stable cycles = 0
Ctrl stable cycles  = 0


=== DISTURBANCE TEST ===
1015001  1    1      0    | 32
t=1015200 | PHASE_ERR=200 ps | ctrl=32 | UP=0 DOWN=0
1015200  1    1      1    | 32
1020000  1    0      1    | 32
1020001  0    0      1    | 32
1020200  0    0      0    | 32
1025000  0    1      0    | 32
t=1025200 | PHASE_ERR=200 ps | ctrl=32 | UP=1 DOWN=0
1025200  0    1      1    | 32
1030000  0    0      1    | 32
1030200  0    0      0    | 32
1035000  0    1      0    | 32
t=1035200 | PHASE_ERR=200 ps | ctrl=32 | UP=0 DOWN=1
1035200  0    1      1    | 32
1040000  0    0      1    | 32
1040200  0    0      0    | 32
1045000  0    1      0    | 31
t=1045200 | PHASE_ERR=200 ps | ctrl=31 | UP=1 DOWN=1
1045200  0    1      1    | 31
1050000  0    0      1    | 31
1050200  0    0      0    | 31
1055000  0    1      0    | 32
t=1055800 | PHASE_ERR=800 ps | ctrl=32 | UP=1 DOWN=0
1055800  0    1      1    | 32
1060000  0    0      1    | 32
1060800  0    0      0    | 32
1065000  0    1      0    | 32
t=1065200 | PHASE_ERR=200 ps | ctrl=32 | UP=0 DOWN=1
1065200  0    1      1    | 32
1070000  0    0      1    | 32
1070200  0    0      0    | 32
1075000  0    1      0    | 31
t=1075200 | PHASE_ERR=200 ps | ctrl=31 | UP=1 DOWN=1
1075200  0    1      1    | 31
1080000  0    0      1    | 31
1080200  0    0      0    | 31
1085000  0    1      0    | 32
t=1085800 | PHASE_ERR=800 ps | ctrl=32 | UP=1 DOWN=0
1085800  0    1      1    | 32
1090000  0    0      1    | 32
1090800  0    0      0    | 32
1095000  0    1      0    | 32
t=1095200 | PHASE_ERR=200 ps | ctrl=32 | UP=0 DOWN=1
1095200  0    1      1    | 32
1100000  0    0      1    | 32
1100200  0    0      0    | 32
1105000  0    1      0    | 31
t=1105200 | PHASE_ERR=200 ps | ctrl=31 | UP=1 DOWN=1
1105200  0    1      1    | 31
1110000  0    0      1    | 31
1110200  0    0      0    | 31
1115000  0    1      0    | 32
t=1115800 | PHASE_ERR=800 ps | ctrl=32 | UP=1 DOWN=0
1115800  0    1      1    | 32
1120000  0    0      1    | 32
1120800  0    0      0    | 32
1125000  0    1      0    | 32
t=1125200 | PHASE_ERR=200 ps | ctrl=32 | UP=0 DOWN=1
1125200  0    1      1    | 32
1130000  0    0      1    | 32
1130200  0    0      0    | 32
1135000  0    1      0    | 31
t=1135200 | PHASE_ERR=200 ps | ctrl=31 | UP=1 DOWN=1
1135200  0    1      1    | 31
1140000  0    0      1    | 31
1140200  0    0      0    | 31
1145000  0    1      0    | 32
t=1145800 | PHASE_ERR=800 ps | ctrl=32 | UP=1 DOWN=0
1145800  0    1      1    | 32
1150000  0    0      1    | 32
1150800  0    0      0    | 32
1155000  0    1      0    | 32
t=1155200 | PHASE_ERR=200 ps | ctrl=32 | UP=0 DOWN=1
1155200  0    1      1    | 32
1160000  0    0      1    | 32
1160200  0    0      0    | 32
1165000  0    1      0    | 31
t=1165200 | PHASE_ERR=200 ps | ctrl=31 | UP=1 DOWN=1
1165200  0    1      1    | 31
1170000  0    0      1    | 31
1170200  0    0      0    | 31
1175000  0    1      0    | 32
t=1175800 | PHASE_ERR=800 ps | ctrl=32 | UP=1 DOWN=0
1175800  0    1      1    | 32
1180000  0    0      1    | 32
1180800  0    0      0    | 32
1185000  0    1      0    | 32
t=1185200 | PHASE_ERR=200 ps | ctrl=32 | UP=0 DOWN=1
