design_root/sim/behav/zdb_with_ro.vcd
$date
	Sat Apr  4 13:55:26 2026
$end

$version
	Synopsys VCS version X-2025.06-SP2_Full64
$end

$timescale
	1ps
$end

$comment Csum: 1 41482320ac432b46 $end


$scope module tb_zdb_top_with_ro $end
$var reg 1 ! clk_in $end
$var reg 1 " rst $end
$var reg 2 # ro_sel [1:0] $end
$var wire 1 $ clk_out $end
$var wire 6 % ctrl_dbg [5:0] $end
$var wire 1 & up_dbg $end
$var wire 1 ' down_dbg $end
$var wire 1 ( shift_left_dbg $end
$var wire 1 ) shift_right_dbg $end
$var time 64 * t_in $end
$var time 64 + t_out $end

$scope fork unnamed$$_vcs_0 $end

$scope begin unnamed$$_vcs_1 $end
$upscope $end

$upscope $end


$scope module dut $end
$var wire 1 , clk_in $end
$var wire 1 - rst $end
$var wire 1 $ clk_out $end
$var wire 1 . ro_clk $end
$var wire 6 % ctrl_dbg [5:0] $end
$var wire 1 & up_dbg $end
$var wire 1 ' down_dbg $end
$var wire 1 ( shift_left_dbg $end
$var wire 1 ) shift_right_dbg $end
$var wire 2 / ro_sel [1:0] $end
$var wire 1 0 ro_clk_int $end
$var wire 6 1 ctrl [5:0] $end
$var wire 1 2 up $end
$var wire 1 3 down $end
$var reg 6 4 ctrl_d [5:0] $end
$var wire 1 5 shift_left $end
$var wire 1 6 shift_right $end
$var wire 1 7 dcdl_clk $end

$scope module u_pd $end
$var wire 1 . clk_in $end
$var wire 1 $ clk_out $end
$var wire 1 - rst $end
$var wire 1 2 up $end
$var wire 1 3 down $end
$var reg 1 8 up_ff $end
$var reg 1 9 down_ff $end
$var wire 1 : clr $end
$upscope $end


$scope module u_controller $end
$var wire 1 . clk_in $end
$var wire 1 - rst $end
$var wire 1 2 up $end
$var wire 1 3 down $end
$var reg 6 ; ctrl [5:0] $end
$upscope $end


$scope module u_dcdl_top $end
$var reg 1 < clk $end
$var reg 1 = rst_n $end
$var reg 1 > shift_left $end
$var reg 1 ? shift_right $end
$var reg 1 @ A $end
$var reg 1 A Y $end
$var reg 4 B Q [3:0] $end

$scope module sr $end
$var reg 1 C clk $end
$var reg 1 D rst_n $end
$var reg 1 E shift_left $end
$var reg 1 F shift_right $end
$var reg 4 G Q [3:0] $end
$upscope $end


$scope module dcdl $end
$var reg 1 H A $end
$var reg 4 I Q [3:0] $end
$var reg 1 J Y $end
$var reg 1 K s3 $end
$var reg 1 L s2 $end
$var reg 1 M s1 $end
$var reg 1 N s0 $end

$scope module cell3 $end
$var reg 1 O in1 $end
$var reg 1 P in0 $end
$var reg 1 Q ctl $end
$var reg 1 R out $end
$var reg 1 S inv1_output $end
$var reg 1 T nand_cell_1 $end
$var reg 1 U nand_cell_2 $end

$scope module inv1 $end
$var reg 1 V in $end
$var reg 1 W out $end
$upscope $end


$scope module nand2_1 $end
$var reg 1 X a $end
$var reg 1 Y b $end
$var reg 1 Z out $end
$upscope $end


$scope module nand2_2 $end
$var reg 1 [ a $end
$var reg 1 \ b $end
$var reg 1 ] out $end
$upscope $end


$scope module nand2_3 $end
$var reg 1 ^ a $end
$var reg 1 _ b $end
$var reg 1 ` out $end
$upscope $end

$upscope $end


$scope module cell2 $end
$var reg 1 a in1 $end
$var reg 1 b in0 $end
$var reg 1 c ctl $end
$var reg 1 d out $end
$var reg 1 e inv1_output $end
$var reg 1 f nand_cell_1 $end
$var reg 1 g nand_cell_2 $end

$scope module inv1 $end
$var reg 1 h in $end
$var reg 1 i out $end
$upscope $end


$scope module nand2_1 $end
$var reg 1 j a $end
$var reg 1 k b $end
$var reg 1 l out $end
$upscope $end


$scope module nand2_2 $end
$var reg 1 m a $end
$var reg 1 n b $end
$var reg 1 o out $end
$upscope $end


$scope module nand2_3 $end
$var reg 1 p a $end
$var reg 1 q b $end
$var reg 1 r out $end
$upscope $end

$upscope $end


$scope module cell1 $end
$var reg 1 s in1 $end
$var reg 1 t in0 $end
$var reg 1 u ctl $end
$var reg 1 v out $end
$var reg 1 w inv1_output $end
$var reg 1 x nand_cell_1 $end
$var reg 1 y nand_cell_2 $end

$scope module inv1 $end
$var reg 1 z in $end
$var reg 1 { out $end
$upscope $end


$scope module nand2_1 $end
$var reg 1 | a $end
$var reg 1 } b $end
$var reg 1 ~ out $end
$upscope $end


$scope module nand2_2 $end
$var reg 1 "! a $end
$var reg 1 "" b $end
$var reg 1 "# out $end
$upscope $end


$scope module nand2_3 $end
$var reg 1 "$ a $end
$var reg 1 "% b $end
$var reg 1 "& out $end
$upscope $end

$upscope $end


$scope module cell0 $end
$var reg 1 "' in1 $end
$var reg 1 "( in0 $end
$var reg 1 ") ctl $end
$var reg 1 "* out $end
$var reg 1 "+ inv1_output $end
$var reg 1 ", nand_cell_1 $end
$var reg 1 "- nand_cell_2 $end

$scope module inv1 $end
$var reg 1 ". in $end
$var reg 1 "/ out $end
$upscope $end


$scope module nand2_1 $end
$var reg 1 "0 a $end
$var reg 1 "1 b $end
$var reg 1 "2 out $end
$upscope $end


$scope module nand2_2 $end
$var reg 1 "3 a $end
$var reg 1 "4 b $end
$var reg 1 "5 out $end
$upscope $end


$scope module nand2_3 $end
$var reg 1 "6 a $end
$var reg 1 "7 b $end
$var reg 1 "8 out $end
$upscope $end

$upscope $end

$upscope $end

$upscope $end

$upscope $end

$upscope $end

$enddefinitions $end

#0
$dumpvars
0X
1Y
0"0
0"1
0"'
0"+
1"2
1"6
1"7
1",
1"-
0|
1}
0s
1w
1~
1"$
1"%
0"&
1x
1y
0v
0j
1k
0a
1e
1l
1p
1q
0r
1f
1g
0d
z<
0!
1:
03
0'
09
1-
0O
1S
1Z
1^
1_
0`
1T
1U
0R
z.
z0
1"
0=
0M
0L
0K
05
0(
06
0)
zC
0D
0E
0F
xQ
x[
xc
xm
xu
x"!
x")
x"3
x\
xW
xn
xi
x""
x{
x"4
x"/
xV
xh
xz
x".
x]
xo
x"#
x"5
0>
0?
02
0&
08
b0001 B
b100000 1
b100000 4
b100000 %
b0001 I
b00 /
b00 #
b0001 G
bxxxxxxxxxxxxxxxxxxxxxxxxxxxxxxxxxxxxxxxxxxxxxxxxxxxxxxxxxxxxxxxx *
bxxxxxxxxxxxxxxxxxxxxxxxxxxxxxxxxxxxxxxxxxxxxxxxxxxxxxxxxxxxxxxxx +
b100000 ;
07
0$
0"8
0"*
0N
0J
0A
0@
0H
0P
0b
0t
0"(
0,
$end
0Q
0c
0u
1")
0\
0n
0""
1"4
0V
0h
0z
1".
1]
1o
1"#
1"5
0[
0m
0"!
0"3
1W
1i
1{
0"/
#7000
1!
1,
1@
1H
1P
1b
1t
1"(
1[
1m
1"!
1"3
b0000000000000000000000000000000000000000000000000001101101011000 *
0"5
0"-
0"7
1"8
1"*
1N
1J
1A
17
1$
b0000000000000000000000000000000000000000000000000001101101011000 +
#14000
0!
0,
0@
0H
0P
0b
0t
0"(
0[
0m
0"!
0"3
1"5
1"-
1"7
0"8
0"*
0N
0J
0A
07
0$
#20000
0"
0-
1=
1D
0:
#21000
1!
1,
1@
1H
1P
1b
1t
1"(
1[
1m
1"!
1"3
b0000000000000000000000000000000000000000000000000101001000001000 *
0"5
0"-
0"7
1"8
1"*
1N
1J
1A
17
1$
b0000000000000000000000000000000000000000000000000101001000001000 +
19
13
1'
#28000
0!
0,
0@
0H
0P
0b
0t
0"(
0[
0m
0"!
0"3
1"5
1"-
1"7
0"8
0"*
0N
0J
0A
07
0$
#35000
1!
1,
1@
1H
1P
1b
1t
1"(
1[
1m
1"!
1"3
b0000000000000000000000000000000000000000000000001000100010111000 *
0"5
0"-
0"7
1"8
1"*
1N
1J
1A
17
1$
b0000000000000000000000000000000000000000000000001000100010111000 +
#42000
0!
0,
0@
0H
0P
0b
0t
0"(
0[
0m
0"!
0"3
1"5
1"-
1"7
0"8
0"*
0N
0J
0A
07
0$
#49000
1!
1,
1@
1H
1P
1b
1t
1"(
1[
1m
1"!
1"3
b0000000000000000000000000000000000000000000000001011111101101000 *
0"5
0"-
0"7
1"8
1"*
1N
1J
1A
17
1$
b0000000000000000000000000000000000000000000000001011111101101000 +
#56000
0!
0,
0@
0H
0P
0b
0t
0"(
0[
0m
0"!
0"3
1"5
1"-
1"7
0"8
0"*
0N
0J
0A
07
0$
#63000
1!
1,
1@
1H
1P
1b
1t
1"(
1[
1m
1"!
1"3
b0000000000000000000000000000000000000000000000001111011000011000 *
0"5
0"-
0"7
1"8
1"*
1N
1J
1A
17
1$
b0000000000000000000000000000000000000000000000001111011000011000 +
#70000
0!
0,
0@
0H
0P
0b
0t
0"(
0[
0m
0"!
0"3
1"5
1"-
1"7
0"8
0"*
0N
0J
0A
07
0$
#77000
1!
1,
1@
1H
1P
1b
1t
1"(
1[
1m
1"!
1"3
b0000000000000000000000000000000000000000000000010010110011001000 *
0"5
0"-
0"7
1"8
1"*
1N
1J
1A
17
1$
b0000000000000000000000000000000000000000000000010010110011001000 +
#84000
0!
0,
0@
0H
0P
0b
0t
0"(
0[
0m
0"!
0"3
1"5
1"-
1"7
0"8
0"*
0N
0J
0A
07
0$
#91000
1!
1,
1@
1H
1P
1b
1t
1"(
1[
1m
1"!
1"3
b0000000000000000000000000000000000000000000000010110001101111000 *
0"5
0"-
0"7
1"8
1"*
1N
1J
1A
17
1$
b0000000000000000000000000000000000000000000000010110001101111000 +
#98000
0!
0,
0@
0H
0P
0b
0t
0"(
0[
0m
0"!
0"3
1"5
1"-
1"7
0"8
0"*
0N
0J
0A
07
0$
#105000
1!
1,
1@
1H
1P
1b
1t
1"(
1[
1m
1"!
1"3
b0000000000000000000000000000000000000000000000011001101000101000 *
0"5
0"-
0"7
1"8
1"*
1N
1J
1A
17
1$
b0000000000000000000000000000000000000000000000011001101000101000 +
#112000
0!
0,
0@
0H
0P
0b
0t
0"(
0[
0m
0"!
0"3
1"5
1"-
1"7
0"8
0"*
0N
0J
0A
07
0$
#119000
1!
1,
1@
1H
1P
1b
1t
1"(
1[
1m
1"!
1"3
b0000000000000000000000000000000000000000000000011101000011011000 *
0"5
0"-
0"7
1"8
1"*
1N
1J
1A
17
1$
b0000000000000000000000000000000000000000000000011101000011011000 +
#126000
0!
0,
0@
0H
0P
0b
0t
0"(
0[
0m
0"!
0"3
1"5
1"-
1"7
0"8
0"*
0N
0J
0A
07
0$
#133000
1!
1,
1@
1H
1P
1b
1t
1"(
1[
1m
1"!
1"3
b0000000000000000000000000000000000000000000000100000011110001000 *
0"5
0"-
0"7
1"8
1"*
1N
1J
1A
17
1$
b0000000000000000000000000000000000000000000000100000011110001000 +
#140000
0!
0,
0@
0H
0P
0b
0t
0"(
0[
0m
0"!
0"3
1"5
1"-
1"7
0"8
0"*
0N
0J
0A
07
0$
#147000
1!
1,
1@
1H
1P
1b
1t
1"(
1[
1m
1"!
1"3
b0000000000000000000000000000000000000000000000100011111000111000 *
0"5
0"-
0"7
1"8
1"*
1N
1J
1A
17
1$
b0000000000000000000000000000000000000000000000100011111000111000 +
#154000
0!
0,
0@
0H
0P
0b
0t
0"(
0[
0m
0"!
0"3
1"5
1"-
1"7
0"8
0"*
0N
0J
0A
07
0$
#161000
1!
1,
1@
1H
1P
1b
1t
1"(
1[
1m
1"!
1"3
b0000000000000000000000000000000000000000000000100111010011101000 *
0"5
0"-
0"7
1"8
1"*
1N
1J
1A
17
1$
b0000000000000000000000000000000000000000000000100111010011101000 +
#168000
0!
0,
0@
0H
0P
0b
0t
0"(
0[
0m
0"!
0"3
1"5
1"-
1"7
0"8
0"*
0N
0J
0A
07
0$
#175000
1!
1,
1@
1H
1P
1b
1t
1"(
1[
1m
1"!
1"3
b0000000000000000000000000000000000000000000000101010101110011000 *
0"5
0"-
0"7
1"8
1"*
1N
1J
1A
17
1$
b0000000000000000000000000000000000000000000000101010101110011000 +
#182000
0!
0,
0@
0H
0P
0b
0t
0"(
0[
0m
0"!
0"3
1"5
1"-
1"7
0"8
0"*
0N
0J
0A
07
0$
#189000
1!
1,
1@
1H
1P
1b
1t
1"(
1[
1m
1"!
1"3
b0000000000000000000000000000000000000000000000101110001001001000 *
0"5
0"-
0"7
1"8
1"*
1N
1J
1A
17
1$
b0000000000000000000000000000000000000000000000101110001001001000 +
#196000
0!
0,
0@
0H
0P
0b
0t
0"(
0[
0m
0"!
0"3
1"5
1"-
1"7
0"8
0"*
0N
0J
0A
07
0$
#203000
1!
1,
1@
1H
1P
1b
1t
1"(
1[
1m
1"!
1"3
b0000000000000000000000000000000000000000000000110001100011111000 *
0"5
0"-
0"7
1"8
1"*
1N
1J
1A
17
1$
b0000000000000000000000000000000000000000000000110001100011111000 +
#210000
0!
0,
0@
0H
0P
0b
0t
0"(
0[
0m
0"!
0"3
1"5
1"-
1"7
0"8
0"*
0N
0J
0A
07
0$
#217000
1!
1,
1@
1H
1P
1b
1t
1"(
1[
1m
1"!
1"3
b0000000000000000000000000000000000000000000000110100111110101000 *
0"5
0"-
0"7
1"8
1"*
1N
1J
1A
17
1$
b0000000000000000000000000000000000000000000000110100111110101000 +
#224000
0!
0,
0@
0H
0P
0b
0t
0"(
0[
0m
0"!
0"3
1"5
1"-
1"7
0"8
0"*
0N
0J
0A
07
0$
#231000
1!
1,
1@
1H
1P
1b
1t
1"(
1[
1m
1"!
1"3
b0000000000000000000000000000000000000000000000111000011001011000 *
0"5
0"-
0"7
1"8
1"*
1N
1J
1A
17
1$
b0000000000000000000000000000000000000000000000111000011001011000 +
#238000
0!
0,
0@
0H
0P
0b
0t
0"(
0[
0m
0"!
0"3
1"5
1"-
1"7
0"8
0"*
0N
0J
0A
07
0$
#245000
1!
1,
1@
1H
1P
1b
1t
1"(
1[
1m
1"!
1"3
b0000000000000000000000000000000000000000000000111011110100001000 *
0"5
0"-
0"7
1"8
1"*
1N
1J
1A
17
1$
b0000000000000000000000000000000000000000000000111011110100001000 +
#252000
0!
0,
0@
0H
0P
0b
0t
0"(
0[
0m
0"!
0"3
1"5
1"-
1"7
0"8
0"*
0N
0J
0A
07
0$
#259000
1!
1,
1@
1H
1P
1b
1t
1"(
1[
1m
1"!
1"3
b0000000000000000000000000000000000000000000000111111001110111000 *
0"5
0"-
0"7
1"8
1"*
1N
1J
1A
17
1$
b0000000000000000000000000000000000000000000000111111001110111000 +
#266000
0!
0,
0@
0H
0P
0b
0t
0"(
0[
0m
0"!
0"3
1"5
1"-
1"7
0"8
0"*
0N
0J
0A
07
0$
#270000
b01 #
b01 /
#273000
1!
1,
1@
1H
1P
1b
1t
1"(
1[
1m
1"!
1"3
b0000000000000000000000000000000000000000000001000010101001101000 *
0"5
0"-
0"7
1"8
1"*
1N
1J
1A
17
1$
b0000000000000000000000000000000000000000000001000010101001101000 +
#280000
0!
0,
0@
0H
0P
0b
0t
0"(
0[
0m
0"!
0"3
1"5
1"-
1"7
0"8
0"*
0N
0J
0A
07
0$
#287000
1!
1,
1@
1H
1P
1b
1t
1"(
1[
1m
1"!
1"3
b0000000000000000000000000000000000000000000001000110000100011000 *
0"5
0"-
0"7
1"8
1"*
1N
1J
1A
17
1$
b0000000000000000000000000000000000000000000001000110000100011000 +
#294000
0!
0,
0@
0H
0P
0b
0t
0"(
0[
0m
0"!
0"3
1"5
1"-
1"7
0"8
0"*
0N
0J
0A
07
0$
#301000
1!
1,
1@
1H
1P
1b
1t
1"(
1[
1m
1"!
1"3
b0000000000000000000000000000000000000000000001001001011111001000 *
0"5
0"-
0"7
1"8
1"*
1N
1J
1A
17
1$
b0000000000000000000000000000000000000000000001001001011111001000 +
#308000
0!
0,
0@
0H
0P
0b
0t
0"(
0[
0m
0"!
0"3
1"5
1"-
1"7
0"8
0"*
0N
0J
0A
07
0$
#315000
1!
1,
1@
1H
1P
1b
1t
1"(
1[
1m
1"!
1"3
b0000000000000000000000000000000000000000000001001100111001111000 *
0"5
0"-
0"7
1"8
1"*
1N
1J
1A
17
1$
b0000000000000000000000000000000000000000000001001100111001111000 +
#322000
0!
0,
0@
0H
0P
0b
0t
0"(
0[
0m
0"!
0"3
1"5
1"-
1"7
0"8
0"*
0N
0J
0A
07
0$
#329000
1!
1,
1@
1H
1P
1b
1t
1"(
1[
1m
1"!
1"3
b0000000000000000000000000000000000000000000001010000010100101000 *
0"5
0"-
0"7
1"8
1"*
1N
1J
1A
17
1$
b0000000000000000000000000000000000000000000001010000010100101000 +
#336000
0!
0,
0@
0H
0P
0b
0t
0"(
0[
0m
0"!
0"3
1"5
1"-
1"7
0"8
0"*
0N
0J
0A
07
0$
#343000
1!
1,
1@
1H
1P
1b
1t
1"(
1[
1m
1"!
1"3
b0000000000000000000000000000000000000000000001010011101111011000 *
0"5
0"-
0"7
1"8
1"*
1N
1J
1A
17
1$
b0000000000000000000000000000000000000000000001010011101111011000 +
#350000
0!
0,
0@
0H
0P
0b
0t
0"(
0[
0m
0"!
0"3
1"5
1"-
1"7
0"8
0"*
0N
0J
0A
07
0$
#357000
1!
1,
1@
1H
1P
1b
1t
1"(
1[
1m
1"!
1"3
b0000000000000000000000000000000000000000000001010111001010001000 *
0"5
0"-
0"7
1"8
1"*
1N
1J
1A
17
1$
b0000000000000000000000000000000000000000000001010111001010001000 +
#364000
0!
0,
0@
0H
0P
0b
0t
0"(
0[
0m
0"!
0"3
1"5
1"-
1"7
0"8
0"*
0N
0J
0A
07
0$
#371000
1!
1,
1@
1H
1P
1b
1t
1"(
1[
1m
1"!
1"3
b0000000000000000000000000000000000000000000001011010100100111000 *
0"5
0"-
0"7
1"8
1"*
1N
1J
1A
17
1$
b0000000000000000000000000000000000000000000001011010100100111000 +
#378000
0!
0,
0@
0H
0P
0b
0t
0"(
0[
0m
0"!
0"3
1"5
1"-
1"7
0"8
0"*
0N
0J
0A
07
0$
#385000
1!
1,
1@
1H
1P
1b
1t
1"(
1[
1m
1"!
1"3
b0000000000000000000000000000000000000000000001011101111111101000 *
0"5
0"-
0"7
1"8
1"*
1N
1J
1A
17
1$
b0000000000000000000000000000000000000000000001011101111111101000 +
#392000
0!
0,
0@
0H
0P
0b
0t
0"(
0[
0m
0"!
0"3
1"5
1"-
1"7
0"8
0"*
0N
0J
0A
07
0$
#399000
1!
1,
1@
1H
1P
1b
1t
1"(
1[
1m
1"!
1"3
b0000000000000000000000000000000000000000000001100001011010011000 *
0"5
0"-
0"7
1"8
1"*
1N
1J
1A
17
1$
b0000000000000000000000000000000000000000000001100001011010011000 +
#406000
0!
0,
0@
0H
0P
0b
0t
0"(
0[
0m
0"!
0"3
1"5
1"-
1"7
0"8
0"*
0N
0J
0A
07
0$
#413000
1!
1,
1@
1H
1P
1b
1t
1"(
1[
1m
1"!
1"3
b0000000000000000000000000000000000000000000001100100110101001000 *
0"5
0"-
0"7
1"8
1"*
1N
1J
1A
17
1$
b0000000000000000000000000000000000000000000001100100110101001000 +
#420000
b10 #
b10 /
0!
0,
0@
0H
0P
0b
0t
0"(
0[
0m
0"!
0"3
1"5
1"-
1"7
0"8
0"*
0N
0J
0A
07
0$
#427000
1!
1,
1@
1H
1P
1b
1t
1"(
1[
1m
1"!
1"3
b0000000000000000000000000000000000000000000001101000001111111000 *
0"5
0"-
0"7
1"8
1"*
1N
1J
1A
17
1$
b0000000000000000000000000000000000000000000001101000001111111000 +
#434000
0!
0,
0@
0H
0P
0b
0t
0"(
0[
0m
0"!
0"3
1"5
1"-
1"7
0"8
0"*
0N
0J
0A
07
0$
#441000
1!
1,
1@
1H
1P
1b
1t
1"(
1[
1m
1"!
1"3
b0000000000000000000000000000000000000000000001101011101010101000 *
0"5
0"-
0"7
1"8
1"*
1N
1J
1A
17
1$
b0000000000000000000000000000000000000000000001101011101010101000 +
#448000
0!
0,
0@
0H
0P
0b
0t
0"(
0[
0m
0"!
0"3
1"5
1"-
1"7
0"8
0"*
0N
0J
0A
07
0$
#455000
1!
1,
1@
1H
1P
1b
1t
1"(
1[
1m
1"!
1"3
b0000000000000000000000000000000000000000000001101111000101011000 *
0"5
0"-
0"7
1"8
1"*
1N
1J
1A
17
1$
b0000000000000000000000000000000000000000000001101111000101011000 +
#462000
0!
0,
0@
0H
0P
0b
0t
0"(
0[
0m
0"!
0"3
1"5
1"-
1"7
0"8
0"*
0N
0J
0A
07
0$
#469000
1!
1,
1@
1H
1P
1b
1t
1"(
1[
1m
1"!
1"3
b0000000000000000000000000000000000000000000001110010100000001000 *
0"5
0"-
0"7
1"8
1"*
1N
1J
1A
17
1$
b0000000000000000000000000000000000000000000001110010100000001000 +
#476000
0!
0,
0@
0H
0P
0b
0t
0"(
0[
0m
0"!
0"3
1"5
1"-
1"7
0"8
0"*
0N
0J
0A
07
0$
#483000
1!
1,
1@
1H
1P
1b
1t
1"(
1[
1m
1"!
1"3
b0000000000000000000000000000000000000000000001110101111010111000 *
0"5
0"-
0"7
1"8
1"*
1N
1J
1A
17
1$
b0000000000000000000000000000000000000000000001110101111010111000 +
#490000
0!
0,
0@
0H
0P
0b
0t
0"(
0[
0m
0"!
0"3
1"5
1"-
1"7
0"8
0"*
0N
0J
0A
07
0$
#497000
1!
1,
1@
1H
1P
1b
1t
1"(
1[
1m
1"!
1"3
b0000000000000000000000000000000000000000000001111001010101101000 *
0"5
0"-
0"7
1"8
1"*
1N
1J
1A
17
1$
b0000000000000000000000000000000000000000000001111001010101101000 +
#504000
0!
0,
0@
0H
0P
0b
0t
0"(
0[
0m
0"!
0"3
1"5
1"-
1"7
0"8
0"*
0N
0J
0A
07
0$
#511000
1!
1,
1@
1H
1P
1b
1t
1"(
1[
1m
1"!
1"3
b0000000000000000000000000000000000000000000001111100110000011000 *
0"5
0"-
0"7
1"8
1"*
1N
1J
1A
17
1$
b0000000000000000000000000000000000000000000001111100110000011000 +
#518000
0!
0,
0@
0H
0P
0b
0t
0"(
0[
0m
0"!
0"3
1"5
1"-
1"7
0"8
0"*
0N
0J
0A
07
0$
#525000
1!
1,
1@
1H
1P
1b
1t
1"(
1[
1m
1"!
1"3
b0000000000000000000000000000000000000000000010000000001011001000 *
0"5
0"-
0"7
1"8
1"*
1N
1J
1A
17
1$
b0000000000000000000000000000000000000000000010000000001011001000 +
#532000
0!
0,
0@
0H
0P
0b
0t
0"(
0[
0m
0"!
0"3
1"5
1"-
1"7
0"8
0"*
0N
0J
0A
07
0$
#539000
1!
1,
1@
1H
1P
1b
1t
1"(
1[
1m
1"!
1"3
b0000000000000000000000000000000000000000000010000011100101111000 *
0"5
0"-
0"7
1"8
1"*
1N
1J
1A
17
1$
b0000000000000000000000000000000000000000000010000011100101111000 +
#546000
0!
0,
0@
0H
0P
0b
0t
0"(
0[
0m
0"!
0"3
1"5
1"-
1"7
0"8
0"*
0N
0J
0A
07
0$
#553000
1!
1,
1@
1H
1P
1b
1t
1"(
1[
1m
1"!
1"3
b0000000000000000000000000000000000000000000010000111000000101000 *
0"5
0"-
0"7
1"8
1"*
1N
1J
1A
17
1$
b0000000000000000000000000000000000000000000010000111000000101000 +
#560000
0!
0,
0@
0H
0P
0b
0t
0"(
0[
0m
0"!
0"3
1"5
1"-
1"7
0"8
0"*
0N
0J
0A
07
0$
#567000
1!
1,
1@
1H
1P
1b
1t
1"(
1[
1m
1"!
1"3
b0000000000000000000000000000000000000000000010001010011011011000 *
0"5
0"-
0"7
1"8
1"*
1N
1J
1A
17
1$
b0000000000000000000000000000000000000000000010001010011011011000 +
#570000
b11 #
b11 /
#574000
0!
0,
0@
0H
0P
0b
0t
0"(
0[
0m
0"!
0"3
1"5
1"-
1"7
0"8
0"*
0N
0J
0A
07
0$
#581000
1!
1,
1@
1H
1P
1b
1t
1"(
1[
1m
1"!
1"3
b0000000000000000000000000000000000000000000010001101110110001000 *
0"5
0"-
0"7
1"8
1"*
1N
1J
1A
17
1$
b0000000000000000000000000000000000000000000010001101110110001000 +
#588000
0!
0,
0@
0H
0P
0b
0t
0"(
0[
0m
0"!
0"3
1"5
1"-
1"7
0"8
0"*
0N
0J
0A
07
0$
#595000
1!
1,
1@
1H
1P
1b
1t
1"(
1[
1m
1"!
1"3
b0000000000000000000000000000000000000000000010010001010000111000 *
0"5
0"-
0"7
1"8
1"*
1N
1J
1A
17
1$
b0000000000000000000000000000000000000000000010010001010000111000 +
#602000
0!
0,
0@
0H
0P
0b
0t
0"(
0[
0m
0"!
0"3
1"5
1"-
1"7
0"8
0"*
0N
0J
0A
07
0$
#609000
1!
1,
1@
1H
1P
1b
1t
1"(
1[
1m
1"!
1"3
b0000000000000000000000000000000000000000000010010100101011101000 *
0"5
0"-
0"7
1"8
1"*
1N
1J
1A
17
1$
b0000000000000000000000000000000000000000000010010100101011101000 +
#616000
0!
0,
0@
0H
0P
0b
0t
0"(
0[
0m
0"!
0"3
1"5
1"-
1"7
0"8
0"*
0N
0J
0A
07
0$
#623000
1!
1,
1@
1H
1P
1b
1t
1"(
1[
1m
1"!
1"3
b0000000000000000000000000000000000000000000010011000000110011000 *
0"5
0"-
0"7
1"8
1"*
1N
1J
1A
17
1$
b0000000000000000000000000000000000000000000010011000000110011000 +
#630000
0!
0,
0@
0H
0P
0b
0t
0"(
0[
0m
0"!
0"3
1"5
1"-
1"7
0"8
0"*
0N
0J
0A
07
0$
#637000
1!
1,
1@
1H
1P
1b
1t
1"(
1[
1m
1"!
1"3
b0000000000000000000000000000000000000000000010011011100001001000 *
0"5
0"-
0"7
1"8
1"*
1N
1J
1A
17
1$
b0000000000000000000000000000000000000000000010011011100001001000 +
#644000
0!
0,
0@
0H
0P
0b
0t
0"(
0[
0m
0"!
0"3
1"5
1"-
1"7
0"8
0"*
0N
0J
0A
07
0$
#651000
1!
1,
1@
1H
1P
1b
1t
1"(
1[
1m
1"!
1"3
b0000000000000000000000000000000000000000000010011110111011111000 *
0"5
0"-
0"7
1"8
1"*
1N
1J
1A
17
1$
b0000000000000000000000000000000000000000000010011110111011111000 +
#658000
0!
0,
0@
0H
0P
0b
0t
0"(
0[
0m
0"!
0"3
1"5
1"-
1"7
0"8
0"*
0N
0J
0A
07
0$
#665000
1!
1,
1@
1H
1P
1b
1t
1"(
1[
1m
1"!
1"3
b0000000000000000000000000000000000000000000010100010010110101000 *
0"5
0"-
0"7
1"8
1"*
1N
1J
1A
17
1$
b0000000000000000000000000000000000000000000010100010010110101000 +
#672000
0!
0,
0@
0H
0P
0b
0t
0"(
0[
0m
0"!
0"3
1"5
1"-
1"7
0"8
0"*
0N
0J
0A
07
0$
#679000
1!
1,
1@
1H
1P
1b
1t
1"(
1[
1m
1"!
1"3
b0000000000000000000000000000000000000000000010100101110001011000 *
0"5
0"-
0"7
1"8
1"*
1N
1J
1A
17
1$
b0000000000000000000000000000000000000000000010100101110001011000 +
#686000
0!
0,
0@
0H
0P
0b
0t
0"(
0[
0m
0"!
0"3
1"5
1"-
1"7
0"8
0"*
0N
0J
0A
07
0$
#693000
1!
1,
1@
1H
1P
1b
1t
1"(
1[
1m
1"!
1"3
b0000000000000000000000000000000000000000000010101001001100001000 *
0"5
0"-
0"7
1"8
1"*
1N
1J
1A
17
1$
b0000000000000000000000000000000000000000000010101001001100001000 +
#700000
0!
0,
0@
0H
0P
0b
0t
0"(
0[
0m
0"!
0"3
1"5
1"-
1"7
0"8
0"*
0N
0J
0A
07
0$
#707000
1!
1,
1@
1H
1P
1b
1t
1"(
1[
1m
1"!
1"3
b0000000000000000000000000000000000000000000010101100100110111000 *
0"5
0"-
0"7
1"8
1"*
1N
1J
1A
17
1$
b0000000000000000000000000000000000000000000010101100100110111000 +
#714000
0!
0,
0@
0H
0P
0b
0t
0"(
0[
0m
0"!
0"3
1"5
1"-
1"7
0"8
0"*
0N
0J
0A
07
0$
#721000
1!
1,
1@
1H
1P
1b
1t
1"(
1[
1m
1"!
1"3
b0000000000000000000000000000000000000000000010110000000001101000 *
0"5
0"-
0"7
1"8
1"*
1N
1J
1A
17
1$
b0000000000000000000000000000000000000000000010110000000001101000 +
#724000
0!
0,
0@
0H
0P
0b
0t
0"(
0[
0m
0"!
0"3
1"5
1"-
1"7
0"8
0"*
0N
0J
0A
07
0$
#728000
1!
1,
1@
1H
1P
1b
1t
1"(
1[
1m
1"!
1"3
0!
0,
0@
0H
0P
0b
0t
0"(
0[
0m
0"!
0"3
b0000000000000000000000000000000000000000000010110001101111000000 *
#732000
1!
1,
1@
1H
1P
1b
1t
1"(
1[
1m
1"!
1"3
b0000000000000000000000000000000000000000000010110010101101100000 *
0"5
0"-
0"7
1"8
1"*
1N
1J
1A
17
1$
b0000000000000000000000000000000000000000000010110010101101100000 +
#735000
0!
0,
0@
0H
0P
0b
0t
0"(
0[
0m
0"!
0"3
1"5
1"-
1"7
0"8
0"*
0N
0J
0A
07
0$
#736000
1!
1,
1@
1H
1P
1b
1t
1"(
1[
1m
1"!
1"3
b0000000000000000000000000000000000000000000010110011101100000000 *
0"5
0"-
0"7
1"8
1"*
1N
1J
1A
17
1$
b0000000000000000000000000000000000000000000010110011101100000000 +
#740000
0!
0,
0@
0H
0P
0b
0t
0"(
0[
0m
0"!
0"3
1"5
1"-
1"7
0"8
0"*
0N
0J
0A
07
0$
#742000
1!
1,
1@
1H
1P
1b
1t
1"(
1[
1m
1"!
1"3
b0000000000000000000000000000000000000000000010110101001001110000 *
0"5
0"-
0"7
1"8
1"*
1N
1J
1A
17
1$
b0000000000000000000000000000000000000000000010110101001001110000 +
#744000
0!
0,
0@
0H
0P
0b
0t
0"(
0[
0m
0"!
0"3
1"5
1"-
1"7
0"8
0"*
0N
0J
0A
07
0$
#748000
1!
1,
1@
1H
1P
1b
1t
1"(
1[
1m
1"!
1"3
b0000000000000000000000000000000000000000000010110110100111100000 *
0"5
0"-
0"7
1"8
1"*
1N
1J
1A
17
1$
b0000000000000000000000000000000000000000000010110110100111100000 +
